Division,WeightClassKg,Place,Name,Team,BodyweightKg,Best3SquatKg,Best3BenchKg,Best3DeadliftKg,TotalKg,Equipment,Event,Sex,BirthDate
Boys,51.71,1,Jason Ramirez,Levelland,48.17,145.15,86.18,149.69,381.02,Single-ply,SBD,M,
Boys,51.71,2,Andrik Ramirez,Fort Stockton,51.53,138.35,90.72,140.61,369.68,Single-ply,SBD,M,
Boys,51.71,3,Caleb Hernandez,Perryton,48.17,129.27,79.38,142.88,351.53,Single-ply,SBD,M,
Boys,51.71,4,Brian Tejeda,Perryton,51.71,117.93,74.84,133.81,326.59,Single-ply,SBD,M,
Boys,51.71,5,Mattox Evans,Big Spring,51.44,117.93,68.04,131.54,317.51,Single-ply,SBD,M,
Boys,51.71,6,Jorge De Santiago,Andrews,50.71,115.67,61.23,122.47,299.37,Single-ply,SBD,M,
Boys,51.71,7,Adrian Valdez,Fort Stockton,49.26,108.86,56.7,124.74,290.3,Single-ply,SBD,M,
Boys,51.71,8,Alexis Ramos,Perryton,50.53,102.06,49.9,111.13,263.08,Single-ply,SBD,M,
Boys,51.71,9,Nathan Rendon,Levelland,50.26,86.18,61.23,111.13,258.55,Single-ply,SBD,M,
Boys,51.71,10,Jose Zamora,Dumas,51.35,86.18,56.7,111.13,254.01,Single-ply,SBD,M,
Boys,51.71,NS,Sammy Hernandez,Perryton,,,,,,Single-ply,SBD,M,
Boys,51.71,DQ,Caleb Lee,Monahans,48.53,104.33,61.23,,,Single-ply,SBD,M,
Boys,55.79,1,Kendrick Porras,Fort Stockton,54.98,149.69,90.72,190.51,430.91,Single-ply,SBD,M,
Boys,55.79,2,Bryan Ordaz,Dumas,55.79,161.03,99.79,170.1,430.91,Single-ply,SBD,M,
Boys,55.79,3,Ivan Zamora,Andrews,55.16,151.95,83.91,163.29,399.16,Single-ply,SBD,M,
Boys,55.79,4,Cruz Martinez,Big Spring,55.79,151.95,86.18,154.22,392.36,Single-ply,SBD,M,
Boys,55.79,5,Cesar Ramirez,Perryton,55.34,151.95,77.11,154.22,383.29,Single-ply,SBD,M,
Boys,55.79,6,Isaac Castro,Perryton,54.79,124.74,79.38,149.69,353.8,Single-ply,SBD,M,
Boys,55.79,7,Giovani Pablo,San Angelo Lake View,55.79,138.35,81.65,117.93,337.93,Single-ply,SBD,M,
Boys,55.79,8,Caison Burrus,Fort Stockton,52.89,136.08,61.23,131.54,328.85,Single-ply,SBD,M,
Boys,55.79,9,Luis Chavez,Andrews,54.88,102.06,65.77,124.74,292.57,Single-ply,SBD,M,
Boys,55.79,10,Ian Stewart,Midland Greenwood,55.43,90.72,47.63,108.86,247.21,Single-ply,SBD,M,
Boys,55.79,NS,Trey Jimenez,Sweetwater,,,,,,Single-ply,SBD,M,
Boys,59.87,1,Kendal Adames,Sweetwater,59.87,185.97,102.06,195.04,483.08,Single-ply,SBD,M,
Boys,59.87,2,Fernando Escontrias,Borger,59.6,192.78,86.18,199.58,478.54,Single-ply,SBD,M,
Boys,59.87,3,Johnny Jamison,Snyder,59.69,181.44,86.18,190.51,458.13,Single-ply,SBD,M,
Boys,59.87,4,Sebastian Gonzales,Sweetwater,59.87,176.9,106.59,174.63,458.13,Single-ply,SBD,M,
Boys,59.87,5,Junie Gonzales,Midland Greenwood,59.78,170.1,102.06,170.1,442.25,Single-ply,SBD,M,
Boys,59.87,6,Kenny Richardson,Big Spring,59.51,149.69,83.91,158.76,392.36,Single-ply,SBD,M,
Boys,59.87,7,Emmanuel Ibanez,Dumas,58.97,142.88,88.45,147.42,378.75,Single-ply,SBD,M,
Boys,59.87,8,Uriel Ibanez,Dumas,58.15,129.27,86.18,161.03,376.48,Single-ply,SBD,M,
Boys,59.87,9,Leroy Johnson,Big Spring,59.51,122.47,68.04,142.88,333.39,Single-ply,SBD,M,
Boys,59.87,10,Connor Andrae,Big Spring,56.43,117.93,65.77,147.42,331.12,Single-ply,SBD,M,
Boys,59.87,11,Austin Wood,San Angelo Lake View,59.6,95.25,58.97,104.33,258.55,Single-ply,SBD,M,
Boys,59.87,DQ,Francisco Balderas,Vernon,59.78,145.15,,,,Single-ply,SBD,M,
Boys,67.13,1,Juan Salgado,Fort Stockton,66.77,206.38,151.95,204.12,562.45,Single-ply,SBD,M,
Boys,67.13,2,Levi Condren,Borger,66.68,215.46,120.2,195.04,530.7,Single-ply,SBD,M,
Boys,67.13,3,Lucas Esparza,Andrews,66.95,208.65,120.2,201.85,530.7,Single-ply,SBD,M,
Boys,67.13,4,Josh Lopez,Big Spring,65.68,179.17,102.06,226.8,508.02,Single-ply,SBD,M,
Boys,67.13,5,Christian Laja,Perryton,65.59,197.31,104.33,199.58,501.22,Single-ply,SBD,M,
Boys,67.13,6,Damian Mendoza,Dumas,65.5,192.78,104.33,199.58,496.68,Single-ply,SBD,M,
Boys,67.13,7,Shawn Mendoza,Big Spring,65.95,199.58,108.86,188.24,496.68,Single-ply,SBD,M,
Boys,67.13,8,Uriel Avila,Perryton,66.41,185.97,122.47,188.24,496.68,Single-ply,SBD,M,
Boys,67.13,9,Kenny Ramirez #2,Perryton,66.22,185.97,108.86,188.24,483.08,Single-ply,SBD,M,
Boys,67.13,10,Jaylee Ibarra,Fort Stockton,64.14,195.04,113.4,167.83,476.27,Single-ply,SBD,M,
Boys,67.13,11,Avery Cruz,Midland Greenwood,65.23,176.9,97.52,181.44,455.86,Single-ply,SBD,M,
Boys,67.13,DQ,Devin Mora,Andrews,66.22,219.99,120.2,,,Single-ply,SBD,M,
Boys,67.13,DQ,Brandon Sigala,Levelland,66.5,204.12,,,,Single-ply,SBD,M,
Boys,74.84,1,Joseph Raissez,Perryton,74.03,238.14,117.93,222.26,578.33,Single-ply,SBD,M,
Boys,74.84,2,Raymond Flores,Andrews,72.21,215.46,127.01,213.19,555.65,Single-ply,SBD,M,
Boys,74.84,3,Christian Valles,Andrews,71.4,208.65,115.67,219.99,544.31,Single-ply,SBD,M,
Boys,74.84,4,Devin Doerksen,Seminole,74.39,215.46,108.86,213.19,537.51,Single-ply,SBD,M,
Boys,74.84,5,Damien Gonzalez,Perryton,73.75,206.38,120.2,197.31,523.9,Single-ply,SBD,M,
Boys,74.84,6,Hector Borunda,Dumas,73.94,185.97,117.93,192.78,496.68,Single-ply,SBD,M,
Boys,74.84,7,Gabriel Zubiate,Seminole,73.12,197.31,106.59,188.24,492.15,Single-ply,SBD,M,
Boys,74.84,8,Jimmy Vazquez,Midland Greenwood,72.94,195.04,81.65,167.83,444.52,Single-ply,SBD,M,
Boys,74.84,DQ,Aaron Salazar,Seminole,72.67,188.24,,,,Single-ply,SBD,M,
Boys,74.84,DQ,James Bednorz,Dumas,73.57,183.7,,,,Single-ply,SBD,M,
Boys,74.84,DQ,Jake Wirt,Canyon,73.48,,,,,Single-ply,SBD,M,
Boys,74.84,DQ,Eric Cuellar,Andrews,73.48,190.51,,,,Single-ply,SBD,M,
Boys,82.1,1,Ethan Coleman,Midland Greenwood,81.56,283.5,165.56,258.55,707.6,Single-ply,SBD,M,
Boys,82.1,2,Skyler Davis,Levelland,80.01,213.19,127.01,249.48,589.67,Single-ply,SBD,M,
Boys,82.1,3,Dylan Rodriguez,Snyder,81.1,235.87,113.4,229.06,578.33,Single-ply,SBD,M,
Boys,82.1,4,Petey Martinez,Perryton,81.28,226.8,124.74,226.8,578.33,Single-ply,SBD,M,
Boys,82.1,5,Fernando Zapata,Midland Greenwood,81.74,217.72,124.74,195.04,537.51,Single-ply,SBD,M,
Boys,82.1,6,Alex Clements,Borger,79.74,197.31,102.06,219.99,519.36,Single-ply,SBD,M,
Boys,82.1,7,Junior Torres,Perryton,78.74,208.65,108.86,185.97,503.49,Single-ply,SBD,M,
Boys,82.1,8,Rogelio Cervantes,Big Spring,81.01,195.04,117.93,183.7,496.68,Single-ply,SBD,M,
Boys,82.1,9,Hunter Manning,Andrews,80.83,192.78,97.52,188.24,478.54,Single-ply,SBD,M,
Boys,82.1,DQ,Cannon Speck,Dumas,79.65,,,,,Single-ply,SBD,M,
Boys,82.1,DQ,Carter Christensen,San Angelo Lake View,79.92,183.7,,,,Single-ply,SBD,M,
Boys,82.1,DQ,Clayton Foster,Fort Stockton,76.75,181.44,,,,Single-ply,SBD,M,
Boys,89.81,1,Esau Flores,Andrews,88.18,263.08,167.83,263.08,694,Single-ply,SBD,M,
Boys,89.81,2,Davin Gates,Dumas,87.82,258.55,149.69,238.14,646.37,Single-ply,SBD,M,
Boys,89.81,3,Alonso Tarango,Perryton,88.99,256.28,154.22,224.53,635.03,Single-ply,SBD,M,
Boys,89.81,4,Justin Gonzales,Andrews,89.27,251.74,154.22,229.06,635.03,Single-ply,SBD,M,
Boys,89.81,5,Damon Casarez,Seminole,84.55,242.67,129.27,213.19,585.13,Single-ply,SBD,M,
Boys,89.81,6,Anthony Aguilera,Dalhart,85.55,204.12,136.08,213.19,553.38,Single-ply,SBD,M,
Boys,89.81,7,Tinaye Mubvumba,Vernon,86.27,210.92,129.27,213.19,553.38,Single-ply,SBD,M,
Boys,89.81,8,Efren Uribe,Perryton,88.18,208.65,136.08,195.04,539.77,Single-ply,SBD,M,
Boys,89.81,9,Jose Ibarra,Perryton,86.91,206.38,108.86,204.12,519.36,Single-ply,SBD,M,
Boys,89.81,10,Mark Hernandez,Dumas,88.54,190.51,136.08,185.97,512.56,Single-ply,SBD,M,
Boys,89.81,11,Carson Ward #3,Borger,87.91,181.44,124.74,199.58,505.76,Single-ply,SBD,M,
Boys,89.81,DQ,Bryson Duncan,Snyder,88.81,235.87,,,,Single-ply,SBD,M,
Boys,99.79,1,Reyes Silva,Snyder,97.98,335.66,151.95,249.48,737.09,Single-ply,SBD,M,
Boys,99.79,2,Robert Herndon,Perryton,97.16,294.84,188.24,249.48,732.55,Single-ply,SBD,M,
Boys,99.79,3,Dylen Wolfe,Levelland,97.89,290.3,136.08,231.33,657.71,Single-ply,SBD,M,
Boys,99.79,4,Karlo Sanchez,Dumas,98.34,263.08,158.76,219.99,641.83,Single-ply,SBD,M,
Boys,99.79,5,Isaac Garza,Levelland,91.08,249.48,151.95,238.14,639.57,Single-ply,SBD,M,
Boys,99.79,6,Connor McDonald,Midland Greenwood,99.34,260.82,158.76,199.58,619.15,Single-ply,SBD,M,
Boys,99.79,7,Logan Sanders,San Angelo Lake View,97.34,217.72,142.88,254.01,614.62,Single-ply,SBD,M,
Boys,99.79,8,Isaiah Rodriguez,Big Spring,99.34,260.82,124.74,226.8,612.35,Single-ply,SBD,M,
Boys,99.79,9,Aaron Olivas,Andrews,94.08,256.28,136.08,199.58,591.94,Single-ply,SBD,M,
Boys,99.79,10,Gael Davila,Dumas,97.79,215.46,140.61,210.92,566.99,Single-ply,SBD,M,
Boys,99.79,11,Edgar Flores,Fort Stockton,97.61,199.58,140.61,215.46,555.65,Single-ply,SBD,M,
Boys,99.79,DQ,Xander Richardson,Snyder,94.26,249.48,117.93,,,Single-ply,SBD,M,
Boys,109.77,1,Jesus Lopez,Andrews,104.96,281.23,179.17,254.01,714.41,Single-ply,SBD,M,
Boys,109.77,2,Christian Bell,Midland Greenwood,102.42,263.08,172.37,254.01,689.46,Single-ply,SBD,M,
Boys,109.77,3,Ubaldo Tarango,Perryton,108.5,260.82,167.83,251.74,680.39,Single-ply,SBD,M,
Boys,109.77,4,Chris Delatorre,Dumas,106.41,263.08,158.76,238.14,659.98,Single-ply,SBD,M,
Boys,109.77,5,Joel Estrella,Andrews,106.41,233.6,142.88,247.21,623.69,Single-ply,SBD,M,
Boys,109.77,6,Abel Gonzalez,Perryton,105.6,235.87,138.35,229.06,603.28,Single-ply,SBD,M,
Boys,109.77,7,Irvin Delgado,Seminole,101.06,238.14,127.01,226.8,591.94,Single-ply,SBD,M,
Boys,109.77,8,Everett McGhee,Pecos,105.23,244.94,151.95,195.04,591.94,Single-ply,SBD,M,
Boys,109.77,9,Jeremy Le,Sweetwater,104.51,235.87,140.61,195.04,571.53,Single-ply,SBD,M,
Boys,109.77,10,Daniel Alvidrez,Perryton,104.14,219.99,111.13,233.6,564.72,Single-ply,SBD,M,
Boys,109.77,11,Ely Barrera,Sweetwater,107.05,204.12,108.86,251.74,564.72,Single-ply,SBD,M,
Boys,109.77,DQ,Kyle Coffey,Monahans,106.32,233.6,154.22,,,Single-ply,SBD,M,
Boys,124.74,1,Omar Hernandez,Dumas,119.39,288.03,185.97,244.94,718.94,Single-ply,SBD,M,
Boys,124.74,2,Shane Whitworth,Canyon,115.76,278.96,183.7,240.4,703.07,Single-ply,SBD,M,
Boys,124.74,3,Jaziel Torres,Borger,112.49,285.76,185.97,206.38,678.12,Single-ply,SBD,M,
Boys,124.74,4,Andrew Roberts,Big Spring,122.56,263.08,181.44,217.72,662.24,Single-ply,SBD,M,
Boys,124.74,5,Miguel Celis,Perryton,114.67,263.08,167.83,226.8,657.71,Single-ply,SBD,M,
Boys,124.74,6,Bo Christie,Canyon,111.04,251.74,158.76,240.4,650.91,Single-ply,SBD,M,
Boys,124.74,7,Yostin Villagomez,Dalhart,112.22,229.06,170.1,208.65,607.81,Single-ply,SBD,M,
Boys,124.74,8,Caleb Alexander,Seminole,115.21,247.21,140.61,217.72,605.55,Single-ply,SBD,M,
Boys,124.74,9,Juan Ortiz,San Angelo Lake View,122.56,229.06,140.61,215.46,585.13,Single-ply,SBD,M,
Boys,124.74,10,Memphis Alvarado,Fort Stockton,118.66,206.38,154.22,176.9,537.51,Single-ply,SBD,M,
Boys,124.74,11,Octavio Caballero,Andrews,113.04,190.51,111.13,213.19,514.83,Single-ply,SBD,M,
Boys,124.74,NS,Kevin Townsend,San Angelo Lake View,,,,,,Single-ply,SBD,M,
Boys,124.74+,1,Yordi Hernandez,Perryton,129.09,306.17,183.7,267.62,757.5,Single-ply,SBD,M,
Boys,124.74+,2,Jaden Massey,Dalhart,154.95,306.17,215.46,235.87,757.5,Single-ply,SBD,M,
Boys,124.74+,3,Kwinton Jennings,Seminole,142.61,306.17,174.63,244.94,725.75,Single-ply,SBD,M,
Boys,124.74+,4,Albert Aguilar,Pecos,154.67,285.76,206.38,233.6,725.75,Single-ply,SBD,M,
Boys,124.74+,5,Ethan Sanchez,San Angelo Lake View,140.25,272.16,190.51,244.94,707.6,Single-ply,SBD,M,
Boys,124.74+,6,Daniel Roberts,Big Spring,132,231.33,158.76,195.04,585.13,Single-ply,SBD,M,
Boys,124.74+,7,Jonathan Gomez,Fort Stockton,143.15,235.87,136.08,213.19,585.13,Single-ply,SBD,M,
Boys,124.74+,8,Lucas Martinez,Dumas,125.65,226.8,138.35,217.72,582.87,Single-ply,SBD,M,
Boys,124.74+,9,Antonio Ronquillo,San Angelo Lake View,146.42,185.97,149.69,179.17,514.83,Single-ply,SBD,M,
Boys,124.74+,10,Luis Mendoza,Fort Stockton,128.09,204.12,122.47,158.76,485.34,Single-ply,SBD,M,
Boys,124.74+,11,Cristian Salinas,Dalhart,127.37,197.31,129.27,156.49,483.08,Single-ply,SBD,M,
Boys,124.74+,12,Jacob Payne,Monahans,128.73,181.44,97.52,154.22,433.18,Single-ply,SBD,M,
