Division,WeightClassKg,Place,Name,Team,BodyweightKg,Best3SquatKg,Best3BenchKg,Best3DeadliftKg,TotalKg,Equipment,Event,Sex,BirthDate
Boys,51.71,1,Chasmon Davis,Everman,50.89,170.1,90.72,172.37,433.18,Single-ply,SBD,M,
Boys,51.71,NS,Reace Norris,Venus,,,,,,Single-ply,SBD,M,
Boys,55.79,1,Dj Williams,Everman,55.79,183.7,95.25,170.1,449.06,Single-ply,SBD,M,
Boys,55.79,2,Kenaj Washington,Kennedale,52.53,136.08,79.38,142.88,358.34,Single-ply,SBD,M,
Boys,55.79,3,Aaron Neal,Eustace,55.79,113.4,61.23,142.88,317.51,Single-ply,SBD,M,
Boys,55.79,4,Eric Tapia,Gunter,51.89,117.93,63.5,115.67,297.1,Single-ply,SBD,M,
Boys,55.79,5,Ralen Allen,Everman,54.61,113.4,68.04,102.06,283.5,Single-ply,SBD,M,
Boys,55.79,6,Dylan Martinez,Castleberry,55.61,95.25,45.36,111.13,251.74,Single-ply,SBD,M,
Boys,55.79,7,Jason Hammons,Mesquite Horn,52.34,70.31,40.82,106.59,217.72,Single-ply,SBD,M,
Boys,59.87,1,Braeden Knoll,Azle,58.69,142.88,92.99,142.88,378.75,Single-ply,SBD,M,
Boys,59.87,2,Adrian Perez,Castleberry,57.42,142.88,88.45,145.15,376.48,Single-ply,SBD,M,
Boys,59.87,3,Adrian Araiza,Bishop Lynch,58.06,88.45,40.82,95.25,224.53,Single-ply,SBD,M,
Boys,59.87,DQ,Jeremiah Williams,Bishop Lynch,57.15,108.86,,,,Single-ply,SBD,M,
Boys,59.87,DQ,Ever Barron,Everman,59.6,199.58,,,,Single-ply,SBD,M,
Boys,67.13,1,Joe Cullum,Kennedale,66.41,217.72,145.15,190.51,553.38,Single-ply,SBD,M,
Boys,67.13,2,Aaron Ambriz,Everman,65.86,204.12,115.67,208.65,528.44,Single-ply,SBD,M,
Boys,67.13,3,Gabriel Leal,Venus,65.59,158.76,147.42,174.63,480.81,Single-ply,SBD,M,
Boys,67.13,4,Hunter Martin #2,Azle,64.86,190.51,104.33,183.7,478.54,Single-ply,SBD,M,
Boys,67.13,5,Ethan Barboza,Castleberry,65.86,183.7,113.4,167.83,464.93,Single-ply,SBD,M,
Boys,67.13,6,Saul Bazan,Castleberry,63.87,163.29,111.13,170.1,444.52,Single-ply,SBD,M,
Boys,67.13,7,Colton Depoy,Hillsboro,64.23,151.95,113.4,176.9,442.25,Single-ply,SBD,M,
Boys,67.13,8,Diego Mendez,Crandall,65.14,165.56,104.33,172.37,442.25,Single-ply,SBD,M,
Boys,67.13,9,Logan Baker,Eustace,67.13,183.7,104.33,151.95,439.98,Single-ply,SBD,M,
Boys,67.13,10,Travis Neyhart,Kennedale,66.13,170.1,90.72,158.76,419.57,Single-ply,SBD,M,
Boys,67.13,11,Jerree Mills,Kennedale,63.87,158.76,104.33,151.95,415.04,Single-ply,SBD,M,
Boys,67.13,12,Dominic Cunnigham,Kennedale,63.23,151.95,92.99,165.56,410.5,Single-ply,SBD,M,
Boys,67.13,13,Gio Grimaldo,Crandall,61.51,156.49,97.52,147.42,401.43,Single-ply,SBD,M,
Boys,67.13,14,Alejandro Mejia,Venus,67.13,142.88,97.52,158.76,399.16,Single-ply,SBD,M,
Boys,67.13,15,Erick Torres,Venus,66.5,163.29,97.52,133.81,394.63,Single-ply,SBD,M,
Boys,67.13,16,Spicer Roof,Kennedale,66.04,151.95,68.04,149.69,369.68,Single-ply,SBD,M,
Boys,67.13,17,Roberto Fernandez,Bishop Lynch,63.68,127.01,81.65,142.88,351.53,Single-ply,SBD,M,
Boys,67.13,18,Vilmer Zammarron,Crandall,66.86,122.47,63.5,127.01,312.98,Single-ply,SBD,M,
Boys,67.13,19,Cesar Torres,Hillsboro,64.68,124.74,74.84,106.59,306.17,Single-ply,SBD,M,
Boys,67.13,20,Jesse Belcher,Eustace,66.5,124.74,70.31,111.13,306.17,Single-ply,SBD,M,
Boys,67.13,21,Cesar Reyes,Mesquite Horn,65.77,104.33,65.77,122.47,292.57,Single-ply,SBD,M,
Boys,67.13,22,Caleb Garcia,Mesquite Horn,64.68,90.72,61.23,99.79,251.74,Single-ply,SBD,M,
Boys,74.84,1,Micah Conner,Kennedale,73.75,233.6,117.93,242.67,594.21,Single-ply,SBD,M,
Boys,74.84,2,Cameron Hynson,Kennedale,71.3,206.38,138.35,238.14,582.87,Single-ply,SBD,M,
Boys,74.84,3,Kevin Jarvis,Everman,73.39,215.46,104.33,204.12,523.9,Single-ply,SBD,M,
Boys,74.84,4,Brendene Ramos,Castleberry,73.57,181.44,131.54,188.24,501.22,Single-ply,SBD,M,
Boys,74.84,5,Caulan Jackson,Crowley,74.48,170.1,120.2,188.24,478.54,Single-ply,SBD,M,
Boys,74.84,6,Marcus Gonzales,Hillsboro,72.76,161.03,102.06,188.24,451.32,Single-ply,SBD,M,
Boys,74.84,7,Haden Keils,Mesquite Horn,74.39,163.29,111.13,163.29,437.72,Single-ply,SBD,M,
Boys,74.84,8,Kevin Nyguen,Azle,71.58,161.03,106.59,163.29,430.91,Single-ply,SBD,M,
Boys,74.84,9,Humberto Castaneda,Castleberry,72.57,154.22,108.86,158.76,421.84,Single-ply,SBD,M,
Boys,74.84,10,Tariq Ramadan,Red Oak,73.57,151.95,90.72,174.63,417.3,Single-ply,SBD,M,
Boys,74.84,11,Juan Hernandez,Castleberry,71.58,147.42,104.33,161.03,412.77,Single-ply,SBD,M,
Boys,74.84,12,Jon Hoffman,Venus,70.49,151.95,92.99,156.49,401.43,Single-ply,SBD,M,
Boys,74.84,13,Shane Hull,Kennedale,67.95,142.88,83.91,138.35,365.14,Single-ply,SBD,M,
Boys,74.84,14,Oscar Torres,Hillsboro,67.77,145.15,74.84,142.88,362.87,Single-ply,SBD,M,
Boys,74.84,15,Jacob Parrish,Gunter,71.3,120.2,90.72,142.88,353.8,Single-ply,SBD,M,
Boys,74.84,16,Dalton Gomez,Crandall,68.4,117.93,86.18,147.42,351.53,Single-ply,SBD,M,
Boys,74.84,17,Devin Bueno,Crowley,73.94,142.88,68.04,136.08,347,Single-ply,SBD,M,
Boys,74.84,18,Javier Tavera,Inspired Vision,74.03,122.47,79.38,145.15,347,Single-ply,SBD,M,
Boys,74.84,19,Bryan Gonzalez,Inspired Vision,73.84,133.81,61.23,149.69,344.73,Single-ply,SBD,M,
Boys,74.84,DQ,Alex Varela,Inspired Vision,73.39,142.88,,,,Single-ply,SBD,M,
Boys,74.84,DQ,Kadyn Putty,Venus,74.03,142.88,,,,Single-ply,SBD,M,
Boys,82.1,1,Diego Cortez,Everman,80.1,260.82,115.67,238.14,614.62,Single-ply,SBD,M,
Boys,82.1,2,Tommy Crockett,Crandall,82.1,181.44,127.01,181.44,489.88,Single-ply,SBD,M,
Boys,82.1,3,Alonzo Abreau,Castleberry,75.02,158.76,113.4,181.44,453.59,Single-ply,SBD,M,
Boys,82.1,4,Alpha Tyler,Crowley,75.02,174.63,97.52,158.76,430.91,Single-ply,SBD,M,
Boys,82.1,5,Antoine Martin,Kennedale,80.1,147.42,83.91,174.63,405.97,Single-ply,SBD,M,
Boys,82.1,6,Nick Jones,Mesquite Horn,81.01,142.88,72.57,183.7,399.16,Single-ply,SBD,M,
Boys,82.1,7,Zach Lewis,Crandall,79.56,111.13,99.79,151.95,362.87,Single-ply,SBD,M,
Boys,82.1,8,Alan Beltran,Hillsboro,79.2,136.08,68.04,145.15,349.27,Single-ply,SBD,M,
Boys,82.1,9,Aiden Poe,Kennedale,79.38,104.33,83.91,136.08,324.32,Single-ply,SBD,M,
Boys,82.1,10,Jabari Granberry,Inspired Vision,75.48,108.86,61.23,142.88,312.98,Single-ply,SBD,M,
Boys,82.1,DQ,Braden Waters,Kennedale,76.57,165.56,92.99,,,Single-ply,SBD,M,
Boys,82.1,DQ,Billy Medellin,Mesquite Horn,75.21,147.42,,,,Single-ply,SBD,M,
Boys,89.81,1,Phiromhathai Dimanh,Venus,86.18,183.7,97.52,188.24,469.47,Single-ply,SBD,M,
Boys,89.81,2,Evan Warren,Crowley,88.63,158.76,92.99,183.7,435.45,Single-ply,SBD,M,
Boys,89.81,3,Copeland Hayes,Kennedale,88.18,129.27,79.38,142.88,351.53,Single-ply,SBD,M,
Boys,89.81,4,Anthony Miles,Kennedale,89.27,142.88,81.65,115.67,340.19,Single-ply,SBD,M,
Boys,99.79,1,David Omosigho,Crandall,97.07,210.92,151.95,229.06,591.94,Single-ply,SBD,M,
Boys,99.79,2,Peter Chavez,Bishop Lynch,93.26,233.6,131.54,192.78,557.92,Single-ply,SBD,M,
Boys,99.79,3,Tristan Stokes,Crowley,93.17,201.85,113.4,204.12,519.36,Single-ply,SBD,M,
Boys,99.79,4,Moises Ibanez,Kennedale,97.16,192.78,124.74,192.78,510.29,Single-ply,SBD,M,
Boys,99.79,5,Christopher Washington,Kennedale,97.98,170.1,131.54,201.85,503.49,Single-ply,SBD,M,
Boys,99.79,6,Drelyn Shannon-McKnight,Everman,94.08,204.12,136.08,158.76,498.95,Single-ply,SBD,M,
Boys,99.79,7,Josue Arellanes,Castleberry,92.44,183.7,111.13,188.24,483.08,Single-ply,SBD,M,
Boys,99.79,8,Sean Black,Red Oak,92.53,158.76,108.86,197.31,464.93,Single-ply,SBD,M,
Boys,99.79,9,Ramon Soto,Hillsboro,99.79,188.24,106.59,161.03,455.86,Single-ply,SBD,M,
Boys,99.79,10,Justin Henson,Eustace,91.26,181.44,111.13,161.03,453.59,Single-ply,SBD,M,
Boys,99.79,11,Owen Agbamu,Mesquite Horn,92.62,142.88,65.77,181.44,390.09,Single-ply,SBD,M,
Boys,99.79,12,Jacob Russell,Red Oak,97.79,102.06,92.99,156.49,351.53,Single-ply,SBD,M,
Boys,99.79,13,Jordan Perez,Red Oak,97.07,102.06,90.72,142.88,335.66,Single-ply,SBD,M,
Boys,99.79,14,Juan Hernandez,Inspired Vision,95.71,106.59,90.72,111.13,308.44,Single-ply,SBD,M,
Boys,99.79,NS,Logan Brazeal,Watauga Harvest Christian Academy,,,,,,Single-ply,SBD,M,
Boys,109.77,1,Marcello Deanda,Azle,108.86,226.8,149.69,181.44,557.92,Single-ply,SBD,M,
Boys,109.77,2,Riley Norton,Azle,108.23,238.14,133.81,170.1,542.04,Single-ply,SBD,M,
Boys,109.77,3,Taylor Miller,Everman,109.5,192.78,113.4,204.12,510.29,Single-ply,SBD,M,
Boys,109.77,4,Chris Butler #5,Crowley,107.5,181.44,102.06,204.12,487.61,Single-ply,SBD,M,
Boys,109.77,5,Kevin Allen,Everman,107.86,174.63,108.86,197.31,480.81,Single-ply,SBD,M,
Boys,109.77,6,Manuel Ochoa,Mesquite Horn,105.23,188.24,102.06,176.9,467.2,Single-ply,SBD,M,
Boys,109.77,7,Bryan Resendiz,Everman,104.6,170.1,102.06,183.7,455.86,Single-ply,SBD,M,
Boys,109.77,8,Alexis Monreal,Inspired Vision,108.41,174.63,102.06,165.56,442.25,Single-ply,SBD,M,
Boys,109.77,9,Rowdy Dawson,Azle,101.6,158.76,106.59,151.95,417.3,Single-ply,SBD,M,
Boys,109.77,10,Nathaniel Sierra,Red Oak,105.51,142.88,90.72,174.63,408.23,Single-ply,SBD,M,
Boys,109.77,11,Nico Glynn,Watauga Harvest Christian Academy,108.68,163.29,102.06,136.08,401.43,Single-ply,SBD,M,
Boys,109.77,12,Jonathan Porter,Crowley,105.41,136.08,86.18,147.42,369.68,Single-ply,SBD,M,
Boys,109.77,13,Cameron McDowell,Hillsboro,101.79,113.4,90.72,136.08,340.19,Single-ply,SBD,M,
Boys,109.77,14,Hunter Hunt,Kennedale,101.6,124.74,70.31,138.35,333.39,Single-ply,SBD,M,
Boys,109.77,NS,Carlos Quijano,Venus,,,,,,Single-ply,SBD,M,
Boys,109.77,DQ,Omari Jackson,Red Oak,103.6,,,,,Single-ply,SBD,M,
Boys,124.74,1,Jalan Henderson,Everman,124.65,294.84,167.83,272.16,734.82,Single-ply,SBD,M,
Boys,124.74,2,Seth Martin,Everman,122.47,249.48,136.08,263.08,648.64,Single-ply,SBD,M,
Boys,124.74,3,Junior Seay,Kennedale,114.94,249.48,170.1,226.8,646.37,Single-ply,SBD,M,
Boys,124.74,4,Adrian Anderson,Everman,116.39,249.48,158.76,204.12,612.35,Single-ply,SBD,M,
Boys,124.74,5,Luis Garcia,Eustace,121.29,260.82,131.54,204.12,596.47,Single-ply,SBD,M,
Boys,124.74,6,Charles Sanders,Castleberry,115.21,226.8,136.08,226.8,589.67,Single-ply,SBD,M,
Boys,124.74,7,Trinton Jones,Crowley,124.47,204.12,136.08,217.72,557.92,Single-ply,SBD,M,
Boys,124.74,8,Reagan Spencer,Gunter,124.1,224.53,124.74,170.1,519.36,Single-ply,SBD,M,
Boys,124.74,9,Dylan Bueno,Crowley,114.49,199.58,117.93,183.7,501.22,Single-ply,SBD,M,
Boys,124.74,10,Fabian Silvas,Hillsboro,113.58,192.78,115.67,142.88,451.32,Single-ply,SBD,M,
Boys,124.74,11,Justin Nwabueze,Red Oak,118.3,158.76,86.18,183.7,428.64,Single-ply,SBD,M,
Boys,124.74,12,Brandon Wade,Everman,122.38,170.1,83.91,142.88,396.89,Single-ply,SBD,M,
Boys,124.74,13,Peyton Garrison,Gunter,115.76,142.88,92.99,149.69,385.55,Single-ply,SBD,M,
Boys,124.74,14,Javier Rubio,Hillsboro,111.86,151.95,79.38,124.74,356.07,Single-ply,SBD,M,
Boys,124.74,DQ,Salvador Hipolito,Mesquite Horn,117.48,147.42,72.57,,,Single-ply,SBD,M,
Boys,124.74,DQ,Kameron Tatum,Red Oak,121.29,129.27,,,,Single-ply,SBD,M,
Boys,124.74+,1,Marc Johnson,Crowley,181.98,319.78,206.38,283.5,809.66,Single-ply,SBD,M,
Boys,124.74+,2,Victor Garcia,Kennedale,128.64,312.98,183.7,229.06,725.75,Single-ply,SBD,M,
Boys,124.74+,3,Isaac Allen,Mesquite Horn,128.09,226.8,131.54,226.8,585.13,Single-ply,SBD,M,
Boys,124.74+,4,Colby Henry,Kennedale,167.28,195.04,120.2,204.12,519.36,Single-ply,SBD,M,
Boys,124.74+,5,Chris Jones #24,Crowley,132.72,183.7,131.54,183.7,498.95,Single-ply,SBD,M,
Boys,124.74+,6,Jared Pele,Everman,127.55,188.24,104.33,170.1,462.66,Single-ply,SBD,M,
Boys,124.74+,7,Kain Cooper,Red Oak,133.54,183.7,111.13,167.83,462.66,Single-ply,SBD,M,
Boys,124.74+,8,Nick Ingram,Crowley,134.54,163.29,102.06,167.83,433.18,Single-ply,SBD,M,
Boys,124.74+,9,Zachary Edwards,Red Oak,167.92,102.06,92.99,142.88,337.93,Single-ply,SBD,M,
