Division,WeightClassKg,Place,Name,Team,BodyweightKg,Best3SquatKg,Best3BenchKg,Best3DeadliftKg,TotalKg,Equipment,Event,Sex
Girls,44.23,1,Iliana Gamez,Edinburg Vela,43.95,117.93,63.5,106.59,288.03,Single-ply,SBD,F
Girls,44.23,2,Franchesca Cantu,Edinburg Economedes,43.73,113.4,52.16,120.2,285.76,Single-ply,SBD,F
Girls,44.23,3,Jimena Diaz,Edinburg,44.18,95.25,38.56,111.13,244.94,Single-ply,SBD,F
Girls,44.23,4,Erika Diaz,La Joya Palmview,43.54,92.99,43.09,88.45,224.53,Single-ply,SBD,F
Girls,44.23,5,Ana Herrera,Edinburg,43.68,97.52,38.56,83.91,219.99,Single-ply,SBD,F
Girls,44.23,6,Samantha Badillo,Donna North,40.32,54.43,29.48,68.04,151.95,Single-ply,SBD,F
Girls,47.85,1,Sabrina Espinoza,McAllen,47.36,106.59,56.7,113.4,276.69,Single-ply,SBD,F
Girls,47.85,2,Mia Munoz,McAllen Memorial,47.13,102.06,61.23,104.33,267.62,Single-ply,SBD,F
Girls,47.85,3,Michelle Rodriguez,La Joya Palmview,46.27,104.33,54.43,106.59,265.35,Single-ply,SBD,F
Girls,47.85,4,Yaritza Ortiz,La Joya Palmview,46.99,104.33,45.36,106.59,256.28,Single-ply,SBD,F
Girls,47.85,5,Karla Lopez,Sharyland Pioneer,44.41,88.45,49.9,106.59,244.94,Single-ply,SBD,F
Girls,47.85,6,Baylee Garza,McAllen Rowe,47.85,90.72,52.16,102.06,244.94,Single-ply,SBD,F
Girls,47.85,7,Victoria Plata,McAllen,47.67,102.06,36.29,104.33,242.67,Single-ply,SBD,F
Girls,47.85,8,Kayla Anaya,Edinburg Vela,47.76,83.91,54.43,92.99,231.33,Single-ply,SBD,F
Girls,47.85,9,Nicole Ruiz,Edinburg North,47.22,88.45,47.63,90.72,226.8,Single-ply,SBD,F
Girls,47.85,10,Natalia Villarreal,Edinburg Vela,46.45,88.45,36.29,90.72,215.46,Single-ply,SBD,F
Girls,47.85,11,Daniela Plata,McAllen,46.99,88.45,34.02,92.99,215.46,Single-ply,SBD,F
Girls,47.85,12,Adriana Garza,Sharyland Pioneer,45.04,81.65,38.56,81.65,201.85,Single-ply,SBD,F
Girls,47.85,13,Maria Gutierrez,Edinburg,44.86,83.91,43.09,72.57,199.58,Single-ply,SBD,F
Girls,47.85,14,Sandra Velasquez,Edinburg,47.81,88.45,27.22,83.91,199.58,Single-ply,SBD,F
Girls,47.85,15,Yulissa Resendez,Rio Grande City,47.22,79.38,36.29,79.38,195.04,Single-ply,SBD,F
Girls,47.85,16,Matilde Garza,Rio Grande City,46.08,68.04,29.48,70.31,167.83,Single-ply,SBD,F
Girls,51.94,1,Priscilla Hernandez,La Joya Palmview,51.48,142.88,68.04,140.61,351.53,Single-ply,SBD,F
Girls,51.94,2,Ashley Tijenia,Mission Sharyland,51.75,127.01,61.23,129.27,317.51,Single-ply,SBD,F
Girls,51.94,3,Camila Velez,Mission Sharyland,51.12,127.01,56.7,124.74,308.44,Single-ply,SBD,F
Girls,51.94,4,Yanitza Vasquez,La Joya Juarez-Lincoln,49.08,120.2,47.63,136.08,303.91,Single-ply,SBD,F
Girls,51.94,5,Daniela Echavarria,McAllen,51.21,111.13,49.9,124.74,285.76,Single-ply,SBD,F
Girls,51.94,6,Karla Martinez,Donna North,51.57,95.25,45.36,102.06,242.67,Single-ply,SBD,F
Girls,51.94,7,Naylee Trevino,Donna North,51.57,95.25,45.36,97.52,238.14,Single-ply,SBD,F
Girls,51.94,8,Irali Cerda,Donna North,50.44,86.18,40.82,106.59,233.6,Single-ply,SBD,F
Girls,51.94,9,DeAndra Canales,Rio Grande City,50.26,74.84,34.02,92.99,201.85,Single-ply,SBD,F
Girls,51.94,10,Kasey Escamilla,Rio Grande City,51.48,45.36,27.22,61.23,133.81,Single-ply,SBD,F
Girls,51.94,11,Jennifer Prado,McAllen Memorial,51.89,108.86,,,108.86,Single-ply,S,F
Girls,51.94,DQ,Isela Cantu,La Joya,49.31,92.99,,,,Single-ply,SBD,F
Girls,51.94,DQ,Onaitza Morales,Edinburg Vela,50.44,,,,,Single-ply,SBD,F
Girls,51.94,DQ,Amanda Rodriguez,Mission Sharyland,50.85,,,,,Single-ply,SBD,F
Girls,56.02,1,Odalys Serna,Edinburg Economedes,55.84,142.88,68.04,151.95,362.87,Single-ply,SBD,F
Girls,56.02,2,Donna Mondragon,La Joya Palmview,55.25,147.42,68.04,138.35,353.8,Single-ply,SBD,F
Girls,56.02,3,Natalie Villalon,La Joya Palmview,55.7,136.08,68.04,138.35,342.46,Single-ply,SBD,F
Girls,56.02,4,Katarina Moseley,McAllen,53.75,136.08,56.7,129.27,322.05,Single-ply,SBD,F
Girls,56.02,5,Juliette Cantu,Edinburg Vela,52.16,129.27,68.04,111.13,308.44,Single-ply,SBD,F
Girls,56.02,6,Faith Escamilla,McAllen Memorial,55.57,127.01,45.36,120.2,292.57,Single-ply,SBD,F
Girls,56.02,7,Brianna Anzaldua,Sharyland Pioneer,54.61,117.93,38.56,117.93,274.42,Single-ply,SBD,F
Girls,56.02,8,Sheyla Cantu,La Joya Juarez-Lincoln,54.3,97.52,56.7,117.93,272.16,Single-ply,SBD,F
Girls,56.02,9,Danielle Rocha,Donna North,56.02,113.4,56.7,102.06,272.16,Single-ply,SBD,F
Girls,56.02,10,Karla Acuna,Edinburg,55.66,106.59,40.82,106.59,254.01,Single-ply,SBD,F
Girls,56.02,11,Karrel Miana,Rio Grande City,54.7,95.25,38.56,83.91,217.72,Single-ply,SBD,F
Girls,56.02,12,Kaylee Martinez,McAllen Rowe,55.47,79.38,47.63,90.72,217.72,Single-ply,SBD,F
Girls,56.02,DQ,Vivika Castillo,Edinburg North,53.61,,,,,Single-ply,SBD,F
Girls,60.1,1,Christina Ybarra,Sharyland Pioneer,60.06,156.49,72.57,149.69,378.75,Single-ply,SBD,F
Girls,60.1,2,Veronica Alanis,Edinburg,59.38,131.54,81.65,145.15,358.34,Single-ply,SBD,F
Girls,60.1,3,Heidi Rosales,Donna North,58.79,108.86,54.43,124.74,288.03,Single-ply,SBD,F
Girls,60.1,4,Bryanna Marroquin,Edinburg North,58.56,99.79,56.7,102.06,258.55,Single-ply,SBD,F
Girls,60.1,5,Lilliane Jackson,McAllen,57.83,88.45,58.97,108.86,256.28,Single-ply,SBD,F
Girls,60.1,6,Melanie Cobos,La Joya Palmview,59.51,106.59,45.36,102.06,254.01,Single-ply,SBD,F
Girls,60.1,7,Alisha Garcia,La Joya,59.51,92.99,36.29,90.72,219.99,Single-ply,SBD,F
Girls,60.1,8,Aaliyah Aguirre,La Joya Juarez-Lincoln,59.65,74.84,38.56,83.91,197.31,Single-ply,SBD,F
Girls,60.1,DQ,Izabel Juarez,Edinburg North,57.56,86.18,,,,Single-ply,SBD,F
Girls,67.36,1,Isabella Contreras,McAllen,62.28,192.78,120.2,161.03,474,Single-ply,SBD,F
Girls,67.36,2,Audrey Waller,Edinburg Vela,66.18,145.15,68.04,120.2,333.39,Single-ply,SBD,F
Girls,67.36,3,Mia Murphy,McAllen Rowe,66.95,124.74,61.23,115.67,301.64,Single-ply,SBD,F
Girls,67.36,4,Kimberly Gonzalez,Edinburg,62.91,115.67,56.7,113.4,285.76,Single-ply,SBD,F
Girls,67.36,5,Ennette Diaz,La Joya Palmview,64.14,120.2,52.16,113.4,285.76,Single-ply,SBD,F
Girls,67.36,6,Maritza Espinoza,Donna North,61.01,115.67,56.7,111.13,283.5,Single-ply,SBD,F
Girls,67.36,7,Alyssa de la Garza,McAllen Rowe,62.23,117.93,56.7,104.33,278.96,Single-ply,SBD,F
Girls,67.36,8,Marisol Sauceda,Edinburg Economedes,63.37,99.79,58.97,111.13,269.89,Single-ply,SBD,F
Girls,67.36,9,Monett Rodriguez,Sharyland Pioneer,66.9,111.13,54.43,102.06,267.62,Single-ply,SBD,F
Girls,67.36,10,Zaylin Cavazos,Edinburg North,66.9,99.79,49.9,106.59,256.28,Single-ply,SBD,F
Girls,67.36,11,Odaly Sandoval,Donna North,63.46,102.06,43.09,92.99,238.14,Single-ply,SBD,F
Girls,67.36,12,Alexia Rosas,La Joya Juarez-Lincoln,64.68,92.99,43.09,97.52,233.6,Single-ply,SBD,F
Girls,67.36,13,Infinity Jimenez,McAllen Rowe,65.45,81.65,36.29,97.52,215.46,Single-ply,SBD,F
Girls,67.36,14,Destiny Chavez,La Joya,64.86,83.91,40.82,88.45,213.19,Single-ply,SBD,F
Girls,67.36,15,Anastasia Garcia,La Joya,64.46,68.04,45.36,97.52,210.92,Single-ply,SBD,F
Girls,67.36,DQ,Gabby Martinez,Mission Sharyland,65.59,,,,,Single-ply,SBD,F
Girls,75.07,1,Carolina Constantino,Mission Sharyland,68.99,176.9,74.84,138.35,390.09,Single-ply,SBD,F
Girls,75.07,2,Alyssa Moreno,McAllen Memorial,72.8,151.95,77.11,136.08,365.14,Single-ply,SBD,F
Girls,75.07,3,Andrea Ochoa,Edinburg Vela,70.94,142.88,74.84,142.88,360.61,Single-ply,SBD,F
Girls,75.07,4,Mitzi de la Cruz,Edinburg Economedes,71.58,145.15,63.5,151.95,360.61,Single-ply,SBD,F
Girls,75.07,5,Jennifer Perez,Edinburg Economedes,73.66,140.61,49.9,140.61,331.12,Single-ply,SBD,F
Girls,75.07,6,Gabby Mercado,Mission Sharyland,69.54,122.47,68.04,136.08,326.59,Single-ply,SBD,F
Girls,75.07,7,Dehlila Cantu,Edinburg Vela,72.98,131.54,70.31,122.47,324.32,Single-ply,SBD,F
Girls,75.07,8,Karine Gomez,Edinburg,72.44,131.54,63.5,127.01,322.05,Single-ply,SBD,F
Girls,75.07,9,Karla Diaz,Edinburg,72.85,120.2,72.57,120.2,312.98,Single-ply,SBD,F
Girls,75.07,10,Kayla Leal,La Joya,73.89,124.74,49.9,138.35,312.98,Single-ply,SBD,F
Girls,75.07,11,Deserey Segovia,La Joya Juarez-Lincoln,70.67,95.25,47.63,106.59,249.48,Single-ply,SBD,F
Girls,75.07,12,Daisy Mendez,McAllen,71.12,104.33,43.09,99.79,247.21,Single-ply,SBD,F
Girls,75.07,13,Jackie Escobar,Edinburg Economedes,72.03,90.72,54.43,97.52,242.67,Single-ply,SBD,F
Girls,75.07,14,Brianna Flores,Rio Grande City,71.94,92.99,47.63,83.91,224.53,Single-ply,SBD,F
Girls,75.07,DQ,Yaritza Lopez,La Joya,70.13,120.2,,,,Single-ply,SBD,F
Girls,75.07,DQ,Monee Montilla,Edinburg Vela,69.54,102.06,,,,Single-ply,SBD,F
Girls,82.33,1,Katrina Mendez,Mission Sharyland,79.38,170.1,88.45,142.88,401.43,Single-ply,SBD,F
Girls,82.33,2,Sofia Lopez,Edinburg,82.24,147.42,86.18,163.29,396.89,Single-ply,SBD,F
Girls,82.33,3,Keyla Puente,La Joya,78.97,165.56,77.11,142.88,385.55,Single-ply,SBD,F
Girls,82.33,4,Kathy Bazan,La Joya Palmview,78.56,142.88,72.57,133.81,349.27,Single-ply,SBD,F
Girls,82.33,5,Maricela Ramos,Edinburg North,81.1,140.61,63.5,142.88,347,Single-ply,SBD,F
Girls,82.33,6,Allyson Gutierrez,McAllen Memorial,78.15,129.27,61.23,138.35,328.85,Single-ply,SBD,F
Girls,82.33,7,Jeweliana Rosas,La Joya Juarez-Lincoln,75.89,129.27,65.77,129.27,324.32,Single-ply,SBD,F
Girls,82.33,8,Bianca Aguirre,Donna North,82.33,117.93,58.97,127.01,303.91,Single-ply,SBD,F
Girls,82.33,9,Sophia Handy,McAllen,80.83,133.81,61.23,106.59,301.64,Single-ply,SBD,F
Girls,82.33,10,Monique Garza,McAllen,78.06,133.81,56.7,106.59,297.1,Single-ply,SBD,F
Girls,82.33,11,Zayra Cavazos,Edinburg North,79.7,104.33,74.84,113.4,292.57,Single-ply,SBD,F
Girls,82.33,12,Wendy Portillo,La Joya Juarez-Lincoln,79.42,120.2,63.5,106.59,290.3,Single-ply,SBD,F
Girls,82.33,13,Esther Lopez,Edinburg Economedes,82.33,102.06,47.63,136.08,285.76,Single-ply,SBD,F
Girls,82.33,14,Sydney Reyes,McAllen,82.05,120.2,49.9,108.86,278.96,Single-ply,SBD,F
Girls,82.33,15,Emma Hess,Edinburg Vela,79.38,97.52,56.7,108.86,263.08,Single-ply,SBD,F
Girls,82.33,DQ,Gladys Salazar,Edinburg North,76.48,111.13,,,,Single-ply,SBD,F
Girls,82.33,DQ,Gabriela Costa #2,Sharyland Pioneer,79.83,,,,,Single-ply,SBD,F
Girls,90.04,1,Itzayanni Martinez,McAllen Memorial,89.68,204.12,120.2,158.76,483.08,Single-ply,SBD,F
Girls,90.04,2,D'Andra Gaitan,Edinburg Economedes,86.09,176.9,83.91,136.08,396.89,Single-ply,SBD,F
Girls,90.04,3,Naylie Chavez,La Joya Juarez-Lincoln,87.36,142.88,65.77,108.86,317.51,Single-ply,SBD,F
Girls,90.04,4,Leslie Villela,Donna North,89.95,113.4,63.5,136.08,312.98,Single-ply,SBD,F
Girls,90.04,5,Destiny Perez,Edinburg,85.59,127.01,74.84,108.86,310.71,Single-ply,SBD,F
Girls,90.04,6,Aaliyah Garcia,Edinburg North,87.68,95.25,58.97,111.13,265.35,Single-ply,SBD,F
Girls,90.04,7,Larissa Perez,McAllen Rowe,82.83,95.25,58.97,104.33,258.55,Single-ply,SBD,F
Girls,90.04,8,Araceli Ozuna,La Joya,84.59,97.52,52.16,102.06,251.74,Single-ply,SBD,F
Girls,90.04,9,Elysha Garza,Edinburg Vela,87.36,70.31,61.23,88.45,219.99,Single-ply,SBD,F
Girls,100.02,1,Jennifer Acuna,Edinburg North,97.2,167.83,83.91,154.22,405.97,Single-ply,SBD,F
Girls,100.02,2,Valeria Santiago,McAllen Memorial,96.48,156.49,72.57,129.27,358.34,Single-ply,SBD,F
Girls,100.02,3,Juana Bolanos,Edinburg Economedes,97.48,149.69,77.11,113.4,340.19,Single-ply,SBD,F
Girls,100.02,4,Brisa Barrientos,La Joya,93.94,124.74,61.23,131.54,317.51,Single-ply,SBD,F
Girls,100.02,5,Michaela Gomez,McAllen,92.26,127.01,52.16,113.4,292.57,Single-ply,SBD,F
Girls,100.02,DQ,Josephine Castro,McAllen Memorial,94.8,140.61,,,,Single-ply,SBD,F
Girls,100.02,DQ,Natalia Davila,Mission Sharyland,97.98,136.08,,,,Single-ply,SBD,F
Girls,117.71,1,Leah Cantu,McAllen Memorial,101.42,138.35,74.84,124.74,337.93,Single-ply,SBD,F
Girls,117.71,2,Alexis Guajardo #1,Rio Grande City,104.78,136.08,83.91,86.18,306.17,Single-ply,SBD,F
Girls,117.71,3,Brittney Ramirez,Donna North,104.24,83.91,58.97,108.86,251.74,Single-ply,SBD,F
Girls,117.71+,1,Marlene Martinez,Edinburg Economedes,125.33,208.65,117.93,190.51,517.1,Single-ply,SBD,F
Girls,117.71+,2,Anyssa Arellano,Edinburg North,126.51,124.74,86.18,142.88,353.8,Single-ply,SBD,F
Girls,117.71+,3,RosaLynn Davila,Edinburg North,139.98,49.9,65.77,131.54,247.21,Single-ply,SBD,F
