Place,Sex,Name,Event,Division,WeightClassKg,Equipment,State,BodyweightKg,Squat1Kg,Squat2Kg,Squat3Kg,Best3SquatKg,Bench1Kg,Bench2Kg,Bench3Kg,Best3BenchKg,Deadlift1Kg,Deadlift2Kg,Deadlift3Kg,Best3DeadliftKg,TotalKg,BirthYear
DD,M,Joshua Keller,SBD,MR-O,120+,Raw,IN,132.6,-167.5,-182.5,-205,,-177.5,-182.5,-195,,-182.5,-200,-232.5,,,1980
1,M,Nealon Jones,SBD,MR-O,66,Raw,IN,62.5,65,70,-72.5,70,32.5,-35,35,35,82.5,87.5,92.5,92.5,197.5,2002
1,M,Jan Repuelo,SBD,MR-O,74,Raw,IN,70.9,165,175,-187.5,175,110,-117.5,125,125,195,207.5,220,220,520,1991
2,M,Colin Sheehan,SBD,MR-O,74,Raw,KY,66.7,165,-175,-182.5,165,102.5,110,-117.5,110,197.5,210,-220,210,485,1997
3,M,Joe Lim,SBD,MR-O,74,Raw,NY,73.5,167.5,177.5,-182.5,177.5,95,100,105,105,190,202.5,-207.5,202.5,485,1996
4,M,Winston Winkler,SBD,MR-O,74,Raw,IN,69.3,145,155,-167.5,155,92.5,97.5,-100,97.5,190,202.5,207.5,207.5,460,1995
5,M,Cody Porter,SBD,MR-O,74,Raw,IN,71,125,-132.5,132.5,132.5,87.5,95,-102.5,95,172.5,185,197.5,197.5,425,1995
6,M,Jared McDaniel,SBD,MR-O,74,Raw,IN,72.2,120,135,-140,135,90,100,-102.5,100,170,182.5,-192.5,182.5,417.5,1991
1,M,Joshua Sparks,SBD,MR-O,83,Raw,IN,82.5,215,-225,-225,215,165,-167.5,-167.5,165,210,220,230,230,610,1991
2,M,Christian Poulos,SBD,MR-O,83,Raw,IN,82.2,167.5,177.5,185,185,117.5,125,-130,125,-212.5,225,240,240,550,1996
3,M,Peyton White #1,SBD,MR-O,83,Raw,IN,80.4,180,192.5,-197.5,192.5,107.5,112.5,-120,112.5,192.5,200,210,210,515,1992
4,M,Cole Tyring,SBD,MR-O,83,Raw,IN,74.9,137.5,152.5,-157.5,152.5,72.5,82.5,-90,82.5,197.5,215,227.5,227.5,462.5,1999
1,M,Blake Dedas,SBD,MR-O,93,Raw,IN,91.8,225,245,-252.5,245,152.5,165,-170,165,265,-287.5,-287.5,265,675,1984
2,M,Ethan Young,SBD,MR-O,93,Raw,IN,89.4,215,225,235,235,125,135,145,145,245,262.5,-265,262.5,642.5,1990
3,M,Chris Percifield,SBD,MR-O,93,Raw,IN,89.9,220,227.5,237.5,237.5,130,137.5,145,145,240,257.5,-265,257.5,640,1993
4,M,Nick Kleaving,SBD,MR-O,93,Raw,IN,90.8,172.5,185,-195,185,142.5,-150,155,155,180,195,-205,195,535,1993
5,M,Jordan Stephens,SBD,MR-O,93,Raw,IN,85.3,150,165,175,175,95,105,110,110,210,225,232.5,232.5,517.5,1991
6,M,Caleb Anders,SBD,MR-O,93,Raw,IN,92.2,152.5,162.5,165,165,82.5,87.5,92.5,92.5,195,207.5,215,215,472.5,1997
1,M,Jared Droste,SBD,MR-O,105,Raw,IN,104.6,235,247.5,255,255,152.5,160,170,170,267.5,280,292.5,292.5,717.5,1986
2,M,Owen Mattingly,SBD,MR-O,105,Raw,IN,101.6,202.5,210,220,220,-152.5,157.5,-172.5,157.5,195,210,227.5,227.5,605,1995
3,M,Mark Gerdesmeier,SBD,MR-O,105,Raw,TN,98.3,187.5,205,-212.5,205,102.5,112.5,120,120,230,245,-257.5,245,570,1987
4,M,Jonahton Reisz,SBD,MR-O,105,Raw,IN,103.1,185,192.5,-202.5,192.5,120,125,-130,125,230,237.5,252.5,252.5,570,1972
1,M,John Finley,SBD,MR-O,120,Raw,IN,116.3,-215,215,-235,215,152.5,165,175,175,230,240,255,255,645,1995
2,M,Alexander Harris,SBD,MR-O,120,Raw,IN,116.3,-180,180,200,200,152.5,165,-172.5,165,220,237.5,247.5,247.5,612.5,1995
3,M,Anthony Pacheco,SBD,MR-O,120,Raw,KY,110.5,190,215,-227.5,215,160,175,-182.5,175,195,215,-230,215,605,1984
4,M,Stephen Park,SBD,MR-O,120,Raw,IN,107.3,150,155,-157.5,155,85,87.5,-92.5,87.5,175,-182.5,,175,417.5,1953
1,M,Derrick Hill,SBD,MR-O,120+,Raw,IN,130.6,175,-200,200,200,140,150,-160,150,215,240,-250,240,590,1970
3,M,Jason Habermel,SBD,MR-O,120+,Raw,IN,139.4,145,165,202.5,202.5,145,-157.5,167.5,167.5,145,-192.5,192.5,192.5,562.5,1971
1,F,Tám Nguyen,SBD,FR-O,47,Raw,IN,46.5,85,90,-97.5,90,47.5,50,52.5,52.5,100,110,115,115,257.5,1995
1,F,Bonnie Douthitt,SBD,FR-O,52,Raw,IN,49.8,67.5,-75,-75,67.5,47.5,-50,-50,47.5,112.5,120,-122.5,120,235,1964
2,F,Chrissy Arsenault,SBD,FR-O,52,Raw,IN,49.5,65,72.5,-82.5,72.5,25,-32.5,-32.5,25,72.5,80,-90,80,177.5,1992
1,F,Katherine Snethen,SBD,FR-O,57,Raw,IN,56.6,112.5,120,125,125,52.5,-55,-57.5,52.5,125,135,142.5,142.5,320,1991
2,F,Mahealani Gregg,SBD,FR-O,57,Raw,IN,55.8,57.5,62.5,-70,62.5,37.5,-40,-47.5,37.5,70,75,85,85,185,1981
1,F,Samantha Brown,SBD,FR-O,63,Raw,IN,60.8,95,100,107.5,107.5,45,52.5,55,55,125,130,140,140,302.5,1988
2,F,Brianna Levenson,SBD,FR-O,63,Raw,IN,60.5,75,85,92.5,92.5,47.5,52.5,-57.5,52.5,77.5,90,102.5,102.5,247.5,1996
3,F,Erin Booher,SBD,FR-O,63,Raw,IN,60.8,47.5,52.5,57.5,57.5,42.5,47.5,50,50,65,70,80,80,187.5,1975
1,F,Christine Tomes,SBD,FR-O,72,Raw,IN,71.6,112.5,125,130,130,82.5,87.5,-90,87.5,167.5,175,182.5,182.5,400,1985
2,F,Danielle Ternet,SBD,FR-O,72,Raw,IN,71,107.5,117.5,125,125,85,87.5,92.5,92.5,137.5,142.5,-155,142.5,360,1992
3,F,Meaghan Nelson,SBD,FR-O,72,Raw,IN,71.4,105,115,-120,115,72.5,77.5,-82.5,77.5,135,145,-152.5,145,337.5,1988
4,F,Liza Ledford,SBD,FR-O,72,Raw,KY,71.1,100,107.5,-115,107.5,52.5,55,-60,55,105,115,-130,115,277.5,1986
5,F,Sian Pratley,SBD,FR-O,72,Raw,IN,66.7,82.5,87.5,92.5,92.5,32.5,37.5,45,45,92.5,102.5,110,110,247.5,1995
6,F,Pamela Walters,SBD,FR-O,72,Raw,IN,71.4,-55,-55,55,55,42.5,47.5,-52.5,47.5,102.5,110,-115,110,212.5,1952
7,F,Valerie Akerson,SBD,FR-O,72,Raw,IN,67.9,42.5,47.5,52.5,52.5,40,45,-50,45,100,110,-117.5,110,207.5,1959
1,F,Deanna Gerdesmeier,SBD,FR-O,84,Raw,TN,83.6,142.5,150,-165,150,65,75,77.5,77.5,150,162.5,-177.5,162.5,390,1988
2,F,Jamie Hodges,SBD,FR-O,84,Raw,IN,79.9,85,97.5,120,120,-67.5,70,-80,70,105,145,150,150,340,1989
3,F,Emerald Graham,SBD,FR-O,84,Raw,IN,79.4,100,110,-125,110,50,57.5,62.5,62.5,127.5,137.5,145,145,317.5,1989
4,F,Rachel Zaborowski,SBD,FR-O,84,Raw,IL,77,90,97,107.5,107.5,57.5,-67.5,-67.5,57.5,130,142.5,-150,142.5,307.5,1987
5,F,Laura Stewart,SBD,FR-O,84,Raw,IN,80.1,90,100,-102.5,100,40,47.5,50,50,105,117.5,125,125,275,1985
6,F,Carolyn Beck,SBD,FR-O,84,Raw,IN,80.8,-80,80,82.5,82.5,47.5,52.5,57.5,57.5,92.5,102.5,107.5,107.5,247.5,1962
1,F,Jodey Reisz,SBD,FR-O,84+,Raw,IN,120,-110,110,117.5,117.5,95,102.5,-107.5,102.5,147.5,160,172.5,172.5,392.5,1975
2,F,Jamie Kemper,SBD,FR-O,84+,Raw,IN,133,102.5,115,127.5,127.5,85,90,-95,90,115,127.5,137.5,137.5,355,1985
3,F,Marsha Morrison,SBD,FR-O,84+,Raw,IN,91.7,75,85,92.5,92.5,55,60,-65,60,102.5,115,125,125,277.5,1955
