Place,Name,Sex,BirthDate,Age,Country,Equipment,Division,BodyweightKg,Squat1Kg,Squat2Kg,Squat3Kg,Best3SquatKg,Bench1Kg,Bench2Kg,Bench3Kg,Best3BenchKg,Deadlift1Kg,Deadlift2Kg,Deadlift3Kg,Best3DeadliftKg,TotalKg,Event,Team
1,Laura Vogelsang,F,,,Ireland,Wraps,F-O,85.7,215,-225,225,225,100,107.5,-112.5,107.5,200,215,-220,215,547.5,SBD,Laoch Barbell
2,Deanna Hughes,F,,,Ireland,Wraps,F-O,84.1,165,177.5,-182.5,177.5,-110,120,-125,120,195,-207.5,207.5,207.5,505,SBD,
3,Shannon Pollock,F,1987-08-18,31,Ireland,Wraps,F-O,71.9,165,172.5,177.5,177.5,80,85,-87.5,85,175,185,190,190,452.5,SBD,A.B.S Powerlifting
4,Brónagh McPeake,F,1992-08-25,26,Ireland,Wraps,F-O,60.1,167.5,177.5,-187.5,177.5,85,-90,90,90,162.5,170,180,180,447.5,SBD,Strength Militia
5,Suzie Argile,F,1992-08-05,27,UK,Wraps,F-O,81.6,165,-180,-180,165,95,100,102.5,102.5,165,-182.5,-182.5,165,432.5,SBD,
6,Clare Patterson,F,1984-12-11,34,Ireland,Wraps,F-O,71.4,-152.5,152.5,-160,152.5,102.5,107.5,-112.5,107.5,140,147.5,152.5,152.5,412.5,SBD,
7,Anita Bakos,F,1987-01-12,32,Ireland,Wraps,F-O,65.5,145,155,-160,155,80,82.5,-85,82.5,150,157.5,160,160,397.5,SBD,A.B.S Powerlifting
8,Linh Nguyen,F,,,Ireland,Wraps,F-O,55.6,155,165,-170,165,67.5,70,-72.5,70,142.5,147.5,152.5,152.5,387.5,SBD,A.B.S Powerlifting
9,Heather Connor,F,1991-04-18,28,USA,Wraps,F-O,46.6,125,130,135,135,67.5,70,-72.5,70,162.5,170,-177.5,170,375,SBD,
10,Anna Hourihane,F,1993-07-17,26,Ireland,Wraps,F-O,51.8,130,135,140,140,75,80,-82.5,80,147.5,155,-160,155,375,SBD,A.B.S Powerlifting
11,Tara Mooney,F,1985-11-30,33,Ireland,Wraps,F-O,60.5,130,-137.5,-140,130,65,-72.5,-72.5,65,145,152.5,160,160,355,SBD,
1,Artur Chrzaszcz,M,,,Poland,Wraps,M-O,134.9,-390,390,400,400,205,215,220,220,300,320,-330,320,940,SBD,
2,Jake Brennan,M,1987-10-21,31,Ireland,Wraps,M-O,147.6,370,-385,390,390,200,210,217.5,217.5,305,325,-347.5,325,932.5,SBD,A.B.S Powerlifting
3,János Rajmund Nagy,M,1993-11-06,25,Hungary,Wraps,M-O,114.4,312.5,327.5,-340,327.5,200,207.5,210,210,335,-355,-355,335,872.5,SBD,
4,Jordan McLaughlin,M,1993-11-20,25,UK,Wraps,M-O,139.2,335,-350,-350,335,-205,-205,205,205,315,325,330,330,870,SBD,
5,Filippo Ingrosso,M,1985-04-09,34,Italy,Wraps,M-O,108.7,325,-340,340,340,190,195,-200,195,325,-335,-335,325,860,SBD,Team Ingrosso Powerlifting
6,Jesse Moran,M,,,Ireland,Wraps,M-O,101.3,-310,310,-330,310,205,215,-217.5,215,320,-330,-350,320,845,SBD,
7,Eliot Page,M,,,UK,Wraps,M-O,114.4,325,-340,-345,325,-165,165,-172.5,165,320,332.5,340,340,830,SBD,Laoch Barbell
8,Krzysztof Misiewicz,M,1980-06-28,39,Ireland,Wraps,M-O,112.6,290,310,315,315,165,170,-172.5,170,290,307.5,317.5,317.5,802.5,SBD,A.B.S Powerlifting
9,Owain Tobias,M,1995-03-02,24,UK,Wraps,M-O,98.7,300,320,-332.5,320,165,175,180,180,280,300,-320,300,800,SBD,
10,Fionn Hanratty,M,1990-07-11,29,Ireland,Wraps,M-O,100,280,295,305,305,180,187.5,192.5,192.5,275,292.5,302.5,302.5,800,SBD,A.B.S Powerlifting
11,Róbert Végső,M,1992-09-12,26,Ireland,Wraps,M-O,78,200,220,-230,220,175,182.5,190,190,-240,-240,240,240,650,SBD,
12,Killian Carolan,M,1995-07-20,24,Ireland,Wraps,M-O,104.4,300,315,,315,25,-27.5,-27.5,25,75,,,75,415,SBD,A.B.S Powerlifting
DQ,Barry Pigott,M,1991-11-13,27,Ireland,Wraps,M-O,96,-270,,,,215,-225,-225,215,-270,,,,,SBD,A.B.S Powerlifting
DQ,Witold Wolnowski,M,1980-06-27,39,Ireland,Wraps,M-O,129.5,340,-370,-370,340,-230,-230,-230,,300,-330,,300,,SBD,
