Division,WeightClassKg,Place,Name,Team,BodyweightKg,Best3SquatKg,Best3BenchKg,Best3DeadliftKg,TotalKg,Equipment,Event,Sex
Boys,51.71,1,Patrick Dishman,Huntsville,51.53,140.61,77.11,145.15,362.87,Single-ply,SBD,M
Boys,51.71,2,Nate Colborn,Montgomery,51.66,149.69,77.11,136.08,362.87,Single-ply,SBD,M
Boys,51.71,3,Jared Ali,Conroe The Woodlands,51.66,115.67,70.31,142.88,328.85,Single-ply,SBD,M
Boys,51.71,4,Ian Alvarez,Conroe The Woodlands,51.66,115.67,65.77,124.74,306.17,Single-ply,SBD,M
Boys,51.71,5,Boone Beyer,Magnolia,47.72,95.25,54.43,106.59,256.28,Single-ply,SBD,M
Boys,55.79,1,Cody Costello,Magnolia West,54.02,138.35,83.91,140.61,362.87,Single-ply,SBD,M
Boys,55.79,2,Michael Hushka,Conroe The Woodlands,53.89,124.74,74.84,145.15,344.73,Single-ply,SBD,M
Boys,55.79,3,Reis Rice,Magnolia,55.75,127.01,77.11,138.35,342.46,Single-ply,SBD,M
Boys,55.79,4,Marcos Mendez,Magnolia West,55.16,129.27,70.31,133.81,333.39,Single-ply,SBD,M
Boys,55.79,5,Matt Provost,Conroe The Woodlands,55.02,120.2,52.16,124.74,297.1,Single-ply,SBD,M
Boys,55.79,DQ,Jack Lockhart,Conroe The Woodlands,54.84,111.13,,,,Single-ply,SBD,M
Boys,59.87,1,AJ Ono,Conroe The Woodlands,59.65,215.46,124.74,204.12,544.31,Single-ply,SBD,M
Boys,59.87,2,Zach Mills,Conroe Woodlands College Park,58.97,142.88,79.38,151.95,374.21,Single-ply,SBD,M
Boys,59.87,3,Blayne Clough,Huntsville,59.56,97.52,52.16,113.4,263.08,Single-ply,SBD,M
Boys,67.13,1,James Traylor,Montgomery,66.59,195.04,117.93,247.21,560.19,Single-ply,SBD,M
Boys,67.13,2,Nick Provost,Conroe The Woodlands,66.36,201.85,90.72,215.46,508.02,Single-ply,SBD,M
Boys,67.13,3,Jacob Jackson,Conroe Woodlands College Park,66.5,201.85,117.93,179.17,498.95,Single-ply,SBD,M
Boys,67.13,4,Ian Campbell,Navasota,60.46,181.44,127.01,172.37,480.81,Single-ply,SBD,M
Boys,67.13,5,Jaden Schroeder,Huntsville,65.36,176.9,97.52,188.24,462.66,Single-ply,SBD,M
Boys,67.13,6,Weston Tuttle,Conroe The Woodlands,66.9,156.49,83.91,172.37,412.77,Single-ply,SBD,M
Boys,67.13,7,Donovan Thomas,Navasota,66.27,140.61,95.25,165.56,401.43,Single-ply,SBD,M
Boys,67.13,8,Trey Goodman,Navasota,64.27,142.88,90.72,158.76,392.36,Single-ply,SBD,M
Boys,67.13,9,Sam Salmeron,Conroe Woodlands College Park,61.14,77.11,52.16,92.99,222.26,Single-ply,SBD,M
Boys,74.84,1,Gabriel Gonzalez,Magnolia West,74.21,219.99,147.42,208.65,576.06,Single-ply,SBD,M
Boys,74.84,2,Kaku Asare,Conroe Woodlands College Park,69.72,233.6,115.67,217.72,566.99,Single-ply,SBD,M
Boys,74.84,3,Preston Pugh,Montgomery,71.12,192.78,104.33,226.8,523.9,Single-ply,SBD,M
Boys,74.84,4,Dj Stewart,Crosby,68.81,192.78,115.67,183.7,492.15,Single-ply,SBD,M
Boys,74.84,5,Jacob Willard,Conroe The Woodlands,71.49,199.58,104.33,188.24,492.15,Single-ply,SBD,M
Boys,74.84,6,Jilson Carbajal,Magnolia,71.71,192.78,97.52,165.56,455.86,Single-ply,SBD,M
Boys,74.84,7,Nathan Ashley,Huntsville,72.85,170.1,90.72,161.03,421.84,Single-ply,SBD,M
Boys,74.84,8,Landen Holman,Crosby,70.53,170.1,90.72,158.76,419.57,Single-ply,SBD,M
Boys,74.84,9,Nathan Leone,Conroe The Woodlands,72.76,165.56,79.38,165.56,410.5,Single-ply,SBD,M
Boys,74.84,10,Bryson Archer,Tomball,68.22,145.15,79.38,145.15,369.68,Single-ply,SBD,M
Boys,74.84,11,Reid Jones,Montgomery,67.86,129.27,74.84,142.88,347,Single-ply,SBD,M
Boys,74.84,12,Dylan Duncan,Montgomery,67.77,115.67,68.04,127.01,310.71,Single-ply,SBD,M
Boys,74.84,DQ,Joan Catalan,Tomball,69.76,172.37,104.33,,,Single-ply,SBD,M
Boys,82.1,1,Taylor Lipscy,Conroe The Woodlands,81.65,226.8,147.42,226.8,601.01,Single-ply,SBD,M
Boys,82.1,2,Noah Delahoussaye,Montgomery,82.1,226.8,142.88,222.26,591.94,Single-ply,SBD,M
Boys,82.1,3,Branden Clay,Conroe The Woodlands,82.05,204.12,122.47,244.94,571.53,Single-ply,SBD,M
Boys,82.1,4,Edgar Cabrera,Magnolia,80.69,222.26,129.27,199.58,551.11,Single-ply,SBD,M
Boys,82.1,5,Nicolas Whitfield,Magnolia,80.24,222.26,111.13,192.78,526.17,Single-ply,SBD,M
Boys,82.1,6,Luke McCaffety,Magnolia West,81.69,213.19,99.79,188.24,501.22,Single-ply,SBD,M
Boys,82.1,7,Blaine Corekin,Conroe The Woodlands,81.65,174.63,104.33,170.1,449.06,Single-ply,SBD,M
Boys,82.1,8,Logan Ecuyer,Conroe The Woodlands,81.87,158.76,104.33,181.44,444.52,Single-ply,SBD,M
Boys,82.1,9,Hunter Delahoussaye,Montgomery,80.29,149.69,95.25,154.22,399.16,Single-ply,SBD,M
Boys,82.1,10,Isaac Shelton,Tomball,79.51,147.42,88.45,158.76,394.63,Single-ply,SBD,M
Boys,82.1,11,Colton Smith,Conroe The Woodlands,80.33,151.95,83.91,156.49,392.36,Single-ply,SBD,M
Boys,82.1,12,Eric Valdes,Tomball,81.15,68.04,79.38,102.06,249.48,Single-ply,SBD,M
Boys,82.1,DQ,Marquise Stubblefield,Magnolia West,79.15,204.12,104.33,,,Single-ply,SBD,M
Boys,82.1,DQ,Johnathon Sims,Crosby,80.24,199.58,,,,Single-ply,SBD,M
Boys,89.81,1,Grant Mountain,Conroe The Woodlands,87.59,219.99,124.74,251.74,596.47,Single-ply,SBD,M
Boys,89.81,2,Bryeton Gilford,Conroe The Woodlands,86.18,226.8,140.61,226.8,594.21,Single-ply,SBD,M
Boys,89.81,3,Colby Lord,Montgomery,88.99,226.8,145.15,190.51,562.45,Single-ply,SBD,M
Boys,89.81,4,Jacob Malesky,Magnolia,88.54,199.58,113.4,190.51,503.49,Single-ply,SBD,M
Boys,89.81,5,Titus Terrell,Navasota,86.05,192.78,120.2,188.24,501.22,Single-ply,SBD,M
Boys,89.81,6,Seth Downs,Montgomery,86.27,145.15,113.4,181.44,439.98,Single-ply,SBD,M
Boys,89.81,7,Harold Knight,Conroe The Woodlands,88.95,149.69,92.99,181.44,424.11,Single-ply,SBD,M
Boys,89.81,8,Tyrek Houston,Navasota,89.72,181.44,122.47,,303.91,Single-ply,SB,M
Boys,89.81,DQ,John Blaker,Montgomery,85.91,219.99,,,,Single-ply,SB,M
Boys,89.81,DQ,Jaxsen Sewell,Magnolia West,82.24,,,,,Single-ply,SB,M
Boys,89.81,DQ,Nick McBride,Conroe The Woodlands,89.77,,,,,Single-ply,SB,M
Boys,89.81,DQ,Tim Camp,Crosby,88.72,163.29,,,,Single-ply,SB,M
Boys,99.79,1,Brandon Diaz,Crosby,98.2,272.16,154.22,244.94,671.32,Single-ply,SBD,M
Boys,99.79,2,Noah Bryson,Magnolia West,99.16,272.16,129.27,256.28,657.71,Single-ply,SBD,M
Boys,99.79,3,Leondre Smith,Crosby,95.16,233.6,122.47,213.19,569.26,Single-ply,SBD,M
Boys,99.79,4,James Goodman,Montgomery,99.56,204.12,131.54,204.12,539.77,Single-ply,SBD,M
Boys,99.79,5,Kieron Ross,Huntsville,96.25,183.7,124.74,185.97,494.42,Single-ply,SBD,M
Boys,99.79,6,Aaron Foster,Crosby,94.39,190.51,99.79,192.78,483.08,Single-ply,SBD,M
Boys,99.79,7,Dylan Guidry,Tomball,96.16,176.9,79.38,181.44,437.72,Single-ply,SBD,M
Boys,99.79,8,Reid Turner,Montgomery,98.2,124.74,72.57,145.15,342.46,Single-ply,SBD,M
Boys,99.79,DQ,Hunter Bailey,Crosby,98.29,195.04,,,,Single-ply,SBD,M
Boys,109.77,1,Noah Clarkson,Magnolia West,100.61,281.23,172.37,249.48,703.07,Single-ply,SBD,M
Boys,109.77,2,Rusty Bertrand,Magnolia West,102.19,244.94,142.88,256.28,644.1,Single-ply,SBD,M
Boys,109.77,3,Hilario Rodriguez,Navasota,105.19,272.16,136.08,235.87,644.1,Single-ply,SBD,M
Boys,109.77,4,Jonathan Garcia #3,Magnolia West,103.33,226.8,149.69,235.87,612.35,Single-ply,SBD,M
Boys,109.77,5,Ronald Lee,Navasota,108,235.87,133.81,235.87,605.55,Single-ply,SBD,M
Boys,109.77,6,Dalton Taylor,Magnolia,105.96,244.94,142.88,201.85,589.67,Single-ply,SBD,M
Boys,109.77,7,Luke Malner,Magnolia,100.83,199.58,129.27,204.12,532.97,Single-ply,SBD,M
Boys,109.77,8,Eric Garcia,Huntsville,108.54,215.46,115.67,197.31,528.44,Single-ply,SBD,M
Boys,109.77,9,Grayson Brautigam,Conroe Woodlands College Park,103.01,165.56,88.45,167.83,421.84,Single-ply,SBD,M
Boys,109.77,10,Nick Afflito,Montgomery,104.69,167.83,102.06,145.15,415.04,Single-ply,SBD,M
Boys,109.77,DQ,Hunter Yackel,Huntsville,102.24,158.76,,,,Single-ply,SBD,M
Boys,109.77,DQ,Blaine Berry,Crosby,103.06,181.44,113.4,,,Single-ply,SBD,M
Boys,124.74,1,Juan Yanez,Conroe Woodlands College Park,120.02,249.48,156.49,247.21,653.17,Single-ply,SBD,M
Boys,124.74,2,Aj Maestre,Conroe The Woodlands,118.57,244.94,163.29,226.8,635.03,Single-ply,SBD,M
Boys,124.74,3,Ryan Johnson,Montgomery,123.92,240.4,165.56,213.19,619.15,Single-ply,SBD,M
Boys,124.74,4,Caleb Williams,Conroe Woodlands College Park,114.99,215.46,133.81,226.8,576.06,Single-ply,SBD,M
Boys,124.74,5,Chayse Todd,Crosby,124.65,197.31,136.08,226.8,560.19,Single-ply,SBD,M
Boys,124.74,6,Jesse Beltran,Huntsville,124.6,226.8,113.4,204.12,544.31,Single-ply,SBD,M
Boys,124.74,DQ,Jake Adams,Huntsville,117.48,,,,,Single-ply,SBD,M
Boys,124.74+,1,JD Williams,Montgomery,131.5,278.96,158.76,247.21,684.92,Single-ply,SBD,M
Boys,124.74+,2,Brandon Bobino,Huntsville,161.21,292.57,165.56,226.8,684.92,Single-ply,SBD,M
Boys,124.74+,3,Derrick Rigsby,Huntsville,148.91,272.16,179.17,231.33,682.66,Single-ply,SBD,M
Boys,124.74+,4,Brayden Arnold,Tomball,157.94,267.62,158.76,244.94,671.32,Single-ply,SBD,M
Boys,124.74+,5,Christian Shanahan,Magnolia,133.31,263.08,158.76,240.4,662.24,Single-ply,SBD,M
Boys,124.74+,6,Gio Lopez,Magnolia West,130.77,229.06,133.81,226.8,589.67,Single-ply,SBD,M
Boys,124.74+,7,Josh Bankhead,Conroe Woodlands College Park,149.19,226.8,163.29,199.58,589.67,Single-ply,SBD,M
Boys,124.74+,8,Harrison Sorenson,Conroe The Woodlands,136.08,226.8,136.08,195.04,557.92,Single-ply,SBD,M
Boys,124.74+,9,Brandon Leshe,Conroe Woodlands College Park,134.08,197.31,136.08,206.38,539.77,Single-ply,SBD,M
Boys,124.74+,10,Rayan Darvaishi,Conroe Woodlands College Park,135.94,213.19,120.2,206.38,539.77,Single-ply,SBD,M
