Place,Name,Sex,Event,Division,WeightClassKg,Equipment,BirthYear,State,BodyweightKg,Squat1Kg,Squat2Kg,Squat3Kg,Best3SquatKg,Bench1Kg,Bench2Kg,Bench3Kg,Best3BenchKg,Deadlift1Kg,Deadlift2Kg,Deadlift3Kg,Best3DeadliftKg,TotalKg,BirthDate
1,Erika Stormoen,F,D,FR-O,72,Raw,1991,CA,66.7,,,,,,,,,110,117.5,137.5,137.5,137.5,
2,Adriana Ferrer,F,D,FR-O,72,Raw,1991,CA,68.9,,,,,,,,,110,120,127.5,127.5,127.5,
1,Nercy Basulto,F,D,FR-O,84+,Raw,1989,CA,99.8,,,,,,,,,115,127.5,-132.5,127.5,127.5,
1,Iliana Romero,F,SBD,FR-Jr,63,Raw,1994,CA,60.1,72.5,80,85,85,40,45,-50,45,87.5,95,100,100,230,
1,Alejandra Moedano,F,SBD,FR-Jr,84,Raw,1994,CA,79.8,95,102.5,107.5,107.5,55,-57.5,-57.5,55,135,142.5,147.5,147.5,310,
1,Catrina Johnson,F,SBD,FR-M1a,84,Raw,1975,CA,82.6,-110,110,117.5,117.5,55,-60,-60,55,130,132.5,-137.5,132.5,305,
1,Vanessa Rusczyk,F,SBD,FR-M1b,63,Raw,1970,CA,57.6,55,62.5,-67.5,62.5,40,42.5,-45,42.5,77.5,85,90,90,195,
1,Moera Coleen Moralde,F,SBD,FR-O,47,Raw,1993,CA,46.3,60,67.5,-80,67.5,40,45,47.5,47.5,95,102.5,112.5,112.5,227.5,
1,Pamela Anderson,F,SBD,FR-O,52,Raw,1992,CA,51.9,115,122.5,-127.5,122.5,70,-75,75,75,140,150,-160,150,347.5,
2,Jannel Lamangan,F,SBD,FR-O,52,Raw,1992,CA,49.2,77.5,82.5,-90,82.5,40,-50,-50,40,92.5,95,100,100,222.5,
3,Bianca Parlato,F,SBD,FR-O,52,Raw,1989,CA,50.6,55,60,62.5,62.5,32.5,-40,-40,32.5,77.5,90,92.5,92.5,187.5,
1,Vanessa Coleman,F,SBD,FR-O,57,Raw,1980,CA,56.7,70,75,77.5,77.5,42.5,47.5,-50,47.5,117.5,120,122.5,122.5,247.5,
DQ,Kristina LeGier,F,SBD,FR-O,57,Raw,1993,CA,52.9,50,60,65,65,-32.5,-32.5,-32.5,,65,72.5,82.5,82.5,,
1,Kathy Collado,F,SBD,FR-O,63,Raw,1993,CA,63,102.5,110,115,115,42.5,47.5,50,50,120,125,132.5,132.5,297.5,
2,Julia Bell,F,SBD,FR-O,63,Raw,1991,CA,61.1,85,90,92.5,92.5,45,50,-52.5,50,105,112.5,-117.5,112.5,255,
1,Kaitlyn Thomas,F,SBD,FR-O,72,Raw,1993,CA,71.2,105,115,120,120,52.5,57.5,-62.5,57.5,115,130,137.5,137.5,315,1993-03-20
2,Rachel Ayala,F,SBD,FR-O,72,Raw,1992,CA,66.4,82.5,85,100,100,52.5,57.5,60,60,112.5,120,137.5,137.5,297.5,
3,Erika Stormoen,F,SBD,FR-O,72,Raw,1991,CA,66.7,90,97.5,105,105,50,52.5,-60,52.5,110,117.5,137.5,137.5,295,
4,Adriana Ferrer,F,SBD,FR-O,72,Raw,1991,CA,68.9,87.5,92.5,95,95,42.5,45,47.5,47.5,110,120,127.5,127.5,270,
5,Kristina Thuemler,F,SBD,FR-O,72,Raw,1993,CA,68.6,92.5,100,-110,100,50,52.5,55,55,95,100,107.5,107.5,262.5,
1,Eszter Julian,F,SBD,FR-O,84,Raw,1980,CA,78.7,105,117.5,122.5,122.5,-67.5,75,-77.5,75,132.5,-145,145,145,342.5,
2,Rachele Familia,F,SBD,FR-O,84,Raw,1980,CA,82.3,95,100,105,105,62.5,70,-75,70,122.5,135,140,140,315,
1,Trinity Ocampo,F,SBD,FR-O,84+,Raw,1981,CA,86.1,110,115,120,120,55,62.5,65,65,102.5,112.5,120,120,305,
2,Nercy Basulto,F,SBD,FR-O,84+,Raw,1989,CA,99.8,85,92.5,100,100,40,45,47.5,47.5,115,127.5,-132.5,127.5,275,
1,Grace Diaz,F,SBD,FR-Y,47,Raw,2007,CA,44.3,-40,40,42.5,42.5,15,20,-22.5,20,55,60,-70,60,122.5,
1,Jonathan Trucks,M,SBD,M-Jr,93,Single-ply,1995,CA,90.8,202.5,210,-217.5,210,117.5,-122.5,122.5,122.5,217.5,225,230,230,562.5,
1,Andrew Nguyen,M,SBD,MR-Jr,59,Raw,1997,CA,58.1,122.5,130,140,140,70,80,-87.5,80,165,177.5,185,185,405,
1,Richard Panganiban,M,SBD,MR-Jr,74,Raw,1995,CA,72.7,225,237.5,-250,237.5,147.5,-157.5,-157.5,147.5,252.5,270,-280,270,655,
1,Gabriel Tecarro,M,SBD,MR-Jr,83,Raw,1995,CA,80.5,-150,150,155,155,107.5,-117.5,117.5,117.5,160,172.5,182.5,182.5,455,
1,Quinn Clarke,M,SBD,MR-Jr,120+,Raw,1995,CA,144.1,270,-285,285,285,185,-195,-200,185,242.5,-257.5,-257.5,242.5,712.5,
1,Brent Appleton,M,SBD,MR-M1a,83,Raw,1973,CA,82.3,170,182.5,187.5,187.5,117.5,125,127.5,127.5,185,197.5,-207.5,197.5,512.5,
1,Mark Jones,M,SBD,MR-M2b,105,Raw,1962,CA,101.7,102.5,135,142.5,142.5,-102.5,102.5,107.5,107.5,142.5,150,160,160,410,
1,Michael Purugganan,M,SBD,MR-O,59,Raw,1987,CA,58.2,132.5,150,-157.5,150,82.5,-90,-90,82.5,145,165,170,170,402.5,
1,Matthew Marquez,M,SBD,MR-O,66,Raw,1993,CA,64.3,125,132.5,140,140,77.5,82.5,-87.5,82.5,145,157.5,165,165,387.5,
2,Ian Walters,M,SBD,MR-O,66,Raw,1993,CA,62.7,130,132.5,137.5,137.5,45,52.5,60,60,112.5,142.5,160,160,357.5,
1,Ed Kim,M,SBD,MR-O,83,Raw,1992,CA,82,192.5,-210,-210,192.5,120,122.5,-125,122.5,250,265,272.5,272.5,587.5,
2,Greg Familia,M,SBD,MR-O,83,Raw,1980,CA,82.6,185,187.5,190,190,160,-170,-170,160,202.5,215,227.5,227.5,577.5,
3,Kishen Sharma,M,SBD,MR-O,83,Raw,1991,CA,82.7,177.5,185,-195,185,115,122.5,-125,122.5,177.5,187.5,195,195,502.5,
4,Kevin Porter,M,SBD,MR-O,83,Raw,1989,CA,81.5,150,155,162.5,162.5,115,120,-125,120,200,205,210,210,492.5,
5,Trevor Viboch,M,SBD,MR-O,83,Raw,1988,CA,82.7,165,170,-180,170,92.5,97.5,102.5,102.5,195,205,212.5,212.5,485,
6,Marcus Hamilton,M,SBD,MR-O,83,Raw,1994,CA,79.7,152.5,165,-170,165,102.5,105,-110,105,192.5,202.5,212.5,212.5,482.5,
7,Gustavo Castro,M,SBD,MR-O,83,Raw,1986,CA,81.9,157.5,-167.5,-167.5,157.5,120,125,-130,125,180,185,192.5,192.5,475,
8,Earl Obana,M,SBD,MR-O,83,Raw,1993,CA,79.6,137.5,142.5,150,150,92.5,97.5,107.5,107.5,145,167.5,185,185,442.5,
9,Chris Bauer,M,SBD,MR-O,83,Raw,1984,CA,79.9,120,127.5,135,135,82.5,87.5,97.5,97.5,160,172.5,182.5,182.5,415,
1,Jon Chandler,M,SBD,MR-O,93,Raw,1993,CA,88.9,195,205,217.5,217.5,135,145,-155,145,235,247.5,-255,247.5,610,
2,Heriberto Basulto,M,SBD,MR-O,93,Raw,1987,CA,87.6,170,182.5,187.5,187.5,125,130,132.5,132.5,167.5,182.5,192.5,192.5,512.5,
3,Josh Nickell,M,SBD,MR-O,93,Raw,1985,CA,92.1,160,162.5,-165,162.5,110,112.5,-115,112.5,215,222.5,230,230,505,
4,Travis Pinto,M,SBD,MR-O,93,Raw,1980,CA,91.4,160,175,182.5,182.5,107.5,117.5,-125,117.5,188.8,190,195,195,495,
5,George Nasrawi,M,SBD,MR-O,93,Raw,1980,CA,91.4,122.5,137.5,142.5,142.5,107.5,112.5,115,115,102.5,137.5,165,165,422.5,
1,Daniel Soriano,M,SBD,MR-O,105,Raw,1997,CA,101.7,187.5,195,207.5,207.5,135,142.5,-150,142.5,222.5,232.5,-240,232.5,582.5,
2,Mark Richards,M,SBD,MR-O,105,Raw,1993,CA,102.6,145,-160,167.5,167.5,100,112.5,-125,112.5,190,207.5,-215,207.5,487.5,
1,Joseph Sisombath,M,SBD,MR-O,120+,Raw,1992,TX,128.7,250,260,272.5,272.5,-185,185,-200,185,272.5,287.5,-295,287.5,745,
1,Laura Leech,F,BD,FR-M1a,84+,Raw,1977,CA,84.5,,,,,30,35,-37.5,35,85,90,100,100,135,
1,Quinn Clarke,M,BD,MR-Jr,120+,Raw,1995,CA,144.1,,,,,185,-195,-200,185,242.5,-257.5,-257.5,242.5,427.5,
