Division,WeightClassKg,Place,Name,Team,BodyweightKg,Best3SquatKg,Best3BenchKg,Best3DeadliftKg,TotalKg,Equipment,Event,Sex
Girls,44.23,1,Destiny Hernandez,Hitchcock,44.09,72.57,31.75,79.38,183.7,Single-ply,SBD,F
Girls,44.23,2,Marjorie Wilson,Hitchcock,42.82,36.29,24.95,68.04,129.27,Single-ply,SBD,F
Girls,44.23,NS,Dianysha Casiano,Hitchcock,,,,,,Single-ply,SBD,F
Girls,44.23,DQ,Shelby Fitzgerald,West Columbia,43.82,43.09,,,,Single-ply,SBD,F
Girls,47.85,1,Taylor Ward,West Columbia,47.54,61.23,36.29,77.11,174.63,Single-ply,SBD,F
Girls,51.94,1,Victoria Waidner,Hitchcock,50.71,95.25,31.75,111.13,238.14,Single-ply,SBD,F
Girls,51.94,2,Adile Leal,Clute Brazoswood,48.9,92.99,45.36,97.52,235.87,Single-ply,SBD,F
Girls,51.94,3,Allie Torres,Hitchcock,50.71,52.16,38.56,70.31,161.03,Single-ply,SBD,F
Girls,51.94,NS,Brittany Romero,Clute Brazoswood,,,,,,Single-ply,SBD,F
Girls,51.94,NS,Gabby Murphy,Freeport Brazosport,,,,,,Single-ply,SBD,F
Girls,51.94,NS,Kayla Lazrine,West Columbia,,,,,,Single-ply,SBD,F
Girls,56.02,1,Kayla Gace,Hitchcock,55.7,86.18,45.36,90.72,222.26,Single-ply,SBD,F
Girls,56.02,2,Morgan Smith,Alvin Shadow Creek,55.97,54.43,31.75,58.97,145.15,Single-ply,SBD,F
Girls,56.02,3,Emma Stanley,Alvin Shadow Creek,53.07,20.41,20.41,72.57,113.4,Single-ply,SBD,F
Girls,56.02,NS,Alyssa Petran,Clute Brazoswood,,,,,,Single-ply,SBD,F
Girls,56.02,NS,McKenzi Sullivan,Clute Brazoswood,,,,,,Single-ply,SBD,F
Girls,56.02,NS,Alexis Wood,Freeport Brazosport,,,,,,Single-ply,SBD,F
Girls,56.02,NS,Sarai De La Fuente,Freeport Brazosport,,,,,,Single-ply,SBD,F
Girls,60.1,1,Frances Ajaero,Stafford,57.88,120.2,49.9,124.74,294.84,Single-ply,SBD,F
Girls,60.1,2,Sabrina Fogle,West Columbia,59.15,97.52,47.63,97.52,242.67,Single-ply,SBD,F
Girls,60.1,3,DeeDee Jackson,Hitchcock,57.33,86.18,38.56,97.52,222.26,Single-ply,SBD,F
Girls,60.1,4,Melanie Gonzales,Clute Brazoswood,56.97,61.23,38.56,83.91,183.7,Single-ply,SBD,F
Girls,60.1,5,Jayden Preston,Hitchcock,56.7,61.23,34.02,79.38,174.63,Single-ply,SBD,F
Girls,60.1,6,Macy Parks,West Columbia,58.15,61.23,27.22,83.91,172.37,Single-ply,SBD,F
Girls,60.1,NS,Chelsea Sims,Hitchcock,,,,,,Single-ply,SBD,F
Girls,60.1,NS,Jayden White,Freeport Brazosport,,,,,,Single-ply,SBD,F
Girls,67.36,1,Sam Raines,Clute Brazoswood,66.59,120.2,56.7,111.13,288.03,Single-ply,SBD,F
Girls,67.36,2,Mascedia Rodriguez,Clute Brazoswood,61.69,86.18,45.36,113.4,244.94,Single-ply,SBD,F
Girls,67.36,3,Rosa Naverette,Freeport Brazosport,60.96,90.72,49.9,95.25,235.87,Single-ply,SBD,F
Girls,67.36,4,Rose Connor,Hitchcock,67.13,79.38,54.43,102.06,235.87,Single-ply,SBD,F
Girls,67.36,5,Shelton Morgan,Alvin Shadow Creek,63.41,81.65,43.09,102.06,226.8,Single-ply,SBD,F
Girls,67.36,6,Anna Green,Sweeny,65.5,79.38,40.82,106.59,226.8,Single-ply,SBD,F
Girls,67.36,7,Rebekah Maynor,West Columbia,64.05,79.38,31.75,108.86,219.99,Single-ply,SBD,F
Girls,67.36,8,Carlyn Keys,Alvin Shadow Creek,66.41,81.65,43.09,90.72,215.46,Single-ply,SBD,F
Girls,67.36,9,Harmony Hysten,Sweeny,62.32,79.38,34.02,92.99,206.38,Single-ply,SBD,F
Girls,67.36,10,Emily Simons,Clute Brazoswood,65.41,61.23,36.29,92.99,190.51,Single-ply,SBD,F
Girls,67.36,11,Jacey Thompson,Sweeny,67.31,65.77,24.95,92.99,183.7,Single-ply,SBD,F
Girls,67.36,12,Nathaly Guerrero,Alvin Shadow Creek,60.33,56.7,29.48,90.72,176.9,Single-ply,SBD,F
Girls,67.36,13,Alondra Vangas,Alvin Shadow Creek,63.87,27.22,29.48,81.65,138.35,Single-ply,SBD,F
Girls,67.36,NS,Cydnie Armor,Clute Brazoswood,,,,,,Single-ply,SBD,F
Girls,67.36,NS,Na'Kyra Darthard,Freeport Brazosport,,,,,,Single-ply,SBD,F
Girls,67.36,NS,Daelyn Frank,Hitchcock,,,,,,Single-ply,SBD,F
Girls,75.07,1,Hailey Pollard,Alvin Shadow Creek,72.12,111.13,43.09,151.95,306.17,Single-ply,SBD,F
Girls,75.07,2,Roni Fleming,Hitchcock,73.48,113.4,70.31,90.72,274.42,Single-ply,SBD,F
Girls,75.07,3,Macie Grizzle,West Columbia,68.4,95.25,45.36,129.27,269.89,Single-ply,SBD,F
Girls,75.07,4,Sarah Briggs,Sweeny,74.21,88.45,43.09,102.06,233.6,Single-ply,SBD,F
Girls,75.07,5,Brandi Peloquin,Hitchcock,68.31,72.57,45.36,92.99,210.92,Single-ply,SBD,F
Girls,75.07,6,Gladness Fisher-Afolabi,Stafford,73.3,72.57,38.56,95.25,206.38,Single-ply,SBD,F
Girls,75.07,NS,Phylane Smith,Freeport Brazosport,,,,,,Single-ply,SBD,F
Girls,75.07,NS,Sydney Pettet,Clute Brazoswood,,,,,,Single-ply,SBD,F
Girls,75.07,NS,Celeste Powell,Freeport Brazosport,,,,,,Single-ply,SBD,F
Girls,82.33,1,Nina Hernandez,Clute Brazoswood,78.2,120.2,54.43,138.35,312.98,Single-ply,SBD,F
Girls,82.33,2,Mackenzie Baron,West Columbia,81.92,120.2,47.63,120.2,288.03,Single-ply,SBD,F
Girls,82.33,3,Lizett Garza,West Columbia,81.92,113.4,49.9,122.47,285.76,Single-ply,SBD,F
Girls,82.33,4,Tiana McClendon,Alvin Shadow Creek,75.66,74.84,36.29,90.72,201.85,Single-ply,SBD,F
Girls,82.33,NS,Kayla Gilbert,Clute Brazoswood,,,,,,Single-ply,SBD,F
Girls,82.33,NS,Nevaeh Schram,Clute Brazoswood,,,,,,Single-ply,SBD,F
Girls,82.33,NS,Karla Hernandez,Freeport Brazosport,,,,,,Single-ply,SBD,F
Girls,82.33,NS,Iyonnee Terrazas,Freeport Brazosport,,,,,,Single-ply,SBD,F
Girls,90.04,1,Eryanna Copeland,Hitchcock,85.37,111.13,52.16,104.33,267.62,Single-ply,SBD,F
Girls,90.04,2,Karla Caudillo,Freeport Brazosport,86.91,102.06,47.63,111.13,260.82,Single-ply,SBD,F
Girls,90.04,3,Ashlon Williams,Sweeny,84.28,83.91,31.75,106.59,222.26,Single-ply,SBD,F
Girls,90.04,4,Tyra Patterson,Sweeny,87.72,70.31,40.82,95.25,206.38,Single-ply,SBD,F
Girls,90.04,NS,Loelei Irby,Sweeny,,,,,,Single-ply,SBD,F
Girls,90.04,NS,Latavia Thomas,Freeport Brazosport,,,,,,Single-ply,SBD,F
Girls,100.02,1,Victoria Martinez #4,Freeport Brazosport,96.62,127.01,83.91,127.01,337.93,Single-ply,SBD,F
Girls,100.02,2,Kamri Preston,Hitchcock,99.25,142.88,63.5,92.99,299.37,Single-ply,SBD,F
Girls,100.02,3,Gracie Kersten,West Columbia,91.35,90.72,58.97,117.93,267.62,Single-ply,SBD,F
Girls,100.02,4,Ashlyn Moore,Sweeny,96.43,68.04,36.29,92.99,197.31,Single-ply,SBD,F
Girls,100.02,5,Emily Ramos,Hitchcock,99.25,56.7,45.36,83.91,185.97,Single-ply,SBD,F
Girls,117.71,1,Alyssa Millan,Clute Brazoswood,107.32,140.61,79.38,113.4,333.39,Single-ply,SBD,F
Girls,117.71,2,Dariah Jennings,Alvin Shadow Creek,108.5,124.74,52.16,142.88,319.78,Single-ply,SBD,F
Girls,117.71,3,Brooke Beckham,Clute Brazoswood,102.97,127.01,61.23,113.4,301.64,Single-ply,SBD,F
Girls,117.71,4,Ryann Brown,Stafford,117.48,92.99,36.29,113.4,242.67,Single-ply,SBD,F
Girls,117.71,5,Sayjah Davis,Alvin Shadow Creek,106.14,81.65,47.63,102.06,231.33,Single-ply,SBD,F
Girls,117.71+,1,Jordyn Bustillos,Freeport Brazosport,123.56,163.29,86.18,158.76,408.23,Single-ply,SBD,F
Girls,117.71+,NS,Shanee Rivera,Clute Brazoswood,,,,,,Single-ply,SBD,F
Girls,117.71+,DQ,Katelyn Kneis,Freeport Brazosport,118.66,99.79,,106.59,,Single-ply,SBD,F
