Division,WeightClassKg,Place,Name,Team,BodyweightKg,Best3SquatKg,Best3BenchKg,Best3DeadliftKg,TotalKg,Equipment,Event,Sex
Girls,44.23,1,Clarissa Garcia,Yoakum,44,95.25,43.09,92.99,231.33,Single-ply,SBD,F
Girls,44.23,2,Sandra Paul,Beeville Jones,40.82,90.72,38.56,92.99,222.26,Single-ply,SBD,F
Girls,44.23,3,Regan Berrera,Yoakum,43.09,72.57,34.02,83.91,190.51,Single-ply,SBD,F
Girls,44.23,4,Destiny Barrientez,Kenedy,44,54.43,40.82,86.18,181.44,Single-ply,SBD,F
Girls,44.23,5,Elizabeth Quilpas,Yoakum,41.73,68.04,29.48,79.38,176.9,Single-ply,SBD,F
Girls,44.23,6,Angelica Hartsfield,Kenedy,44,43.09,27.22,83.91,154.22,Single-ply,SBD,F
Girls,47.85,1,Jamie Nail,Beeville Jones,46.72,97.52,38.56,95.25,231.33,Single-ply,SBD,F
Girls,47.85,2,Samantha Cazares,Vanderbilt Industrial,47.63,88.45,34.02,97.52,219.99,Single-ply,SBD,F
Girls,47.85,3,Alana Quiroz,Skidmore-Tynan,47.17,79.38,34.02,92.99,206.38,Single-ply,SBD,F
Girls,47.85,4,Marissa Rios,Runge,47.63,70.31,38.56,81.65,190.51,Single-ply,SBD,F
Girls,47.85,5,MeyLynn Le,Palacios,47.63,65.77,34.02,83.91,183.7,Single-ply,SBD,F
Girls,47.85,6,Sarah Dinh,Palacios,46.72,58.97,24.95,74.84,158.76,Single-ply,SBD,F
Girls,51.94,1,Odalys Garduno,Victoria West,50.8,111.13,56.7,115.67,283.5,Single-ply,SBD,F
Girls,51.94,2,Vanessa Vega,Skidmore-Tynan,49.44,102.06,52.16,120.2,274.42,Single-ply,SBD,F
Girls,51.94,3,Lacey Littles,Victoria West,50.8,106.59,45.36,111.13,263.08,Single-ply,SBD,F
Girls,51.94,4,Gabby Martinez,Kenedy,49.9,63.5,27.22,72.57,163.29,Single-ply,SBD,F
Girls,56.02,1,Haley Sharp,Beeville Jones,55.79,140.61,65.77,124.74,331.12,Single-ply,SBD,F
Girls,56.02,2,Lauren Kennedy,Vanderbilt Industrial,55.79,106.59,49.9,111.13,267.62,Single-ply,SBD,F
Girls,56.02,3,Allison Garza,Victoria West,54.88,88.45,47.63,104.33,240.4,Single-ply,SBD,F
Girls,56.02,4,Araceli Zamora,Palacios,52.62,45.36,29.48,68.04,142.88,Single-ply,SBD,F
Girls,60.1,1,Peyton Lasko,Skidmore-Tynan,58.06,108.86,45.36,95.25,249.48,Single-ply,SBD,F
Girls,60.1,2,Melyna Torres,Yoakum,58.97,63.5,29.48,90.72,183.7,Single-ply,SBD,F
Girls,60.1,3,Alexis Alvarez,Goliad,57.61,70.31,38.56,72.57,181.44,Single-ply,SBD,F
Girls,60.1,DQ,Madeline Dougherty,Skidmore-Tynan,59.87,,,,,Single-ply,SBD,F
Girls,67.36,1,Kayci Molina,Runge,67.13,120.2,61.23,138.35,319.78,Single-ply,SBD,F
Girls,67.36,2,Kaitlyn Duval,Goliad,66.22,136.08,56.7,124.74,317.51,Single-ply,SBD,F
Girls,67.36,3,Sandra Tovar,Skidmore-Tynan,60.78,111.13,61.23,120.2,292.57,Single-ply,SBD,F
Girls,67.36,4,Kileigh Bogges,Goliad,63.96,120.2,52.16,117.93,290.3,Single-ply,SBD,F
Girls,67.36,5,Sadie Salazar,Beeville Jones,64.86,111.13,43.09,102.06,256.28,Single-ply,SBD,F
Girls,67.36,6,Jalynn Green,Victoria West,67.13,97.52,47.63,111.13,256.28,Single-ply,SBD,F
Girls,67.36,7,Bridge Frazier,Yoakum,64.41,104.33,49.9,95.25,249.48,Single-ply,SBD,F
Girls,67.36,8,Tori Garcia,Victoria West,65.32,90.72,52.16,97.52,240.4,Single-ply,SBD,F
Girls,67.36,9,Desirae Herrera,Yoakum,63.5,92.99,43.09,90.72,226.8,Single-ply,SBD,F
Girls,67.36,10,Alexandria Ceasar,Palacios,66.68,72.57,47.63,65.77,185.97,Single-ply,SBD,F
Girls,67.36,11,Alex Villanueva #1,Kenedy,65.77,56.7,36.29,77.11,170.1,Single-ply,SBD,F
Girls,67.36,12,Shaylee Hyatt,Runge,64.41,56.7,34.02,52.16,142.88,Single-ply,SBD,F
Girls,75.07,1,Catrina Soto,Skidmore-Tynan,73.94,163.29,81.65,151.95,396.89,Single-ply,SBD,F
Girls,75.07,2,Tia Hart,Vanderbilt Industrial,70.31,131.54,65.77,122.47,319.78,Single-ply,SBD,F
Girls,75.07,3,Kasey Garza,Vanderbilt Industrial,74.84,115.67,74.84,115.67,306.17,Single-ply,SBD,F
Girls,75.07,4,Gabby Albiar,Kenedy,73.03,99.79,68.04,131.54,299.37,Single-ply,SBD,F
Girls,75.07,5,Shelbie Hernandez,Victoria West,71.67,104.33,52.16,136.08,292.57,Single-ply,SBD,F
Girls,75.07,6,Delina Morales,Runge,69.85,111.13,47.63,124.74,283.5,Single-ply,SBD,F
Girls,75.07,7,Addie Koliba,Victoria West,74.39,68.04,45.36,97.52,210.92,Single-ply,SBD,F
Girls,75.07,8,Karlee Lawson,Victoria West,74.39,68.04,34.02,83.91,185.97,Single-ply,SBD,F
Girls,75.07,9,Kristiana Hernandez,Runge,71.67,68.04,34.02,65.77,167.83,Single-ply,SBD,F
Girls,82.33,1,Krystal Ortiz,Beeville Jones,79.38,174.63,108.86,183.7,467.2,Single-ply,SBD,F
Girls,82.33,2,Lauryn Botello,Beeville Jones,82.33,145.15,79.38,129.27,353.8,Single-ply,SBD,F
Girls,82.33,3,Chelsea Garza,Vanderbilt Industrial,78.93,142.88,61.23,142.88,347,Single-ply,SBD,F
Girls,82.33,4,Amanda Vasquez,Skidmore-Tynan,82.1,136.08,63.5,131.54,331.12,Single-ply,SBD,F
Girls,82.33,5,Aubry Williams,Goliad,82.1,136.08,58.97,124.74,319.78,Single-ply,SBD,F
Girls,82.33,6,Taylor Shelton,Victoria West,79.38,131.54,68.04,113.4,312.98,Single-ply,SBD,F
Girls,82.33,7,Ariel Rocha,Yoakum,82.33,124.74,61.23,113.4,299.37,Single-ply,SBD,F
Girls,82.33,8,Blanca Guerra,Goliad,79.83,117.93,56.7,120.2,294.84,Single-ply,SBD,F
Girls,82.33,9,Alexis Rodriguez,Victoria West,77.56,95.25,45.36,122.47,263.08,Single-ply,SBD,F
Girls,90.04,1,Mariana Botello,Beeville Jones,88.45,158.76,68.04,131.54,358.34,Single-ply,SBD,F
Girls,90.04,2,Larissa Miller,Kenedy,83.91,108.86,72.57,124.74,306.17,Single-ply,SBD,F
Girls,90.04,3,Adrianna Martinez,Kenedy,83.01,111.13,68.04,115.67,294.84,Single-ply,SBD,F
Girls,90.04,4,Stephanie Sanchez,Victoria West,87.54,115.67,65.77,102.06,283.5,Single-ply,SBD,F
Girls,90.04,5,Kamryn Gutierrez,Runge,85.28,102.06,47.63,79.38,229.06,Single-ply,SBD,F
Girls,90.04,DQ,Margarita Salinas,Runge,84.37,88.45,,,,Single-ply,SBD,F
Girls,100.02,1,Amber Ramirez,Beeville Jones,92.99,158.76,92.99,111.13,362.87,Single-ply,SBD,F
Girls,100.02,2,Amberosia Aleman,Kenedy,94.35,102.06,77.11,147.42,326.59,Single-ply,SBD,F
Girls,100.02,3,Breann Garza,Yoakum,92.99,106.59,56.7,120.2,283.5,Single-ply,SBD,F
Girls,100.02,4,Esmeralda Rojas,Yoakum,99.11,113.4,43.09,115.67,272.16,Single-ply,SBD,F
Girls,100.02,5,Gabriella Moreno,Runge,92.99,74.84,47.63,92.99,215.46,Single-ply,SBD,F
Girls,117.71,1,Malayasia Rubit,Goliad,100.7,120.2,49.9,124.74,294.84,Single-ply,SBD,F
Girls,117.71,2,Marissa Hernandez,Kenedy,111.13,99.79,65.77,120.2,285.76,Single-ply,SBD,F
Girls,117.71,3,Christina Peterson,Palacios,112.94,99.79,52.16,108.86,260.82,Single-ply,SBD,F
Girls,117.71,4,Hailey Fuentes,Palacios,107.5,90.72,56.7,102.06,249.48,Single-ply,SBD,F
Girls,117.71+,1,Kaylynn Lawson,Victoria West,121.11,102.06,61.23,106.59,269.89,Single-ply,SBD,F
Girls,117.71+,2,Amber Gonzales,Kenedy,130.18,83.91,54.43,131.54,269.89,Single-ply,SBD,F
