Division,WeightClassKg,Place,Name,Team,BodyweightKg,Best3SquatKg,Best3BenchKg,Best3DeadliftKg,TotalKg,Equipment,Event,Sex,BirthDate
Girls,44.23,1,Chloe Canales,San Antonio East Central,43.36,127.01,72.57,127.01,326.59,Single-ply,SBD,F,
Girls,44.23,2,Lexi Iglesias,Port Lavaca Calhoun,43.45,117.93,65.77,124.74,308.44,Single-ply,SBD,F,
Girls,44.23,3,Monica Resendez,Donna North,43.27,104.33,65.77,117.93,288.03,Single-ply,SBD,F,
Girls,44.23,4,Alexis Herrera,Alice,38.37,113.4,58.97,113.4,285.76,Single-ply,SBD,F,
Girls,44.23,5,Syann Hernandez,Weslaco East,40.6,108.86,45.36,129.27,283.5,Single-ply,SBD,F,
Girls,44.23,6,Dulce De La Cruz,Floresville,41.91,111.13,52.16,108.86,272.16,Single-ply,SBD,F,
Girls,44.23,7,Anabel Martinez,Edcouch-Elsa,43.82,111.13,45.36,115.67,272.16,Single-ply,SBD,F,
Girls,44.23,8,Arianna Malacara,McAllen Memorial,42.86,108.86,49.9,104.33,263.08,Single-ply,SBD,F,
Girls,44.23,9,Kaila Gonzalez,McAllen,42.96,108.86,65.77,88.45,263.08,Single-ply,SBD,F,
Girls,44.23,10,Cassey De La Rosa,PSJA North,43.36,102.06,45.36,113.4,260.82,Single-ply,SBD,F,
Girls,44.23,11,Destiny Vanavsdall,San Antonio Southside,44.23,106.59,47.63,104.33,258.55,Single-ply,SBD,F,
Girls,44.23,12,Roxanne Cantu,Donna,44.09,102.06,49.9,104.33,256.28,Single-ply,SBD,F,
Girls,44.23,13,Sofia Torres,Uvalde,43.73,97.52,49.9,106.59,254.01,Single-ply,SBD,F,
Girls,44.23,14,Angelina Zuniga,San Benito,42.18,97.52,52.16,102.06,251.74,Single-ply,SBD,F,
Girls,44.23,15,Diana Arias,PSJA Southwest,42.09,102.06,47.63,99.79,249.48,Single-ply,SBD,F,
Girls,44.23,16,Nadra Gonzalez,Pharr Valley View,44.23,97.52,45.36,106.59,249.48,Single-ply,SBD,F,
Girls,44.23,17,Miranda Ortiz,Alice,41.1,95.25,43.09,102.06,240.4,Single-ply,SBD,F,
Girls,44.23,18,Amanda Cabrera,Weslaco East,43.86,104.33,43.09,92.99,240.4,Single-ply,SBD,F,
Girls,44.23,19,Yaritza Gonzalez,Roma,41.78,97.52,49.9,90.72,238.14,Single-ply,SBD,F,
Girls,44.23,20,Yessenia Acuna,Los Fresnos,44,97.52,43.09,97.52,238.14,Single-ply,SBD,F,
Girls,44.23,21,Lynnette Lopez,McAllen,41.96,99.79,45.36,90.72,235.87,Single-ply,SBD,F,
Girls,44.23,22,Destiny Gonzalez,Weslaco,43,90.72,38.56,104.33,233.6,Single-ply,SBD,F,
Girls,44.23,23,Jianna Enriquez,McAllen Rowe,43.27,104.33,40.82,88.45,233.6,Single-ply,SBD,F,
Girls,44.23,24,Alex Bermudez,Los Fresnos,43.59,90.72,47.63,95.25,233.6,Single-ply,SBD,F,
Girls,47.85,1,Jonique Rodriguez,Brownsville Pace,47.31,145.15,79.38,147.42,371.95,Single-ply,SBD,F,
Girls,47.85,2,Taljia Borg,Los Fresnos,46.27,136.08,58.97,149.69,344.73,Single-ply,SBD,F,
Girls,47.85,3,Genesis Nava,Edcouch-Elsa,47.67,138.35,81.65,117.93,337.93,Single-ply,SBD,F,
Girls,47.85,4,Brianna Flores,Edinburg Economedes,47.36,133.81,79.38,122.47,335.66,Single-ply,SBD,F,
Girls,47.85,5,Jolette Garza,Mission Sharyland,46.81,136.08,61.23,136.08,333.39,Single-ply,SBD,F,
Girls,47.85,6,Daisey Cardenas,Weslaco East,47.76,136.08,68.04,129.27,333.39,Single-ply,SBD,F,
Girls,47.85,7,Cat Alvarez,Los Fresnos,47.54,122.47,61.23,142.88,326.59,Single-ply,SBD,F,
Girls,47.85,8,Paulina Melendez,Los Fresnos,47.63,136.08,58.97,127.01,322.05,Single-ply,SBD,F,
Girls,47.85,9,Mia Macias,Alice,46.18,140.61,58.97,115.67,315.25,Single-ply,SBD,F,
Girls,47.85,10,Brianna De La Rosa,Los Fresnos,46.27,111.13,54.43,129.27,294.84,Single-ply,SBD,F,
Girls,47.85,11,Yaleina Ramirez,McAllen Rowe,46.81,113.4,56.7,122.47,292.57,Single-ply,SBD,F,
Girls,47.85,12,Aileen Garza,Roma,47.17,120.2,52.16,117.93,290.3,Single-ply,SBD,F,
Girls,47.85,13,Bianca Gutierrez,Brownsville Hanna,46.81,111.13,65.77,106.59,283.5,Single-ply,SBD,F,
Girls,47.85,14,Dana Rodriguez,Brownsville Pace,47.45,117.93,43.09,111.13,272.16,Single-ply,SBD,F,
Girls,47.85,15,Anna Rodriguez,Los Fresnos,46.54,97.52,49.9,120.2,267.62,Single-ply,SBD,F,
Girls,47.85,16,Briana Cantu,Sharyland Pioneer,47.54,95.25,49.9,122.47,267.62,Single-ply,SBD,F,
Girls,47.85,17,Sindy Aguilera,Los Fresnos,46.99,99.79,47.63,117.93,265.35,Single-ply,SBD,F,
Girls,47.85,18,Jazmeen Alazae Reyna,Victoria West,46.58,111.13,58.97,90.72,260.82,Single-ply,SBD,F,
Girls,47.85,19,Maya Perez,Los Fresnos,47.81,99.79,49.9,108.86,258.55,Single-ply,SBD,F,
Girls,47.85,20,Devany Monsivais,San Antonio East Central,47.72,97.52,45.36,113.4,256.28,Single-ply,SBD,F,
Girls,47.85,DQ,Leslie Seguera,McAllen,46.45,,,,,Single-ply,SBD,F,
Girls,47.85,DQ,Jennifer Villarreal,Sharyland Pioneer,47.85,95.25,,,,Single-ply,SBD,F,
Girls,51.94,1,Daisy Hernandez,Weslaco,50.71,167.83,83.91,149.69,401.43,Single-ply,SBD,F,
Girls,51.94,2,Ashley Tijerina,Mission Sharyland,51.44,167.83,83.91,149.69,401.43,Single-ply,SBD,F,
Girls,51.94,3,Ale Garcia,Los Fresnos,51.62,142.88,81.65,149.69,374.21,Single-ply,SBD,F,
Girls,51.94,4,Miranda Escamilla,Los Fresnos,51.48,145.15,70.31,149.69,365.14,Single-ply,SBD,F,
Girls,51.94,5,Salma Anaya-Martinez,Port Lavaca Calhoun,51.62,138.35,72.57,147.42,358.34,Single-ply,SBD,F,
Girls,51.94,6,Clarissa Sanchez,PSJA Southwest,51.71,140.61,68.04,142.88,351.53,Single-ply,SBD,F,
Girls,51.94,7,Raelin Luna,Port Lavaca Calhoun,51.07,133.81,70.31,136.08,340.19,Single-ply,SBD,F,
Girls,51.94,8,Julie Ramirez,PSJA North,51.17,151.95,61.23,124.74,337.93,Single-ply,SBD,F,
Girls,51.94,9,Faith Gonzalez,Edinburg Economedes,51.35,117.93,74.84,142.88,335.66,Single-ply,SBD,F,
Girls,51.94,10,Jennifer Prado,McAllen Memorial,51.71,129.27,79.38,127.01,335.66,Single-ply,SBD,F,
Girls,51.94,11,Samantha Floyd,PSJA Southwest,50.98,145.15,61.23,127.01,333.39,Single-ply,SBD,F,
Girls,51.94,12,Juliana Vasquez,Corpus Christi Tuloso-Midway,50.62,120.2,72.57,133.81,326.59,Single-ply,SBD,F,
Girls,51.94,13,Devin Balderrama,Los Fresnos,51.71,124.74,72.57,129.27,326.59,Single-ply,SBD,F,
Girls,51.94,14,Kc Aguilera,Mission,50.8,138.35,74.84,104.33,317.51,Single-ply,SBD,F,
Girls,51.94,15,Alyssa Cortez,San Antonio Southside,49.17,124.74,61.23,127.01,312.98,Single-ply,SBD,F,
Girls,51.94,16,Amanda Aguilar,Uvalde,50.53,129.27,56.7,127.01,312.98,Single-ply,SBD,F,
Girls,51.94,17,Kara Smith,Port Lavaca Calhoun,50.94,120.2,61.23,131.54,312.98,Single-ply,SBD,F,
Girls,51.94,18,Kamaryn Hernandez,Port Lavaca Calhoun,49.85,124.74,49.9,136.08,310.71,Single-ply,SBD,F,
Girls,51.94,19,Kayla Martinez,San Antonio Southside,51.35,122.47,61.23,127.01,310.71,Single-ply,SBD,F,
Girls,51.94,20,Payton Cox #1,Port Lavaca Calhoun,51.44,115.67,63.5,131.54,310.71,Single-ply,SBD,F,
Girls,51.94,21,Emily Allen,Corpus Christi Tuloso-Midway,49.99,122.47,58.97,124.74,306.17,Single-ply,SBD,F,
Girls,51.94,22,Alicia Ramos,Edinburg Vela,50.26,120.2,56.7,129.27,306.17,Single-ply,SBD,F,
Girls,51.94,23,Alaura Gonzalez,Alice,50.85,120.2,56.7,129.27,306.17,Single-ply,SBD,F,
Girls,51.94,24,Gia Ross,Seguin,50.98,124.74,72.57,108.86,306.17,Single-ply,SBD,F,
Girls,51.94,25,Isabel Sanchez,Mercedes,51.26,129.27,56.7,120.2,306.17,Single-ply,SBD,F,
Girls,51.94,26,Aisha Guijarro,PSJA Southwest,51.44,127.01,61.23,117.93,306.17,Single-ply,SBD,F,
Girls,51.94,27,Claudia Coronado,Brownsville Hanna,51.57,129.27,58.97,117.93,306.17,Single-ply,SBD,F,
Girls,51.94,28,Iris Puente,Edcouch-Elsa,51.57,122.47,63.5,120.2,306.17,Single-ply,SBD,F,
Girls,51.94,29,Geraldine Campos,Edcouch-Elsa,51.85,127.01,61.23,117.93,306.17,Single-ply,SBD,F,
Girls,51.94,30,Lindalee Urquieta,Corpus Christi Tuloso-Midway,50.85,117.93,65.77,115.67,299.37,Single-ply,SBD,F,
Girls,51.94,31,McKenzie Estrada,Gregory-Portland,51.39,127.01,54.43,108.86,290.3,Single-ply,SBD,F,
Girls,51.94,32,Sandra Velasquez,Edinburg,51.71,117.93,49.9,113.4,281.23,Single-ply,SBD,F,
Girls,51.94,33,Alejandra Garcia,Sharyland Pioneer,51.35,104.33,52.16,120.2,276.69,Single-ply,SBD,F,
Girls,51.94,DQ,Emerald Garcia,San Antonio Memorial,50.21,90.72,,,,Single-ply,SBD,F,
Girls,51.94,DQ,Daniela Hernandez,Donna North,51.62,,,,,Single-ply,SBD,F,
Girls,56.02,1,Donna Mondragon,La Joya Palmview,55.57,170.1,102.06,174.63,446.79,Single-ply,SBD,F,
Girls,56.02,2,America Fernandez,Somerset,55.25,179.17,120.2,145.15,444.52,Single-ply,SBD,F,
Girls,56.02,3,Veronica Martinez,Los Fresnos,53.34,154.22,83.91,158.76,396.89,Single-ply,SBD,F,
Girls,56.02,4,Maryssa Lucio,Brownsville Hanna,53.75,149.69,95.25,149.69,394.63,Single-ply,SBD,F,
Girls,56.02,5,Lilian Lara,Weslaco,55.75,156.49,74.84,151.95,383.29,Single-ply,SBD,F,
Girls,56.02,6,Eh Nay Gay Hso,Port Lavaca Calhoun,55.43,172.37,65.77,142.88,381.02,Single-ply,SBD,F,
Girls,56.02,7,Karyme Gomez,Los Fresnos,54.98,145.15,79.38,149.69,374.21,Single-ply,SBD,F,
Girls,56.02,8,Georgina Alaniz,Edcouch-Elsa,55.7,151.95,77.11,145.15,374.21,Single-ply,SBD,F,
Girls,56.02,9,Fabiola Estrada,Brownsville Lopez,55.7,145.15,74.84,149.69,369.68,Single-ply,SBD,F,
Girls,56.02,10,Geraldine Tafolla,Port Lavaca Calhoun,55.43,149.69,70.31,142.88,362.87,Single-ply,SBD,F,
Girls,56.02,11,Ayisha Recio,PSJA,55.47,149.69,65.77,131.54,347,Single-ply,SBD,F,
Girls,56.02,12,Lacey Littles,Victoria West,54.43,136.08,68.04,140.61,344.73,Single-ply,SBD,F,
Girls,56.02,13,Asia De Leon,Brownsville Pace,55.79,136.08,61.23,145.15,342.46,Single-ply,SBD,F,
Girls,56.02,14,Laney Bustos,Gregory-Portland,53.66,136.08,68.04,136.08,340.19,Single-ply,SBD,F,
Girls,56.02,15,Jacqueline Sanchez,Donna,55.34,136.08,68.04,136.08,340.19,Single-ply,SBD,F,
Girls,56.02,16,Crystal Jimenez,Mercedes,55.07,140.61,61.23,136.08,337.93,Single-ply,SBD,F,
Girls,56.02,17,Keila Hernandez,Edinburg,55.25,136.08,72.57,124.74,333.39,Single-ply,SBD,F,
Girls,56.02,18,Alexis Garcia,Los Fresnos,55.43,133.81,63.5,136.08,333.39,Single-ply,SBD,F,
Girls,56.02,19,Karla Acuna,Edinburg,53.52,133.81,61.23,136.08,331.12,Single-ply,SBD,F,
Girls,56.02,20,Adamari Martinez,PSJA,54.75,138.35,54.43,138.35,331.12,Single-ply,SBD,F,
Girls,56.02,21,Sheyla Cantu,La Joya Juarez-Lincoln,55.16,138.35,65.77,127.01,331.12,Single-ply,SBD,F,
Girls,56.02,22,Abigail Ramos-Cruz,San Antonio Southwest Legacy,55.97,133.81,68.04,129.27,331.12,Single-ply,SBD,F,
Girls,56.02,23,Aleena Chavez,Mission,54.34,142.88,61.23,124.74,328.85,Single-ply,SBD,F,
Girls,56.02,24,Adalysa Rosales,San Antonio East Central,55.07,138.35,74.84,115.67,328.85,Single-ply,SBD,F,
Girls,56.02,25,Bianca Guzman,Corpus Christi Tuloso-Midway,55.52,131.54,72.57,124.74,328.85,Single-ply,SBD,F,
Girls,56.02,26,Bryanna Marroquin,Edinburg North,54.52,129.27,70.31,122.47,322.05,Single-ply,SBD,F,
Girls,56.02,27,Victoria Ortega,La Joya,55.25,129.27,61.23,127.01,317.51,Single-ply,SBD,F,
Girls,56.02,28,Brianna Perez,Donna North,54.88,133.81,61.23,113.4,308.44,Single-ply,SBD,F,
Girls,56.02,29,Mariana Zarate,Mission Sharyland,54.98,120.2,63.5,122.47,306.17,Single-ply,SBD,F,
Girls,56.02,30,Rosa Perales,Brownsville Hanna,54.52,111.13,54.43,133.81,299.37,Single-ply,SBD,F,
Girls,56.02,DQ,Alexandra Davila,Brownsville Pace,55.43,,,,,Single-ply,SBD,F,
Girls,56.02,DQ,Ava Sandoval,Edinburg Economedes,54.98,,,,,Single-ply,SBD,F,
Girls,56.02,DQ,Angelin Cruz,San Benito,55.66,133.81,,,,Single-ply,SBD,F,
Girls,56.02,DQ,Myndi Rodriguez,Corpus Christi Tuloso-Midway,54.25,,,,,Single-ply,SBD,F,
Girls,60.1,1,Princess Rios,Edinburg Economedes,59.78,192.78,108.86,154.22,455.86,Single-ply,SBD,F,
Girls,60.1,2,Brenda Garcia,Los Fresnos,59.28,181.44,117.93,131.54,430.91,Single-ply,SBD,F,
Girls,60.1,3,Paola Castillo,Los Fresnos,59.96,165.56,90.72,156.49,412.77,Single-ply,SBD,F,
Girls,60.1,4,Morgan Candela,Corpus Christi Tuloso-Midway,59.06,165.56,86.18,154.22,405.97,Single-ply,SBD,F,
Girls,60.1,5,Luisa Rodriguez,PSJA,59.01,151.95,92.99,149.69,394.63,Single-ply,SBD,F,
Girls,60.1,6,Alissandra Garrido,Los Fresnos,59.24,142.88,83.91,161.03,387.82,Single-ply,SBD,F,
Girls,60.1,7,Gisselle Cabrera,Edinburg Economedes,58.24,165.56,92.99,117.93,376.48,Single-ply,SBD,F,
Girls,60.1,8,Kimberly Gonzalez,Edinburg,59.65,138.35,83.91,138.35,360.61,Single-ply,SBD,F,
Girls,60.1,9,Victoria Escalante,Los Fresnos,59.06,145.15,79.38,133.81,358.34,Single-ply,SBD,F,
Girls,60.1,10,Valerie Soto,San Benito,59.96,151.95,81.65,124.74,358.34,Single-ply,SBD,F,
Girls,60.1,11,Melanie Davila,San Benito,59.87,129.27,79.38,145.15,353.8,Single-ply,SBD,F,
Girls,60.1,12,Genesis Luna,San Antonio Southwest,58.79,136.08,79.38,136.08,351.53,Single-ply,SBD,F,
Girls,60.1,13,Skylar Stramoski,San Antonio Southwest,59.28,129.27,79.38,142.88,351.53,Single-ply,SBD,F,
Girls,60.1,14,Anahi Sosa,Edinburg Vela,59.96,142.88,72.57,133.81,349.27,Single-ply,SBD,F,
Girls,60.1,15,Karen Rosales,Donna North,59.51,133.81,81.65,129.27,344.73,Single-ply,SBD,F,
Girls,60.1,16,Jocelyn Rodriguez,San Antonio East Central,58.88,136.08,58.97,147.42,342.46,Single-ply,SBD,F,
Girls,60.1,17,Morgan Williams,Los Fresnos,58.33,142.88,52.16,142.88,337.93,Single-ply,SBD,F,
Girls,60.1,18,Samantha Ware,Gregory-Portland,59.65,136.08,77.11,124.74,337.93,Single-ply,SBD,F,
Girls,60.1,19,Marissa Balboa,Edcouch-Elsa,59.69,147.42,72.57,115.67,335.66,Single-ply,SBD,F,
Girls,60.1,20,Vianney Escamilla,Mission,59.01,133.81,65.77,124.74,324.32,Single-ply,SBD,F,
Girls,60.1,21,Jasmine Earls,Corpus Christi Calallen,59.42,117.93,61.23,136.08,315.25,Single-ply,SBD,F,
Girls,60.1,DQ,Brianna Garcia,Brownsville Pace,59.56,136.08,83.91,,,Single-ply,SBD,F,
Girls,67.36,1,Julianna Perez,Corpus Christi Tuloso-Midway,61.28,176.9,102.06,165.56,444.52,Single-ply,SBD,F,
Girls,67.36,2,Kassandra Mendiola,La Joya Palmview,65.32,183.7,83.91,176.9,444.52,Single-ply,SBD,F,
Girls,67.36,3,Sarah Morillon,Los Fresnos,65.63,167.83,92.99,179.17,439.98,Single-ply,SBD,F,
Girls,67.36,4,Courtney Lamontagne,Corpus Christi Tuloso-Midway,65.41,172.37,90.72,170.1,433.18,Single-ply,SBD,F,
Girls,67.36,5,Daniela Roman,Sharyland Pioneer,65.68,181.44,77.11,151.95,410.5,Single-ply,SBD,F,
Girls,67.36,6,Alyssa Alvarado,McAllen Memorial,66.95,163.29,92.99,154.22,410.5,Single-ply,SBD,F,
Girls,67.36,7,Natalie Maldonado,PSJA Memorial,66.77,172.37,90.72,142.88,405.97,Single-ply,SBD,F,
Girls,67.36,8,Jessica Montes,McAllen Memorial,65.41,161.03,83.91,158.76,403.7,Single-ply,SBD,F,
Girls,67.36,9,Nancy Losoya,Brownsville Lopez,61.51,170.1,72.57,158.76,401.43,Single-ply,SBD,F,
Girls,67.36,10,Rebecka Flores,PSJA Memorial,63.96,145.15,81.65,151.95,378.75,Single-ply,SBD,F,
Girls,67.36,11,Franchesca Sanchez,Los Fresnos,63.87,145.15,88.45,138.35,371.95,Single-ply,SBD,F,
Girls,67.36,12,Abby Atkinson,Los Fresnos,65.77,138.35,88.45,145.15,371.95,Single-ply,SBD,F,
Girls,67.36,13,Jennifer Gallegos,San Benito,67.04,161.03,88.45,122.47,371.95,Single-ply,SBD,F,
Girls,67.36,14,Jazmine Cervantes,Weslaco East,66.18,142.88,83.91,142.88,369.68,Single-ply,SBD,F,
Girls,67.36,15,Andrea Rizo,Brownsville Pace,65.41,156.49,65.77,145.15,367.41,Single-ply,SBD,F,
Girls,67.36,16,Marialline Loera,Sharyland Pioneer,66.86,142.88,77.11,147.42,367.41,Single-ply,SBD,F,
Girls,67.36,17,Michelle Ramirez,Edinburg North,67.13,151.95,81.65,131.54,365.14,Single-ply,SBD,F,
Girls,67.36,18,Katya Garza-Rodriguez,Port Lavaca Calhoun,62.69,147.42,63.5,151.95,362.87,Single-ply,SBD,F,
Girls,67.36,19,Gianna Aleman,McAllen,64,142.88,95.25,124.74,362.87,Single-ply,SBD,F,
Girls,67.36,20,Irene Lopez,Weslaco East,66.41,138.35,74.84,149.69,362.87,Single-ply,SBD,F,
Girls,67.36,21,Sophia Aguilera,Los Fresnos,66.5,142.88,72.57,147.42,362.87,Single-ply,SBD,F,
Girls,67.36,22,Marbella Galindo,Los Fresnos,67.31,133.81,83.91,145.15,362.87,Single-ply,SBD,F,
Girls,67.36,DQ,Ariana Hernández,Laredo Cigarroa,65.05,,65.77,,,Single-ply,SBD,F,
Girls,75.07,1,Mackenzie Contreras,Edcouch-Elsa,74.21,206.38,113.4,167.83,487.61,Single-ply,SBD,F,
Girls,75.07,2,Lili Bradford,McAllen Memorial,72.12,197.31,106.59,174.63,478.54,Single-ply,SBD,F,
Girls,75.07,3,Kat Martinez,Los Fresnos,70.67,197.31,115.67,154.22,467.2,Single-ply,SBD,F,
Girls,75.07,4,Madison Calderon,Corpus Christi Calallen,72.8,172.37,122.47,163.29,458.13,Single-ply,SBD,F,
Girls,75.07,5,Jennifer Perez,Edinburg Economedes,75.02,183.7,97.52,163.29,444.52,Single-ply,SBD,F,
Girls,75.07,6,Ashley Chavez,Edinburg Economedes,70.67,188.24,95.25,145.15,428.64,Single-ply,SBD,F,
Girls,75.07,7,Araylie Garza,Edcouch-Elsa,74.53,176.9,95.25,142.88,415.04,Single-ply,SBD,F,
Girls,75.07,8,Leila Alvarado,Weslaco,72.67,163.29,81.65,154.22,399.16,Single-ply,SBD,F,
Girls,75.07,9,Diony Villanueva,Edinburg Economedes,70.76,156.49,88.45,149.69,394.63,Single-ply,SBD,F,
Girls,75.07,10,Kristal Espinoza,Donna,73.03,156.49,86.18,151.95,394.63,Single-ply,SBD,F,
Girls,75.07,11,Alyssa Echazarreta,McAllen,72.94,172.37,74.84,138.35,385.55,Single-ply,SBD,F,
Girls,75.07,12,Emily Rodriguez,Los Fresnos,71.21,161.03,72.57,149.69,383.29,Single-ply,SBD,F,
Girls,75.07,13,Karen Martinez,PSJA Southwest,73.57,165.56,77.11,140.61,383.29,Single-ply,SBD,F,
Girls,75.07,14,Mayeliza Sanchez,Brownsville Lopez,73.84,151.95,92.99,138.35,383.29,Single-ply,SBD,F,
Girls,75.07,15,Kelsey Garcia,Uvalde,74.34,167.83,83.91,131.54,383.29,Single-ply,SBD,F,
Girls,75.07,16,Mariana Juarez,PSJA North,73.3,140.61,79.38,154.22,374.21,Single-ply,SBD,F,
Girls,75.07,17,Ericka Garcia,San Antonio East Central,73.89,165.56,63.5,145.15,374.21,Single-ply,SBD,F,
Girls,75.07,18,Sofia Jimenez,San Benito,74.07,167.83,70.31,136.08,374.21,Single-ply,SBD,F,
Girls,75.07,19,Vivian Galindo,Port Lavaca Calhoun,74.39,151.95,77.11,145.15,374.21,Single-ply,SBD,F,
Girls,75.07,20,Mia Ortiz,Del Rio,71.76,149.69,74.84,142.88,367.41,Single-ply,SBD,F,
Girls,75.07,21,Yesenia Arellanno,Floresville,73.84,149.69,72.57,142.88,365.14,Single-ply,SBD,F,
Girls,75.07,22,Amy Aguirre,Edcouch-Elsa,74.48,138.35,74.84,140.61,353.8,Single-ply,SBD,F,
Girls,75.07,23,Bianca Aguirre,Donna North,74.57,149.69,61.23,142.88,353.8,Single-ply,SBD,F,
Girls,75.07,24,Makayla Markham,Alice,72.3,147.42,74.84,124.74,347,Single-ply,SBD,F,
Girls,75.07,25,Cassandra Martinez,Mercedes,74.34,147.42,68.04,129.27,344.73,Single-ply,SBD,F,
Girls,75.07,DQ,Monique Garza,McAllen,73.66,,,,,Single-ply,SBD,F,
Girls,75.07,DQ,Mia Gonzalez,Edcouch-Elsa,74.16,161.03,,,,Single-ply,SBD,F,
Girls,82.33,1,Leslie Garcia,Edinburg Economedes,81.65,197.31,95.25,163.29,455.86,Single-ply,SBD,F,
Girls,82.33,2,Eylen Ruiz,Brownsville Pace,78.93,192.78,99.79,156.49,449.06,Single-ply,SBD,F,
Girls,82.33,3,Sabrena Rosales,Edinburg Economedes,81.37,158.76,117.93,170.1,446.79,Single-ply,SBD,F,
Girls,82.33,4,Mariana Quiroz,Weslaco,79.47,185.97,86.18,165.56,437.72,Single-ply,SBD,F,
Girls,82.33,5,Virginia Watkins,Edinburg Vela,80.24,170.1,81.65,174.63,426.38,Single-ply,SBD,F,
Girls,82.33,6,Natalie Rivera,Brownsville Pace,79.02,181.44,88.45,154.22,424.11,Single-ply,SBD,F,
Girls,82.33,7,Jocelyn Bustamante,Uvalde,80.74,181.44,90.72,151.95,424.11,Single-ply,SBD,F,
Girls,82.33,8,Devanhi Lozano,Laredo United,76.57,183.7,83.91,142.88,410.5,Single-ply,SBD,F,
Girls,82.33,9,Carolina Rico,Somerset,79.51,174.63,97.52,136.08,408.23,Single-ply,SBD,F,
Girls,82.33,10,Allyson Gutierrez,McAllen Memorial,79.92,158.76,81.65,156.49,396.89,Single-ply,SBD,F,
Girls,82.33,11,Leticia Flores,PSJA North,79.02,158.76,86.18,145.15,390.09,Single-ply,SBD,F,
Girls,82.33,12,Jeweliana Rosas,La Joya Juarez-Lincoln,80.29,174.63,83.91,129.27,387.82,Single-ply,SBD,F,
Girls,82.33,13,Abigail Martinez,PSJA Memorial,81.28,163.29,88.45,136.08,387.82,Single-ply,SBD,F,
Girls,82.33,14,Noelia Rodas,Port Lavaca Calhoun,80.38,158.76,77.11,149.69,385.55,Single-ply,SBD,F,
Girls,82.33,15,Zoie Hartman,Corpus Christi Calallen,80.51,151.95,77.11,156.49,385.55,Single-ply,SBD,F,
Girls,82.33,16,Janel Garcia,Uvalde,82.28,163.29,68.04,154.22,385.55,Single-ply,SBD,F,
Girls,82.33,17,Michelle Jaramillo,Edinburg,80.83,145.15,86.18,136.08,367.41,Single-ply,SBD,F,
Girls,82.33,18,Carmen Lainez,Los Fresnos,80.33,185.97,,,185.97,Single-ply,S,F,
Girls,82.33,DQ,Esther Lopez,Edinburg Economedes,80.74,161.03,83.91,,,Single-ply,SBD,F,
Girls,82.33,DQ,Angelina Cervantes,Brownsville Rivera,82.19,140.61,,,,Single-ply,SBD,F,
Girls,82.33,DQ,Angelina Yanez,Donna,78.2,136.08,,,,Single-ply,SBD,F,
Girls,82.33,DQ,Litzylaisha Sanchez,Del Rio,79.92,136.08,,,,Single-ply,SBD,F,
Girls,90.04,1,Jessica Mendez,Donna North,88.18,204.12,111.13,204.12,519.36,Single-ply,SBD,F,
Girls,90.04,2,Kennedi Butcher,Port Lavaca Calhoun,87.72,192.78,113.4,188.24,494.42,Single-ply,SBD,F,
Girls,90.04,3,Alyssa Sauceda,Victoria East,88.95,199.58,102.06,170.1,471.74,Single-ply,SBD,F,
Girls,90.04,4,Natalia Davila,Mission Sharyland,89.86,195.04,113.4,147.42,455.86,Single-ply,SBD,F,
Girls,90.04,5,Leksi Martinez,Castroville Medina Valley,87.82,183.7,102.06,161.03,446.79,Single-ply,SBD,F,
Girls,90.04,6,Victoria Pena,Edcouch-Elsa,89.9,190.51,104.33,149.69,444.52,Single-ply,SBD,F,
Girls,90.04,7,Kimberly Luna,Brownsville Pace,86.5,185.97,92.99,156.49,435.45,Single-ply,SBD,F,
Girls,90.04,8,Chantel Smith,Edinburg Economedes,83.05,197.31,83.91,151.95,433.18,Single-ply,SBD,F,
Girls,90.04,9,Rebecca Rodriguez,Los Fresnos,88.45,185.97,83.91,151.95,421.84,Single-ply,SBD,F,
Girls,90.04,10,Anahi Ochoa,Donna,88.68,183.7,74.84,161.03,419.57,Single-ply,SBD,F,
Girls,90.04,11,Luz Camargo,Weslaco East,88.45,165.56,86.18,161.03,412.77,Single-ply,SBD,F,
Girls,90.04,12,Estella Prado,McAllen Memorial,89.99,174.63,81.65,156.49,412.77,Single-ply,SBD,F,
Girls,90.04,13,Maria Cuellar,PSJA Memorial,86.91,172.37,88.45,145.15,405.97,Single-ply,SBD,F,
Girls,90.04,14,Caroline Hernandez,San Benito,85.64,154.22,106.59,142.88,403.7,Single-ply,SBD,F,
Girls,90.04,15,Alessandra Mejia,Laredo Cigarroa,87.41,170.1,77.11,149.69,396.89,Single-ply,SBD,F,
Girls,90.04,16,Maggie Cepeda,McAllen,87.63,174.63,88.45,133.81,396.89,Single-ply,SBD,F,
Girls,90.04,17,Nayeli Lopez,Brownsville Veterans Memorial,88.72,165.56,83.91,147.42,396.89,Single-ply,SBD,F,
Girls,90.04,18,Naydelin Jasso,Weslaco East,88.72,165.56,83.91,136.08,385.55,Single-ply,SBD,F,
Girls,90.04,19,Alexis Rodriguez,Brownsville Porter,88.27,170.1,77.11,129.27,376.48,Single-ply,SBD,F,
Girls,90.04,20,Paula Alvarez,Weslaco,85.46,149.69,83.91,136.08,369.68,Single-ply,SBD,F,
Girls,90.04,21,Linda Rodriguez,Weslaco,89.81,167.83,68.04,133.81,369.68,Single-ply,SBD,F,
Girls,90.04,DQ,Nallely Garcia,Edinburg Economedes,85.09,,,,,Single-ply,SBD,F,
Girls,90.04,DQ,Karla Frias,PSJA Memorial,89.36,,,,,Single-ply,SBD,F,
Girls,100.02,1,Krysti Llamas,Edinburg Vela,96.62,231.33,102.06,167.83,501.22,Single-ply,SBD,F,
Girls,100.02,2,Anahi Garcia,Edinburg Economedes,92.85,208.65,113.4,170.1,492.15,Single-ply,SBD,F,
Girls,100.02,3,Analydia Montes,Corpus Christi Tuloso-Midway,93.62,195.04,104.33,185.97,485.34,Single-ply,SBD,F,
Girls,100.02,4,Marleen Salazar,Brownsville Lopez,96.43,185.97,115.67,183.7,485.34,Single-ply,SBD,F,
Girls,100.02,5,Alejandra Garcia,Los Fresnos,94.8,190.51,106.59,161.03,458.13,Single-ply,SBD,F,
Girls,100.02,6,Valeria Santiago,McAllen Memorial,99.43,192.78,102.06,151.95,446.79,Single-ply,SBD,F,
Girls,100.02,7,Brooke Candela,Corpus Christi Tuloso-Midway,95.62,183.7,113.4,145.15,442.25,Single-ply,SBD,F,
Girls,100.02,8,Alicia Gomez,PSJA Memorial,98.88,181.44,95.25,163.29,439.98,Single-ply,SBD,F,
Girls,100.02,9,Brisa Barrientos,La Joya,98.7,188.24,95.25,154.22,437.72,Single-ply,SBD,F,
Girls,100.02,10,Megan Ayala,San Benito,98.07,183.7,111.13,138.35,433.18,Single-ply,SBD,F,
Girls,100.02,11,Irlanda Moreno,Brownsville Veterans Memorial,95.89,172.37,83.91,167.83,424.11,Single-ply,SBD,F,
Girls,100.02,12,Alexa Bazan,Roma,99.79,183.7,72.57,167.83,424.11,Single-ply,SBD,F,
Girls,100.02,13,Adriana Cavazos,Weslaco,92.76,190.51,74.84,154.22,419.57,Single-ply,SBD,F,
Girls,100.02,14,Crystal Palofax,Sharyland Pioneer,96.16,165.56,95.25,158.76,419.57,Single-ply,SBD,F,
Girls,100.02,15,Rosalinda Rodriguez,Donna,99.61,185.97,92.99,136.08,415.04,Single-ply,SBD,F,
Girls,100.02,DQ,Evelyn Garza,Edcouch-Elsa,99.79,,,,,Single-ply,SBD,F,
Girls,117.71,1,Roxanne Martinez,Donna,111.77,247.21,129.27,163.29,539.77,Single-ply,SBD,F,
Girls,117.71,2,Erika Guerrero,Mission,105.32,254.01,124.74,156.49,535.24,Single-ply,SBD,F,
Girls,117.71,3,Juana Bolanos,Edinburg Economedes,105.87,226.8,136.08,163.29,526.17,Single-ply,SBD,F,
Girls,117.71,4,Dulce Guajardo,Del Rio,106.14,183.7,102.06,199.58,485.34,Single-ply,SBD,F,
Girls,117.71,5,Ashlyn Wiekle,Somerset,110.72,188.24,122.47,174.63,485.34,Single-ply,SBD,F,
Girls,117.71,6,Michelle Davila,Brownsville Hanna,115.21,183.7,102.06,165.56,451.32,Single-ply,SBD,F,
Girls,117.71,7,Marissa Garcia,Alice,115.58,192.78,79.38,172.37,444.52,Single-ply,SBD,F,
Girls,117.71,8,Brittney Ramirez,Donna North,111.49,199.58,97.52,145.15,442.25,Single-ply,SBD,F,
Girls,117.71,9,Ariel Rangel,Somerset,116.39,183.7,111.13,142.88,437.72,Single-ply,SBD,F,
Girls,117.71,10,Melanie Gutierrez,Donna,108.41,185.97,81.65,167.83,435.45,Single-ply,SBD,F,
Girls,117.71,11,Leah Cantu,McAllen Memorial,111.99,176.9,122.47,133.81,433.18,Single-ply,SBD,F,
Girls,117.71,12,Kaylen Flores,PSJA Memorial,115.39,183.7,106.59,142.88,433.18,Single-ply,SBD,F,
Girls,117.71,13,Andriah Trevino,Uvalde,106.28,179.17,74.84,165.56,419.57,Single-ply,SBD,F,
Girls,117.71,14,Bryana Larraga,Edinburg,108.32,165.56,111.13,142.88,419.57,Single-ply,SBD,F,
Girls,117.71,15,Grace Lopez,Weslaco,103.92,174.63,74.84,145.15,394.63,Single-ply,SBD,F,
Girls,117.71+,1,Alayna Searcy,Port Lavaca Calhoun,129,235.87,115.67,161.03,512.56,Single-ply,SBD,F,
Girls,117.71+,2,Johanna DeLeon,Donna North,124.15,213.19,111.13,181.44,505.76,Single-ply,SBD,F,
Girls,117.71+,3,Aisha Garcia,Edcouch-Elsa,144.24,215.46,102.06,165.56,483.08,Single-ply,SBD,F,
Girls,117.71+,4,Alex Aguilar,Castroville Medina Valley,118.71,183.7,97.52,156.49,437.72,Single-ply,SBD,F,
Girls,117.71+,5,Denise Gonzalez,Weslaco,126.64,170.1,97.52,163.29,430.91,Single-ply,SBD,F,
Girls,117.71+,6,Leslie Montelongo,Weslaco,129.64,185.97,86.18,158.76,430.91,Single-ply,SBD,F,
Girls,117.71+,7,RosaLynn Davila,Edinburg North,135.71,158.76,106.59,165.56,430.91,Single-ply,SBD,F,
Girls,117.71+,8,Sophia Arredondo,San Antonio Southside,140.7,170.1,111.13,149.69,430.91,Single-ply,SBD,F,
Girls,117.71+,9,Nayely Leyva,La Joya,120.11,167.83,104.33,133.81,405.97,Single-ply,SBD,F,
Girls,117.71+,10,Aaliyah Prater,Brownsville Porter,122.83,183.7,74.84,129.27,387.82,Single-ply,SBD,F,
Girls,117.71+,11,Regina Alaniz,Castroville Medina Valley,131.63,133.81,74.84,122.47,331.12,Single-ply,SBD,F,
Girls,117.71+,12,Yadhira Gloria,Edinburg,160.53,111.13,77.11,108.86,297.1,Single-ply,SBD,F,
Girls,117.71+,13,Victoria Lozano,Edinburg Vela,121.29,115.67,45.36,124.74,285.76,Single-ply,SBD,F,
Girls,,NS,Alicia Borges,Edinburg Vela,,,,,,Single-ply,SBD,F,
Girls,,NS,Veronica Gonzalez,Edinburg Economedes,,,,,,Single-ply,SBD,F,
Girls,,NS,Kimbelry Gonzalez,Edinburg,,,,,,Single-ply,SBD,F,
Girls,,NS,Kayla Cox,Edinburg North,,,,,,Single-ply,SBD,F,
Girls,,NS,Alaze Ocanas,Weslaco East,,,,,,Single-ply,SBD,F,
Girls,,NS,Bella Villarreal,Edinburg,,,,,,Single-ply,SBD,F,
Girls,,NS,Irali Cerda,Donna North,,,,,,Single-ply,SBD,F,
Girls,,NS,Nelly Gutierrez,Donna,,,,,,Single-ply,SBD,F,
Girls,,NS,Linda Urquieta,Corpus Christi Tuloso-Midway,,,,,,Single-ply,SBD,F,
Girls,,NS,Isareli Contreras,Laredo Cigarroa,,,,,,Single-ply,SBD,F,
Girls,,NS,Sara Garza,Los Fresnos,,,,,,Single-ply,SBD,F,
Girls,,NS,Katarina Moseley,McAllen,,,,,,Single-ply,SBD,F,
Girls,,NS,Alyssa Moreno,McAllen Memorial,,,,,,Single-ply,SBD,F,
Girls,,NS,Brianna Marquez,Mission,,,,,,Single-ply,SBD,F,
Girls,,NS,Brianda Resendez,Mission Sharyland,,,,,,Single-ply,SBD,F,
Girls,,NS,Kayla Ruiz,San Benito,,,,,,Single-ply,SBD,F,
Girls,,NS,Victoria Varela,Port Lavaca Calhoun,,,,,,Single-ply,SBD,F,
Girls,,NS,Keila Castellanos,Pharr Valley View,,,,,,Single-ply,SBD,F,
Girls,,NS,Angela Elvira,PSJA,,,,,,Single-ply,SBD,F,
Girls,,NS,Crystal Borrego,PSJA Memorial,,,,,,Single-ply,SBD,F,
Girls,,NS,Heidy Perez,PSJA Memorial,,,,,,Single-ply,SBD,F,
Girls,,NS,Alexia Zapata,PSJA Southwest,,,,,,Single-ply,SBD,F,
Girls,,NS,Deena Flores,Edcouch-Elsa,,,,,,Single-ply,SBD,F,
