Division,WeightClassKg,Place,Name,Team,BodyweightKg,Best3SquatKg,Best3BenchKg,Best3DeadliftKg,TotalKg,Equipment,Event,Sex
Girls,44.23,1,Lauren Aldape,Mercedes,42.18,99.79,45.36,117.93,263.08,Single-ply,SBD,F
Girls,44.23,2,Beth De Hoyos,PSJA North,42.55,81.65,45.36,106.59,233.6,Single-ply,SBD,F
Girls,44.23,3,Maria Pro,PSJA Southwest,44.18,95.25,43.09,95.25,233.6,Single-ply,SBD,F
Girls,47.85,1,Briseidi Cantu,Rio Grande City,46.9,122.47,56.7,136.08,315.25,Single-ply,SBD,F
Girls,47.85,2,Laisha Lopez,La Joya Palmview,47.54,124.74,45.36,95.25,265.35,Single-ply,SBD,F
Girls,47.85,3,Yanitza Vasquez,La Joya Juarez-Lincoln,47.54,95.25,40.82,102.06,238.14,Single-ply,SBD,F
Girls,47.85,4,Bailey Santos,PSJA Southwest,46.54,83.91,40.82,106.59,231.33,Single-ply,SBD,F
Girls,47.85,5,Gisela Velasquez,Weslaco,47.72,92.99,49.9,86.18,229.06,Single-ply,SBD,F
Girls,47.85,6,Diamond Teran,Hidalgo Early College,46.45,97.52,38.56,86.18,222.26,Single-ply,SBD,F
Girls,47.85,7,Kayla Garza,PSJA Southwest,46.81,79.38,43.09,92.99,215.46,Single-ply,SBD,F
Girls,47.85,8,Damaris Arauza,Hidalgo Early College,47.36,88.45,38.56,88.45,215.46,Single-ply,SBD,F
Girls,51.94,1,Klarissa Gonzalez,San Benito,50.71,133.81,81.65,140.61,356.07,Single-ply,SBD,F
Girls,51.94,2,Tabatha Gonzalez,Mission,50.89,131.54,40.82,115.67,288.03,Single-ply,SBD,F
Girls,51.94,3,Kalista Solis,PSJA Southwest,51.53,127.01,47.63,97.52,272.16,Single-ply,SBD,F
Girls,51.94,4,Julie Martinez,PSJA Southwest,51.71,106.59,63.5,99.79,269.89,Single-ply,SBD,F
Girls,51.94,5,Helen Reyes,Weslaco,49.26,106.59,36.29,104.33,247.21,Single-ply,SBD,F
Girls,51.94,6,Anallanci Vera,PSJA North,49.99,99.79,43.09,102.06,244.94,Single-ply,SBD,F
Girls,51.94,7,Sandra Madrigal,Donna,51.89,104.33,43.09,97.52,244.94,Single-ply,SBD,F
Girls,51.94,8,Kasandra Rodriguez,PSJA Memorial,51.89,90.72,31.75,97.52,219.99,Single-ply,SBD,F
Girls,51.94,9,Destiny Garza,PSJA Southwest,51.71,88.45,36.29,90.72,215.46,Single-ply,SBD,F
Girls,51.94,10,Vivian Garza,Edinburg North,51.62,72.57,36.29,81.65,190.51,Single-ply,SBD,F
Girls,51.94,11,Valerie DeLa Cruz,Edinburg North,50.17,43.09,29.48,58.97,131.54,Single-ply,SBD,F
Girls,51.94,DQ,Nicole Rodriguez,Donna North,51.8,97.52,49.9,,,Single-ply,SBD,F
Girls,56.02,1,Ravyn Deangel,Donna,54.34,165.56,63.5,124.74,353.8,Single-ply,SBD,F
Girls,56.02,2,Katie Gonzalez,Sharyland Pioneer,55.61,127.01,63.5,142.88,333.39,Single-ply,SBD,F
Girls,56.02,3,Kelsy Elizondo,PSJA North,55.43,138.35,47.63,136.08,322.05,Single-ply,SBD,F
Girls,56.02,4,Larissa Villanueva,Donna North,55.16,113.4,65.77,131.54,310.71,Single-ply,SBD,F
Girls,56.02,5,Victoria Salinas,Rio Grande City,53.43,127.01,56.7,122.47,306.17,Single-ply,SBD,F
Girls,56.02,6,Yesenia Rocha,San Benito,53.52,124.74,47.63,133.81,306.17,Single-ply,SBD,F
Girls,56.02,7,Daesha Cano,PSJA North,55.88,136.08,56.7,113.4,306.17,Single-ply,SBD,F
Girls,56.02,8,Yesenia Valdez,Edinburg,55.97,120.2,49.9,136.08,306.17,Single-ply,SBD,F
Girls,56.02,9,Jenacy Avitia,Donna North,55.88,106.59,65.77,127.01,299.37,Single-ply,SBD,F
Girls,56.02,10,Veronica Alanis,Edinburg,55.7,104.33,58.97,122.47,285.76,Single-ply,SBD,F
Girls,56.02,11,Stephanie Gonzalez,Hidalgo Early College,52.62,138.35,68.04,68.04,274.42,Single-ply,SBD,F
Girls,56.02,12,Danille Rocha,Donna North,55.7,102.06,61.23,111.13,274.42,Single-ply,SBD,F
Girls,56.02,13,Odalys Alvarado,PSJA,55.25,99.79,58.97,113.4,272.16,Single-ply,SBD,F
Girls,56.02,14,Alissa Reyna,La Joya,54.88,111.13,47.63,88.45,247.21,Single-ply,SBD,F
Girls,56.02,15,Brianna Sanchez,PSJA Memorial,56.02,92.99,52.16,102.06,247.21,Single-ply,SBD,F
Girls,56.02,16,Brianna Gutierrez,Mercedes,54.16,92.99,36.29,99.79,229.06,Single-ply,SBD,F
Girls,56.02,17,Jannay Garcia,Mercedes,55.25,88.45,38.56,92.99,219.99,Single-ply,SBD,F
Girls,56.02,18,Mercedes Hernandez,PSJA Memorial,55.97,68.04,38.56,81.65,188.24,Single-ply,SBD,F
Girls,56.02,19,Clariss Guel,Edinburg Economedes,55.25,61.23,34.02,77.11,172.37,Single-ply,SBD,F
Girls,56.02,DQ,Miranda Barraza,Edinburg,54.52,,,,,Single-ply,SBD,F
Girls,56.02,DQ,Genesis Reyes,PSJA,56.02,,,,,Single-ply,SBD,F
Girls,56.02,DQ,Stacy Ozuna,La Joya Palmview,54.34,,,,,Single-ply,SBD,F
Girls,56.02,DQ,Jacqueline Escobar,PSJA North,53.34,106.59,,,,Single-ply,SBD,F
Girls,60.1,1,Estefany Gonzalez,Mission,59.96,165.56,65.77,138.35,369.68,Single-ply,SBD,F
Girls,60.1,2,Corina Yanez,Donna,56.34,149.69,61.23,129.27,340.19,Single-ply,SBD,F
Girls,60.1,3,Dalila Sanchez,Donna North,60.06,140.61,58.97,133.81,333.39,Single-ply,SBD,F
Girls,60.1,4,Katherine Hernandez,PSJA North,57.33,124.74,61.23,140.61,326.59,Single-ply,SBD,F
Girls,60.1,5,Destini Tomas,Donna,59.33,136.08,74.84,115.67,326.59,Single-ply,SBD,F
Girls,60.1,6,Pina Ovalle,PSJA,59.69,115.67,65.77,145.15,326.59,Single-ply,SBD,F
Girls,60.1,7,Jiulda Villalobos,Hidalgo Early College,57.7,142.88,68.04,111.13,322.05,Single-ply,SBD,F
Girls,60.1,8,Jessica Luna,Mission,59.42,131.54,43.09,140.61,315.25,Single-ply,SBD,F
Girls,60.1,9,Pamela Arce,Edinburg,59.06,104.33,72.57,115.67,292.57,Single-ply,SBD,F
Girls,60.1,10,Abriana Luna,San Benito,59.15,102.06,65.77,124.74,292.57,Single-ply,SBD,F
Girls,60.1,11,Veida Gonzalez,La Joya,59.15,111.13,45.36,117.93,274.42,Single-ply,SBD,F
Girls,60.1,12,Susan Jaramillo,PSJA Memorial,57.52,104.33,45.36,106.59,256.28,Single-ply,SBD,F
Girls,60.1,13,Emily Montemayor,Donna,57.7,90.72,40.82,113.4,244.94,Single-ply,SBD,F
Girls,60.1,14,Elizabeth Leal,Mercedes,56.34,90.72,36.29,102.06,229.06,Single-ply,SBD,F
Girls,60.1,15,Xitlali Cordova,La Joya Juarez-Lincoln,59.6,79.38,38.56,99.79,217.72,Single-ply,SBD,F
Girls,60.1,DQ,Rocio Fuentes,Edinburg North,56.52,70.31,38.56,,,Single-ply,SBD,F
Girls,60.1,DQ,Cassandra Perez,San Benito,56.79,,,,,Single-ply,SBD,F
Girls,60.1,DQ,Gloria Batancourt,Hidalgo Early College,59.24,,,,,Single-ply,SBD,F
Girls,67.36,1,Valeria Banda,La Joya Juarez-Lincoln,63.5,170.1,79.38,163.29,412.77,Single-ply,SBD,F
Girls,67.36,2,Denice Acosta,San Benito,65.32,151.95,74.84,154.22,381.02,Single-ply,SBD,F
Girls,67.36,3,Karen Martinez,Donna,64.86,165.56,63.5,136.08,365.14,Single-ply,SBD,F
Girls,67.36,4,Lisbeth Gonzalez,San Benito,64.32,142.88,68.04,147.42,358.34,Single-ply,SBD,F
Girls,67.36,5,Alexis Tamez,Weslaco,65.23,154.22,65.77,136.08,356.07,Single-ply,SBD,F
Girls,67.36,6,Amanda Olivarez,Donna North,64.77,140.61,68.04,124.74,333.39,Single-ply,SBD,F
Girls,67.36,7,Frida Olarte,Hidalgo Early College,66.5,138.35,63.5,120.2,322.05,Single-ply,SBD,F
Girls,67.36,8,Jenneth Perez,Weslaco,65.32,131.54,54.43,127.01,312.98,Single-ply,SBD,F
Girls,67.36,9,Stephane Cantu,San Benito,64.86,127.01,70.31,113.4,310.71,Single-ply,SBD,F
Girls,67.36,10,Jazmine Salinas,Mercedes,64.14,142.88,52.16,113.4,308.44,Single-ply,SBD,F
Girls,67.36,11,Kassidy Sanchez,Mercedes,60.87,120.2,52.16,131.54,303.91,Single-ply,SBD,F
Girls,67.36,12,Ashley Mireles,La Joya,67.22,124.74,61.23,115.67,301.64,Single-ply,SBD,F
Girls,67.36,13,Azanett Nieto,PSJA Southwest,67.31,122.47,65.77,113.4,301.64,Single-ply,SBD,F
Girls,67.36,14,Victoria Torres,Sharyland Pioneer,61.51,129.27,63.5,104.33,297.1,Single-ply,SBD,F
Girls,67.36,15,Mireya Martinez,PSJA Memorial,62.78,115.67,63.5,117.93,297.1,Single-ply,SBD,F
Girls,67.36,16,Dinora Reya,La Joya,63.23,115.67,49.9,111.13,276.69,Single-ply,SBD,F
Girls,67.36,17,Denise Godinez,PSJA,65.95,106.59,52.16,99.79,258.55,Single-ply,SBD,F
Girls,67.36,18,Keiry Miller,PSJA North,65.05,102.06,40.82,113.4,256.28,Single-ply,SBD,F
Girls,67.36,19,Crusita Pina,PSJA Southwest,60.6,90.72,52.16,102.06,244.94,Single-ply,SBD,F
Girls,67.36,20,Laura Flores,Edinburg Economedes,60.87,77.11,52.16,97.52,226.8,Single-ply,SBD,F
Girls,67.36,21,Desirrae Cuellar,Edinburg North,63.41,77.11,45.36,97.52,219.99,Single-ply,SBD,F
Girls,67.36,22,Alyssa Gonzalez,Santa Rosa,61.14,81.65,29.48,81.65,192.78,Single-ply,SBD,F
Girls,67.36,DQ,Alisha Galvan,Santa Rosa,65.05,,,,,Single-ply,SBD,F
Girls,67.36,DQ,Carla De Leon,PSJA Memorial,61.69,,,,,Single-ply,SBD,F
Girls,67.36,DQ,Marisol Sauceda,Edinburg Economedes,64.68,70.31,,,,Single-ply,SBD,F
Girls,67.36,DQ,Christina Ybarra,Sharyland Pioneer,65.32,133.81,63.5,,,Single-ply,SBD,F
Girls,75.07,1,LeAnn Ramirez,San Benito,73.84,176.9,88.45,142.88,408.23,Single-ply,SBD,F
Girls,75.07,2,Janelle Davila,PSJA North,73.94,156.49,88.45,149.69,394.63,Single-ply,SBD,F
Girls,75.07,3,Vanessa Puente,La Joya Palmview,74.75,161.03,65.77,129.27,356.07,Single-ply,SBD,F
Girls,75.07,4,Alex Hernandez,Mercedes,74.84,136.08,63.5,156.49,356.07,Single-ply,SBD,F
Girls,75.07,5,Laura Ortiz,Hidalgo Early College,72.85,138.35,68.04,147.42,353.8,Single-ply,SBD,F
Girls,75.07,6,Marisela Gonzalez,Edinburg,73.84,127.01,81.65,138.35,347,Single-ply,SBD,F
Girls,75.07,7,Alex Bazan #1,La Joya Palmview,74.75,142.88,61.23,138.35,342.46,Single-ply,SBD,F
Girls,75.07,8,Jorja Vela,Edinburg,71.67,136.08,58.97,136.08,331.12,Single-ply,SBD,F
Girls,75.07,9,Nehemia Coronado,La Joya,72.03,145.15,49.9,129.27,324.32,Single-ply,SBD,F
Girls,75.07,10,Heidi Villasenor,Donna,69.22,147.42,58.97,113.4,319.78,Single-ply,SBD,F
Girls,75.07,11,Lucero Regino,Weslaco,73.48,133.81,68.04,113.4,315.25,Single-ply,SBD,F
Girls,75.07,12,Victoria Trevino,PSJA Memorial,72.12,127.01,61.23,124.74,312.98,Single-ply,SBD,F
Girls,75.07,13,Karla Hernandez,Rio Grande City,70.13,108.86,54.43,131.54,294.84,Single-ply,SBD,F
Girls,75.07,14,Arylana Edwards,PSJA Southwest,70.85,95.25,56.7,136.08,288.03,Single-ply,SBD,F
Girls,75.07,15,Maria Abrego,Edinburg,69.04,111.13,45.36,124.74,281.23,Single-ply,SBD,F
Girls,75.07,16,Ashley Pena,PSJA Memorial,70.94,122.47,43.09,115.67,281.23,Single-ply,SBD,F
Girls,75.07,17,Lorena Martinez,Edinburg Economedes,70.67,90.72,63.5,122.47,276.69,Single-ply,SBD,F
Girls,75.07,18,Galilea Fuentes,Weslaco,71.67,117.93,52.16,102.06,272.16,Single-ply,SBD,F
Girls,75.07,19,Lizeth Cavazos,Edinburg North,73.21,106.59,45.36,117.93,269.89,Single-ply,SBD,F
Girls,75.07,20,Samantha Acevedo,Edinburg North,73.3,90.72,40.82,111.13,242.67,Single-ply,SBD,F
Girls,75.07,21,Natalia Marquez,Mercedes,68.58,83.91,38.56,97.52,219.99,Single-ply,SBD,F
Girls,75.07,22,Jory Banda,Edinburg,69.58,104.33,49.9,49.9,204.12,Single-ply,SBD,F
Girls,75.07,23,Marissla Ramos,Edinburg North,68.49,61.23,36.29,77.11,174.63,Single-ply,SBD,F
Girls,75.07,DQ,Arrianna Guerra,Donna,71.03,133.81,,,,Single-ply,SBD,F
Girls,82.33,1,Rose Mary Reyna,San Benito,80.01,158.76,95.25,165.56,419.57,Single-ply,SBD,F
Girls,82.33,2,Avery Coronado,Sharyland Pioneer,79.92,156.49,70.31,163.29,390.09,Single-ply,SBD,F
Girls,82.33,3,Kacie Lopez,Weslaco,78.38,163.29,61.23,142.88,367.41,Single-ply,SBD,F
Girls,82.33,4,Natalie Monjaras,Weslaco,81.01,127.01,77.11,127.01,331.12,Single-ply,SBD,F
Girls,82.33,5,Crystal Hernandez,La Joya Juarez-Lincoln,77.47,136.08,56.7,136.08,328.85,Single-ply,SBD,F
Girls,82.33,6,Victoria Tirado,Weslaco,82.1,122.47,70.31,129.27,322.05,Single-ply,SBD,F
Girls,82.33,7,Nadia Cuellar,Hidalgo Early College,81.83,124.74,54.43,122.47,301.64,Single-ply,SBD,F
Girls,82.33,8,Gabby Aguilera,La Joya,78.93,111.13,49.9,108.86,269.89,Single-ply,SBD,F
Girls,82.33,9,Clarissa Martinez,PSJA,75.3,102.06,58.97,106.59,267.62,Single-ply,SBD,F
Girls,82.33,10,Brandy Navarro,Edinburg,75.57,86.18,54.43,102.06,242.67,Single-ply,SBD,F
Girls,82.33,11,Monica Davila,La Joya Juarez-Lincoln,78.65,83.91,40.82,90.72,215.46,Single-ply,SBD,F
Girls,82.33,12,Julie Rivera,La Villa,82.33,63.5,40.82,77.11,181.44,Single-ply,SBD,F
Girls,82.33,DQ,Crystal Mejia,La Joya,79.47,,,,,Single-ply,SBD,F
Girls,82.33,DQ,Alejandra Gonzalez,Edinburg,81.83,111.13,,,,Single-ply,SBD,F
Girls,82.33,DQ,Adiana Luna,Donna,82.01,,,,,Single-ply,SBD,F
Girls,82.33,DQ,Angela Rendon,Hidalgo Early College,77.11,145.15,,,,Single-ply,SBD,F
Girls,90.04,1,Lupita Hernandez,Weslaco,88.36,163.29,68.04,131.54,362.87,Single-ply,SBD,F
Girls,90.04,2,Destinne Perez,Mercedes,86.18,142.88,56.7,136.08,335.66,Single-ply,SBD,F
Girls,90.04,3,Selena Martinez,Edinburg Economedes,82.74,127.01,56.7,120.2,303.91,Single-ply,SBD,F
Girls,90.04,4,Leslie Palomares,Donna North,87.36,106.59,54.43,120.2,281.23,Single-ply,SBD,F
Girls,90.04,5,Esly Escanuela,Santa Rosa,82.83,113.4,40.82,97.52,251.74,Single-ply,SBD,F
Girls,90.04,DQ,Perla Flores,Edinburg Economedes,87.63,79.38,,,,Single-ply,SBD,F
Girls,90.04,DQ,Jessy Pineda,Sharyland Pioneer,83.37,,,,,Single-ply,SBD,F
Girls,90.04,DQ,Crystal Molar,Sharyland Pioneer,88.54,154.22,68.04,,,Single-ply,SBD,F
Girls,100.02,1,Alexis Delgado,Weslaco,99.43,176.9,97.52,170.1,444.52,Single-ply,SBD,F
Girls,100.02,2,Ashley Tapia,PSJA,98.34,179.17,86.18,176.9,442.25,Single-ply,SBD,F
Girls,100.02,3,Lupita Lerma,San Benito,99.79,190.51,88.45,161.03,439.98,Single-ply,SBD,F
Girls,100.02,4,Jazzmyn Moreno,Donna,98.07,201.85,83.91,145.15,430.91,Single-ply,SBD,F
Girls,100.02,5,Luz Oviedo,PSJA Memorial,98.43,140.61,63.5,131.54,335.66,Single-ply,SBD,F
Girls,100.02,6,Damarys Salazar,Donna North,92.17,140.61,63.5,127.01,331.12,Single-ply,SBD,F
Girls,100.02,7,Martha Reyes,PSJA Southwest,91.17,115.67,70.31,111.13,297.1,Single-ply,SBD,F
Girls,100.02,8,Brianna Campos,La Joya Juarez-Lincoln,96.71,79.38,61.23,111.13,251.74,Single-ply,SBD,F
Girls,100.02,9,Annette Perez,La Villa,92.53,86.18,43.09,88.45,217.72,Single-ply,SBD,F
Girls,100.02,DQ,Britany Rodriguez,San Benito,98.97,,,,,Single-ply,SBD,F
Girls,100.02+,1,Soledad Villarreal,San Benito,116.48,240.4,124.74,174.63,539.77,Single-ply,SBD,F
Girls,100.02+,2,Gaby Portillo,Rio Grande City,118.84,151.95,83.91,136.08,371.95,Single-ply,SBD,F
Girls,100.02+,3,Emma Leyva,PSJA,104.33,170.1,52.16,136.08,358.34,Single-ply,SBD,F
Girls,100.02+,4,Jasmine Sanchez,La Villa,121.11,131.54,72.57,136.08,340.19,Single-ply,SBD,F
Girls,100.02+,5,Amanda Perez,La Villa,104.69,108.86,43.09,88.45,240.4,Single-ply,SBD,F
Girls,100.02+,6,Natasha Ramirez,Edinburg North,101.79,86.18,45.36,97.52,229.06,Single-ply,SBD,F
Girls,100.02+,DQ,Esmeralda Carbajal,Donna,109.23,,,,,Single-ply,SBD,F
Girls,100.02+,DQ,Edna Rodriguez,PSJA North,103.42,,,,,Single-ply,SBD,F
