Division,WeightClassKg,Place,Name,Team,BodyweightKg,Best3SquatKg,Best3BenchKg,Best3DeadliftKg,TotalKg,Equipment,Event,Sex
Girls,44.23,1,Shelby Collett,Hawley,43.86,111.13,58.97,117.93,288.03,Single-ply,SBD,F
Girls,44.23,2,Macy Ramirez,San Diego,44,97.52,45.36,115.67,258.55,Single-ply,SBD,F
Girls,44.23,3,Kaitlin Reyes,Bishop,41.87,104.33,45.36,104.33,254.01,Single-ply,SBD,F
Girls,44.23,4,Taytum Morris,Brady,44.18,88.45,47.63,117.93,254.01,Single-ply,SBD,F
Girls,44.23,5,Valeria Ramirez,Sonora,43.36,95.25,47.63,99.79,242.67,Single-ply,SBD,F
Girls,44.23,6,Myarae Herrera,Cotulla,44.09,90.72,43.09,108.86,242.67,Single-ply,SBD,F
Girls,44.23,7,Jessi Choate,Winnie East Chambers,43.27,102.06,45.36,90.72,238.14,Single-ply,SBD,F
Girls,44.23,8,Sarah Jo Campos,San Diego,43.36,88.45,40.82,108.86,238.14,Single-ply,SBD,F
Girls,44.23,9,Maria Alvarez,Winnie East Chambers,43.73,90.72,38.56,106.59,235.87,Single-ply,SBD,F
Girls,44.23,10,Peyton Allen,Comanche,43.82,90.72,40.82,104.33,235.87,Single-ply,SBD,F
Girls,44.23,11,Chloe Keating,Bells,43.18,90.72,49.9,92.99,233.6,Single-ply,SBD,F
Girls,44.23,12,Kamryn Roman,Edna,43.5,92.99,45.36,95.25,233.6,Single-ply,SBD,F
Girls,44.23,13,Shelby Dodson,Pottsboro,43.27,88.45,40.82,102.06,231.33,Single-ply,SBD,F
Girls,44.23,14,Madison Sullivan,Clyde,43.64,88.45,40.82,102.06,231.33,Single-ply,SBD,F
Girls,44.23,15,Kinsey Persons,Teague,44.18,95.25,40.82,95.25,231.33,Single-ply,SBD,F
Girls,44.23,16,Mayte Arredondo,Whitney,43.09,77.11,36.29,113.4,226.8,Single-ply,SBD,F
Girls,44.23,17,Deya Marquez,Big Lake Reagan County,44,90.72,36.29,99.79,226.8,Single-ply,SBD,F
Girls,44.23,18,Andrea Waggoner,George West,44.23,86.18,40.82,92.99,219.99,Single-ply,SBD,F
Girls,44.23,19,Shelby Jenkins,Hebbronville,40.78,86.18,43.09,86.18,215.46,Single-ply,SBD,F
Girls,44.23,NS,Ashley Griffin,Whitesboro,,,,,,Single-ply,SBD,F
Girls,44.23,DQ,Brittany Trevino,San Diego,42.27,102.06,,,,Single-ply,SBD,F
Girls,44.23,DQ,Alyssa Mathews,White Oak,44.18,,,,,Single-ply,SBD,F
Girls,47.85,1,Kailee Hansmire,Comanche,47.67,102.06,63.5,136.08,301.64,Single-ply,SBD,F
Girls,47.85,2,Elma Lopez,San Diego,47.36,117.93,54.43,127.01,299.37,Single-ply,SBD,F
Girls,47.85,3,Jasmine Vasquez,Natalia,47.58,113.4,47.63,129.27,290.3,Single-ply,SBD,F
Girls,47.85,4,Reagan Chapman,Hawley,47.76,120.2,68.04,102.06,290.3,Single-ply,SBD,F
Girls,47.85,5,Desiree Wiggins,Blooming Grove,47.54,108.86,56.7,122.47,288.03,Single-ply,SBD,F
Girls,47.85,6,Katelyn Shaver,Stockdale,45.5,106.59,49.9,129.27,285.76,Single-ply,SBD,F
Girls,47.85,7,Kayla Hale,Kemp,46.58,108.86,54.43,108.86,272.16,Single-ply,SBD,F
Girls,47.85,8,Bianca Cruz,Mathis,47.26,92.99,49.9,124.74,267.62,Single-ply,SBD,F
Girls,47.85,9,Terilyn Bufkin,Whitesboro,47.76,90.72,49.9,117.93,258.55,Single-ply,SBD,F
Girls,47.85,10,Tianna Sanchez,Ballinger,47.17,102.06,45.36,106.59,254.01,Single-ply,SBD,F
Girls,47.85,11,Kylie Robinson,Bowie,46.77,79.38,40.82,117.93,238.14,Single-ply,SBD,F
Girls,47.85,12,Kamryn Johnson,Edna,46.27,97.52,34.02,99.79,231.33,Single-ply,SBD,F
Girls,47.85,13,Elizabeth Pettit,Bangs,46.27,74.84,43.09,108.86,226.8,Single-ply,SBD,F
Girls,47.85,14,Kelsey Lopez,Van Vleck,46.86,81.65,43.09,99.79,224.53,Single-ply,SBD,F
Girls,47.85,DQ,Michaela Orr,Winnsboro,46.67,,,,,Single-ply,SBD,F
Girls,47.85,DQ,Tara Strohl,Clyde,47.81,,,,,Single-ply,SBD,F
Girls,47.85,DQ,Destiny Gonzalez,Hebbronville,47.54,,,,,Single-ply,SBD,F
Girls,51.94,1,Zoe Gonzales,Big Lake Reagan County,51.48,147.42,72.57,145.15,365.14,Single-ply,SBD,F
Girls,51.94,2,Maci Brewer,Hawley,51.66,145.15,72.57,133.81,351.53,Single-ply,SBD,F
Girls,51.94,3,Kymberly Bolden,Little River Academy,51.26,106.59,68.04,138.35,312.98,Single-ply,SBD,F
Girls,51.94,4,Tarah Perales,San Diego,51.44,117.93,56.7,129.27,303.91,Single-ply,SBD,F
Girls,51.94,5,Thalia Garcia,Cotulla,51.26,117.93,52.16,131.54,301.64,Single-ply,SBD,F
Girls,51.94,6,Raquel Morado,Brady,51.75,117.93,52.16,127.01,297.1,Single-ply,SBD,F
Girls,51.94,7,Heather DeLeon,Mathis,49.4,111.13,63.5,120.2,294.84,Single-ply,SBD,F
Girls,51.94,8,Courtney Dillard,Hawley,50.48,113.4,58.97,122.47,294.84,Single-ply,SBD,F
Girls,51.94,9,Samantha Gonzalez,Lamesa,50.26,106.59,52.16,131.54,290.3,Single-ply,SBD,F
Girls,51.94,10,Gabby Gonzalez,Hebbronville,51.62,99.79,38.56,147.42,285.76,Single-ply,SBD,F
Girls,51.94,11,Liz Hernandez,Rogers,51.17,106.59,45.36,131.54,283.5,Single-ply,SBD,F
Girls,51.94,12,Pashence Barrera,Moody,51.89,111.13,61.23,108.86,281.23,Single-ply,SBD,F
Girls,51.94,13,Diannalisa Davila,Kermit,51.75,113.4,52.16,113.4,278.96,Single-ply,SBD,F
Girls,51.94,14,Julie Lopez,San Antonio Brooks Academy,51.48,106.59,45.36,122.47,274.42,Single-ply,SBD,F
Girls,51.94,15,Judi Carter,Whitesboro,51.57,106.59,49.9,117.93,274.42,Single-ply,SBD,F
Girls,51.94,16,Sissy Martinez,Palacios,51.26,104.33,56.7,102.06,263.08,Single-ply,SBD,F
Girls,51.94,17,Sierra Patterson,Commerce,51.48,117.93,43.09,97.52,258.55,Single-ply,SBD,F
Girls,51.94,18,Kali Mendez,Sonora,51.57,92.99,47.63,111.13,251.74,Single-ply,SBD,F
Girls,51.94,19,Courtney Sackett,Vanderbilt Industrial,51.75,97.52,38.56,111.13,247.21,Single-ply,SBD,F
Girls,51.94,20,Mikela Beck,Paradise,50.26,97.52,47.63,92.99,238.14,Single-ply,SBD,F
Girls,51.94,NS,Yasmin Chavez,Winnie East Chambers,,,,,,Single-ply,SBD,F
Girls,51.94,DQ,Chick Johnson,New Boston,49.9,120.2,54.43,,,Single-ply,SBD,F
Girls,56.02,1,Kassandra Garcia,San Diego,55.29,149.69,68.04,149.69,367.41,Single-ply,SBD,F
Girls,56.02,2,Carlee Pitcher,Hawley,55.16,151.95,77.11,136.08,365.14,Single-ply,SBD,F
Girls,56.02,3,Elizabeth Cantu,Hebbronville,55.57,147.42,72.57,136.08,356.07,Single-ply,SBD,F
Girls,56.02,4,Townsend Jambor,Sadler S & S Cons,55.79,136.08,61.23,154.22,351.53,Single-ply,SBD,F
Girls,56.02,5,Leighan Allen,Hawley,55.47,129.27,72.57,129.27,331.12,Single-ply,SBD,F
Girls,56.02,6,Alex Rivera,Brady,55.07,129.27,61.23,138.35,328.85,Single-ply,SBD,F
Girls,56.02,7,April Fowler,Rogers,55.38,133.81,63.5,113.4,310.71,Single-ply,SBD,F
Girls,56.02,8,Chantel Cerna,Hebbronville,55.16,127.01,52.16,129.27,308.44,Single-ply,SBD,F
Girls,56.02,9,Annalisa Perez,Sonora,54.98,133.81,58.97,111.13,303.91,Single-ply,SBD,F
Girls,56.02,10,Tiffany Gonzales,Mathis,54.79,120.2,58.97,120.2,299.37,Single-ply,SBD,F
Girls,56.02,11,Madalyn Graham,Salado,55.07,102.06,72.57,124.74,299.37,Single-ply,SBD,F
Girls,56.02,12,Kalee Anderson,Kemp,55.88,120.2,54.43,115.67,290.3,Single-ply,SBD,F
Girls,56.02,13,Nellie Perry,Palacios,55.16,115.67,54.43,113.4,283.5,Single-ply,SBD,F
Girls,56.02,14,Courtney Coker,Millsap,54.88,104.33,54.43,117.93,276.69,Single-ply,SBD,F
Girls,56.02,15,Hannah Daniel,Winnie East Chambers,55.34,102.06,52.16,113.4,267.62,Single-ply,SBD,F
Girls,56.02,NS,Kenzie Martin,Winnsboro,,,,,,Single-ply,SBD,F
Girls,56.02,NS,Sabrina Albury,San Antonio Brooks Academy,,,,,,Single-ply,SBD,F
Girls,56.02,NS,Chelsea Byrd,Floydada,,,,,,Single-ply,SBD,F
Girls,60.1,1,Sierra Paredez,San Angelo Grape Creek,59.19,156.49,74.84,138.35,369.68,Single-ply,SBD,F
Girls,60.1,2,Madison Slaughter,Whitesboro,59.69,142.88,83.91,136.08,362.87,Single-ply,SBD,F
Girls,60.1,3,Savanah Hunter,Palacios,59.19,129.27,81.65,136.08,347,Single-ply,SBD,F
Girls,60.1,4,Sam Pena,Hebbronville,59.19,138.35,65.77,140.61,344.73,Single-ply,SBD,F
Girls,60.1,5,Brianna Maldonado,Hebbronville,60.06,149.69,54.43,138.35,342.46,Single-ply,SBD,F
Girls,60.1,6,Esperanza Delgado,Jourdanton,58.88,149.69,61.23,129.27,340.19,Single-ply,SBD,F
Girls,60.1,7,Mia Casas,Freer,60.06,131.54,63.5,142.88,337.93,Single-ply,SBD,F
Girls,60.1,8,Chablis Barber,Daingerfield,59.19,127.01,54.43,145.15,326.59,Single-ply,SBD,F
Girls,60.1,9,Jenna Allen,Hallettsville,58.97,133.81,52.16,136.08,322.05,Single-ply,SBD,F
Girls,60.1,10,Taylor Richey,Bowie,57.88,131.54,54.43,131.54,317.51,Single-ply,SBD,F
Girls,60.1,11,Arcie Polanco,Kermit,59.96,140.61,56.7,115.67,312.98,Single-ply,SBD,F
Girls,60.1,12,Briana Escamilla,Natalia,59.19,113.4,68.04,129.27,310.71,Single-ply,SBD,F
Girls,60.1,13,Jasmine Ruiz,San Antonio Brooks Academy,58.2,129.27,65.77,113.4,308.44,Single-ply,SBD,F
Girls,60.1,14,Amanda King,McGregor,58.69,117.93,54.43,122.47,294.84,Single-ply,SBD,F
Girls,60.1,15,Ashley Bush,Redwater,58.69,111.13,49.9,117.93,278.96,Single-ply,SBD,F
Girls,60.1,DQ,Angie Morado,Brady,58.88,124.74,,,,Single-ply,SBD,F
Girls,60.1,DQ,Johnna Smith,Hawley,57.56,,,,,Single-ply,SBD,F
Girls,60.1,DQ,Chassity Chambless,Elkhart,59.69,,,,,Single-ply,SBD,F
Girls,60.1,DQ,Alexis Spruell,Commerce,59.96,,,,,Single-ply,SBD,F
Girls,60.1,DQ,Dolly Ortiz,Edna,58.29,122.47,,,,Single-ply,SBD,F
Girls,67.36,1,Angelica Fuentes,Ballinger,66.09,199.58,102.06,163.29,464.93,Single-ply,SBD,F
Girls,67.36,2,Dannie Baughman,San Angelo Grape Creek,63.68,199.58,70.31,140.61,410.5,Single-ply,SBD,F
Girls,67.36,3,Jubilee Flores,Dilley,64.09,147.42,79.38,154.22,381.02,Single-ply,SBD,F
Girls,67.36,4,Deanna Walterscheid,Paradise,65.68,147.42,68.04,154.22,369.68,Single-ply,SBD,F
Girls,67.36,5,Caley Jackson,Karnes City,66.5,140.61,65.77,163.29,369.68,Single-ply,SBD,F
Girls,67.36,6,Meghan Bowling,White Oak,65.5,145.15,77.11,142.88,365.14,Single-ply,SBD,F
Girls,67.36,7,Ashley Romero,Jourdanton,66.86,158.76,68.04,136.08,362.87,Single-ply,SBD,F
Girls,67.36,8,Tabitha Alvarado,Bishop,66.22,142.88,65.77,151.95,360.61,Single-ply,SBD,F
Girls,67.36,9,Savannah Crowe,Whitesboro,65.68,136.08,70.31,145.15,351.53,Single-ply,SBD,F
Girls,67.36,10,Abigail Ramirez,Winnsboro,66.5,147.42,61.23,136.08,344.73,Single-ply,SBD,F
Girls,67.36,11,Amber Rangel,Poth,64.27,133.81,70.31,138.35,342.46,Single-ply,SBD,F
Girls,67.36,12,Ashlyn Wilkerson,Whitney,66.59,136.08,58.97,145.15,340.19,Single-ply,SBD,F
Girls,67.36,13,Kayla Feliciano,Poth,64.18,142.88,65.77,129.27,337.93,Single-ply,SBD,F
Girls,67.36,14,Lana Ledford,Troup,65.77,129.27,52.16,149.69,331.12,Single-ply,SBD,F
Girls,67.36,15,Syrena Robles,Lamesa,61.6,136.08,56.7,127.01,319.78,Single-ply,SBD,F
Girls,67.36,16,Brianna Pavatt,Kemp,64.09,127.01,54.43,138.35,319.78,Single-ply,SBD,F
Girls,67.36,17,Haley Wood,Vanderbilt Industrial,66.27,117.93,58.97,133.81,310.71,Single-ply,SBD,F
Girls,67.36,18,Karina Ramon,Palacios,65.5,124.74,58.97,122.47,306.17,Single-ply,SBD,F
Girls,67.36,DQ,Lucy Coursey,Waco Reicher Catholic,66.68,136.08,54.43,,,Single-ply,SBD,F
Girls,67.36,DQ,Ashley Brown,Mount Vernon,65.27,,,,,Single-ply,SBD,F
Girls,67.36,DQ,Natalie Barrera,Bishop,67.36,,,,,Single-ply,SBD,F
Girls,67.36,DQ,Kameron Warrick,Coleman,67,,,,,Single-ply,SBD,F
Girls,67.36,DQ,Kirby Cooper,Teague,66,,,,,Single-ply,SBD,F
Girls,75.07,1,Del Garza,Hebbronville,73.98,172.37,72.57,181.44,426.38,Single-ply,SBD,F
Girls,75.07,2,Kandice Lopez,Hawley,69.76,170.1,104.33,149.69,424.11,Single-ply,SBD,F
Girls,75.07,3,LesLee Harmon,Winnie East Chambers,73.21,176.9,81.65,163.29,421.84,Single-ply,SBD,F
Girls,75.07,4,TaChrissa Boyd,Daingerfield,67.59,151.95,74.84,158.76,385.55,Single-ply,SBD,F
Girls,75.07,5,Asya'Na Jackson,Corsicana Mildred,68.08,140.61,63.5,181.44,385.55,Single-ply,SBD,F
Girls,75.07,6,Madison Watkins,Ballinger,69.67,154.22,77.11,136.08,367.41,Single-ply,SBD,F
Girls,75.07,7,Becky Morris,Whitesboro,72.26,140.61,65.77,158.76,365.14,Single-ply,SBD,F
Girls,75.07,8,Caitlynn Cordova,Jourdanton,73.26,145.15,70.31,142.88,358.34,Single-ply,SBD,F
Girls,75.07,9,Brittany Daniels,Commerce,73.07,156.49,56.7,142.88,356.07,Single-ply,SBD,F
Girls,75.07,10,Kaylin Miller,Whitesboro,71.08,129.27,65.77,147.42,342.46,Single-ply,SBD,F
Girls,75.07,11,Carmen Soto,White Oak,73.89,142.88,61.23,136.08,340.19,Single-ply,SBD,F
Girls,75.07,12,Michelle Gonzales,Brady,73.48,127.01,65.77,145.15,337.93,Single-ply,SBD,F
Girls,75.07,13,Marina Sanchez,Brady,73.66,133.81,49.9,151.95,335.66,Single-ply,SBD,F
Girls,75.07,14,Alexis Ayala #1,Lamesa,73.98,142.88,63.5,127.01,333.39,Single-ply,SBD,F
Girls,75.07,15,Hayley Ancinec,Clyde,74.03,129.27,70.31,133.81,333.39,Single-ply,SBD,F
Girls,75.07,16,Julissa Esquivel,Sonora,70.76,140.61,56.7,133.81,331.12,Single-ply,SBD,F
Girls,75.07,17,Elida Sarmiento,Corrigan-Camden,69.9,120.2,52.16,142.88,315.25,Single-ply,SBD,F
Girls,75.07,DQ,Siera Grisham,Hawley,72.17,,,,,Single-ply,SBD,F
Girls,75.07,DQ,Marisela Alaniz,Karnes City,74.16,138.35,,,,Single-ply,SBD,F
Girls,82.33,1,Jolyn Zarate,Coleman,79.47,174.63,79.38,161.03,415.04,Single-ply,SBD,F
Girls,82.33,2,Whitney Kitchen,Hawley,82.19,181.44,90.72,142.88,415.04,Single-ply,SBD,F
Girls,82.33,3,Taylor Curlee,Little River Academy,81.56,163.29,88.45,140.61,392.36,Single-ply,SBD,F
Girls,82.33,4,Kamrie Martinez,Sonora,81.37,172.37,63.5,145.15,381.02,Single-ply,SBD,F
Girls,82.33,5,Amanda Stiles,Florence,78.38,154.22,81.65,129.27,365.14,Single-ply,SBD,F
Girls,82.33,6,Bernice Cabrera,Anahuac,75.98,129.27,77.11,147.42,353.8,Single-ply,SBD,F
Girls,82.33,7,Candace Stovall,Altair Rice,79.2,129.27,63.5,158.76,351.53,Single-ply,SBD,F
Girls,82.33,8,Deondra Dowell,Malakoff,81.37,129.27,68.04,154.22,351.53,Single-ply,SBD,F
Girls,82.33,9,Karlie Kounce,Crane,77.38,147.42,65.77,136.08,349.27,Single-ply,SBD,F
Girls,82.33,10,Mikayla Pokorny,Whitesboro,75.66,127.01,63.5,156.49,347,Single-ply,SBD,F
Girls,82.33,11,Alyssa Garcia,San Diego,79.7,138.35,56.7,145.15,340.19,Single-ply,SBD,F
Girls,82.33,12,Belle Gomez,Clyde,76.93,138.35,61.23,138.35,337.93,Single-ply,SBD,F
Girls,82.33,13,Sarai Coronado,Olton,80.47,129.27,56.7,147.42,333.39,Single-ply,SBD,F
Girls,82.33,14,Brenttany Birdow,Hitchcock,75.98,136.08,40.82,154.22,331.12,Single-ply,SBD,F
Girls,82.33,15,Vanessa McNiel,Blooming Grove,77.66,133.81,54.43,140.61,328.85,Single-ply,SBD,F
Girls,82.33,16,Kaylen Jowitt,Whitesboro,76.57,113.4,56.7,127.01,297.1,Single-ply,SBD,F
Girls,82.33,DQ,Taylor Medina #1,Alpine,82.05,,,,,Single-ply,SBD,F
Girls,90.04,1,Jazmine Jones,Cameron Yoe,89.27,199.58,86.18,188.24,474,Single-ply,SBD,F
Girls,90.04,2,Marisol Palacios,Poth,88.5,210.92,88.45,161.03,460.4,Single-ply,SBD,F
Girls,90.04,3,Rebecca Simpson,Ballinger,89.77,185.97,77.11,181.44,444.52,Single-ply,SBD,F
Girls,90.04,4,Janie Carrillo,San Diego,85.18,165.56,58.97,147.42,371.95,Single-ply,SBD,F
Girls,90.04,5,Enriqueta Cruz,Palacios,87.68,147.42,70.31,145.15,362.87,Single-ply,SBD,F
Girls,90.04,6,Kristy Burton,Waco Reicher Catholic,87.36,149.69,77.11,129.27,356.07,Single-ply,SBD,F
Girls,90.04,7,Aimee Rodriguez,White Oak,84.37,142.88,63.5,140.61,347,Single-ply,SBD,F
Girls,90.04,8,McKenzie Crossland,Leonard,82.87,129.27,56.7,133.81,319.78,Single-ply,SBD,F
Girls,90.04,DQ,Karla Esquivel,Big Lake Reagan County,87.77,,,,,Single-ply,SBD,F
Girls,90.04,DQ,Andrianna Hill,Daingerfield,82.42,,,,,Single-ply,SBD,F
Girls,90.04,DQ,Charva Harris,Dallas Life Oak Cliff,87,,,,,Single-ply,SBD,F
Girls,90.04,DQ,Laura Garcia,Edna,89.09,142.88,,,,Single-ply,SBD,F
Girls,90.04,DQ,Shaylia Bisby,Refugio,87.59,,,,,Single-ply,SBD,F
Girls,100.02,1,Priscilla Perez,San Antonio Brooks Academy,96.89,183.7,99.79,165.56,449.06,Single-ply,SBD,F
Girls,100.02,2,Lexi Helzer,Hawley,99.79,192.78,117.93,138.35,449.06,Single-ply,SBD,F
Girls,100.02,3,Sam Rossi,Hebbronville,98.29,190.51,81.65,165.56,437.72,Single-ply,SBD,F
Girls,100.02,4,Harley Weber,Hawley,95.57,181.44,111.13,136.08,428.64,Single-ply,SBD,F
Girls,100.02,5,Valerie Buchanan,Wichita Falls City View,96.62,176.9,65.77,161.03,403.7,Single-ply,SBD,F
Girls,100.02,6,Lucita Rodriguez,Winnie East Chambers,97.98,142.88,90.72,149.69,383.29,Single-ply,SBD,F
Girls,100.02,7,Sydney Robins,Bruceville-Eddy,98.25,156.49,70.31,154.22,381.02,Single-ply,SBD,F
Girls,100.02,8,Sunni Goodell,Eustace,96.43,149.69,79.38,149.69,378.75,Single-ply,SBD,F
Girls,100.02,9,Victoria Pena,Freer,97.7,142.88,81.65,133.81,358.34,Single-ply,SBD,F
Girls,100.02,10,Ana Gonzalez,Palacios,96.98,136.08,72.57,142.88,351.53,Single-ply,SBD,F
Girls,100.02,11,Cydney Crawford,New Boston,98.47,136.08,74.84,127.01,337.93,Single-ply,SBD,F
Girls,100.02,12,Tenasha Ballard,Leonard,96.8,138.35,68.04,127.01,333.39,Single-ply,SBD,F
Girls,100.02,DQ,Angela Rost,McGregor,94.89,,,,,Single-ply,SBD,F
Girls,100.02,DQ,Ty'eesha Dawkins,Palestine Westwood,98.66,,,,,Single-ply,SBD,F
Girls,100.02,DQ,Alexis Tackett,Paris Chisum,98.79,,,,,Single-ply,SBD,F
Girls,100.02,DQ,Keisha Natera,Alpine,94.48,,,,,Single-ply,SBD,F
Girls,100.02,DQ,Kristin Dean,Troup,99.29,,,,,Single-ply,SBD,F
Girls,100.02+,1,Raven Paul,Frankston,125.74,219.99,124.74,195.04,539.77,Single-ply,SBD,F
Girls,100.02+,2,Jeana Castro,San Angelo Grape Creek,117.16,226.8,115.67,174.63,517.1,Single-ply,SBD,F
Girls,100.02+,3,Linsey Reyna,Wichita Falls City View,153.04,206.38,106.59,183.7,496.68,Single-ply,SBD,F
Girls,100.02+,4,Claudia Avila,Hebbronville,131.27,233.6,88.45,170.1,492.15,Single-ply,SBD,F
Girls,100.02+,5,Shelbie Long,Florence,103.69,181.44,111.13,176.9,469.47,Single-ply,SBD,F
Girls,100.02+,6,Lelani Faleafa,Lago Vista,106.68,197.31,83.91,181.44,462.66,Single-ply,SBD,F
Girls,100.02+,7,Cassandra Soto,Skidmore-Tynan,110.59,163.29,90.72,167.83,421.84,Single-ply,SBD,F
Girls,100.02+,8,Brianna Hatcher,Dublin,112.26,158.76,88.45,161.03,408.23,Single-ply,SBD,F
Girls,100.02+,9,Makayla Torres,San Angelo Grape Creek,110.18,172.37,68.04,165.56,405.97,Single-ply,SBD,F
Girls,100.02+,10,Shermeka Thompson,Edna,103.69,156.49,70.31,170.1,396.89,Single-ply,SBD,F
Girls,100.02+,11,Sara Hodges,Little River Academy,113.76,158.76,79.38,149.69,387.82,Single-ply,SBD,F
Girls,100.02+,12,Megan Perez,Bishop,122.97,154.22,79.38,149.69,383.29,Single-ply,SBD,F
Girls,100.02+,13,Mikala James,Edna,108.5,165.56,70.31,142.88,378.75,Single-ply,SBD,F
Girls,100.02+,14,Taylor Metz,Bells,140.57,136.08,70.31,156.49,362.87,Single-ply,SBD,F
Girls,100.02+,DQ,Hannah Wall,Ore City,129.36,,,,,Single-ply,SBD,F
