Division,WeightClassKg,Place,Name,Team,BodyweightKg,Best3SquatKg,Best3BenchKg,Best3DeadliftKg,TotalKg,Equipment,Event,Sex,BirthDate
Boys,51.71,1,Mattox Evans,Big Spring,51.57,115.67,68.04,147.42,331.12,Single-ply,SBD,M,
Boys,51.71,2,Jorge De Santiago,Andrews,50.35,106.59,61.23,117.93,285.76,Single-ply,SBD,M,
Boys,51.71,3,Carter Biggs,Midland Greenwood,49.08,79.38,40.82,95.25,215.46,Single-ply,SBD,M,
Boys,55.79,1,Ivan Zamora,Andrews,55.16,149.69,77.11,163.29,390.09,Single-ply,SBD,M,
Boys,55.79,2,Cruz Martinez,Big Spring,55.79,154.22,79.38,151.95,385.55,Single-ply,SBD,M,
Boys,55.79,3,Luis Chavez,Andrews,54.52,92.99,52.16,120.2,265.35,Single-ply,SBD,M,
Boys,55.79,4,Patricio Garcia,Brownfield,52.75,92.99,52.16,83.91,229.06,Single-ply,SBD,M,
Boys,59.87,1,Kenny Richardson,Big Spring,59.47,145.15,92.99,147.42,385.55,Single-ply,SBD,M,
Boys,59.87,2,Ryan Gamez,Brownfield,57.38,127.01,72.57,129.27,328.85,Single-ply,SBD,M,
Boys,59.87,3,Connor Andrae,Big Spring,56.88,102.06,63.5,131.54,297.1,Single-ply,SBD,M,
Boys,67.13,1,Lucas Esparza,Andrews,66.59,208.65,117.93,206.38,532.97,Single-ply,SBD,M,
Boys,67.13,2,Devin Mora,Andrews,66.22,215.46,120.2,190.51,526.17,Single-ply,SBD,M,
Boys,67.13,3,Isaac Estrada,Odessa,60.15,204.12,117.93,181.44,503.49,Single-ply,SBD,M,
Boys,67.13,4,Shawn Mendoza,Big Spring,66.63,197.31,115.67,185.97,498.95,Single-ply,SBD,M,
Boys,67.13,5,Josh Lopez,Big Spring,60.37,179.17,104.33,208.65,492.15,Single-ply,SBD,M,
Boys,67.13,6,Jermiah Collins,Big Spring,65.68,165.56,88.45,183.7,437.72,Single-ply,SBD,M,
Boys,67.13,7,Slade Edwards,Seminole,67.09,158.76,97.52,158.76,415.04,Single-ply,SBD,M,
Boys,67.13,8,Aaron Morales,Odessa Permian,63.19,151.95,86.18,142.88,381.02,Single-ply,SBD,M,
Boys,67.13,9,George Wagner,Andrews,65.09,136.08,81.65,161.03,378.75,Single-ply,SBD,M,
Boys,67.13,10,Daniel Montano,Andrews,66.95,131.54,65.77,176.9,374.21,Single-ply,SBD,M,
Boys,67.13,11,Sonny Ledesma,Big Spring,65.18,122.47,70.31,145.15,337.93,Single-ply,SBD,M,
Boys,67.13,12,Teagan Marlowe,Midland,60.87,136.08,68.04,124.74,328.85,Single-ply,SBD,M,
Boys,67.13,13,Aragorn Guerrero,Andrews,63.64,124.74,61.23,142.88,328.85,Single-ply,SBD,M,
Boys,67.13,14,Denys Stokes,Midland,60.74,108.86,70.31,136.08,315.25,Single-ply,SBD,M,
Boys,67.13,15,Birdie Verdugo,Seminole,63,108.86,65.77,124.74,299.37,Single-ply,SBD,M,
Boys,67.13,16,Dillon Martinez,Brownfield,67.13,111.13,68.04,117.93,297.1,Single-ply,SBD,M,
Boys,67.13,17,Leroy Johnson,Big Spring,60.55,102.06,63.5,124.74,290.3,Single-ply,SBD,M,
Boys,67.13,18,Lane Bundy,Brownfield,64.46,108.86,61.23,120.2,290.3,Single-ply,SBD,M,
Boys,67.13,19,Eden Hernandez,Brownfield,65.18,90.72,81.65,115.67,288.03,Single-ply,SBD,M,
Boys,67.13,20,Austin Gunnels,Brownfield,66.59,95.25,61.23,124.74,281.23,Single-ply,SBD,M,
Boys,67.13,21,Phillip Martinez,Big Spring,61.78,95.25,61.23,117.93,274.42,Single-ply,SBD,M,
Boys,67.13,22,Julio Quintero,Denver City,66.32,86.18,47.63,111.13,244.94,Single-ply,SBD,M,
Boys,74.84,1,Christian Valles,Andrews,70.58,217.72,122.47,231.33,571.53,Single-ply,SBD,M,
Boys,74.84,2,Devin Doerksen,Seminole,74.71,208.65,108.86,206.38,523.9,Single-ply,SBD,M,
Boys,74.84,3,Eric Cuellar,Andrews,73.8,192.78,95.25,226.8,514.83,Single-ply,SBD,M,
Boys,74.84,4,Aaron Salazar,Seminole,73.07,179.17,111.13,172.37,462.66,Single-ply,SBD,M,
Boys,74.84,5,Gabriel Zubiate,Seminole,72.12,190.51,81.65,172.37,444.52,Single-ply,SBD,M,
Boys,74.84,6,Dusty Chavez,Big Spring,69.31,154.22,97.52,190.51,442.25,Single-ply,SBD,M,
Boys,74.84,7,Alejandro Diaz,Odessa,74.3,158.76,97.52,176.9,433.18,Single-ply,SBD,M,
Boys,74.84,8,James Fogle,Odessa,67.4,156.49,90.72,167.83,415.04,Single-ply,SBD,M,
Boys,74.84,9,Thomas Wells,Midland,73.07,156.49,70.31,183.7,410.5,Single-ply,SBD,M,
Boys,74.84,10,Nate Gensler,Brownfield,71.35,147.42,97.52,158.76,403.7,Single-ply,SBD,M,
Boys,74.84,11,Andy Castillo,Odessa Permian,68.04,158.76,83.91,145.15,387.82,Single-ply,SBD,M,
Boys,74.84,12,Karl Karabanoff,Big Spring,70.9,138.35,74.84,167.83,381.02,Single-ply,SBD,M,
Boys,74.84,13,Oscar Ariza,Seminole,68.99,147.42,95.25,136.08,378.75,Single-ply,SBD,M,
Boys,74.84,14,Ivan Trinidad,Denver City,70.72,120.2,99.79,149.69,369.68,Single-ply,SBD,M,
Boys,74.84,15,Francisco Garza,Brownfield,69.99,142.88,79.38,136.08,358.34,Single-ply,SBD,M,
Boys,74.84,16,Uri Garza,Brownfield,70.13,133.81,70.31,154.22,358.34,Single-ply,SBD,M,
Boys,74.84,17,Marcus Melendez,Big Spring,70.31,115.67,68.04,149.69,333.39,Single-ply,SBD,M,
Boys,74.84,18,Javier Garcia #11,Andrews,68.58,113.4,77.11,140.61,331.12,Single-ply,SBD,M,
Boys,74.84,19,Matthew Valenzuela,Andrews,72.3,115.67,68.04,129.27,312.98,Single-ply,SBD,M,
Boys,74.84,20,Jacob Guy,Andrews,73.8,122.47,61.23,124.74,308.44,Single-ply,SBD,M,
Boys,74.84,21,Jose Armendariz,Andrews,73.21,104.33,61.23,138.35,303.91,Single-ply,SBD,M,
Boys,74.84,22,Anthony Salinas,Brownfield,73.71,95.25,52.16,102.06,249.48,Single-ply,SBD,M,
Boys,74.84,DQ,Edward Morin,Brownfield,74.16,,,,,Single-ply,SBD,M,
Boys,74.84,DQ,Jimmy Vasquez,Midland Greenwood,71.71,,,,,Single-ply,SBD,M,
Boys,82.1,1,Jezreel Sanchez-Juarez,Odessa,82.05,235.87,136.08,233.6,605.55,Single-ply,SBD,M,
Boys,82.1,2,Raymond Flores,Andrews,75.21,217.72,120.2,208.65,546.58,Single-ply,SBD,M,
Boys,82.1,3,Tim Avila,Odessa,77.97,204.12,127.01,188.24,519.36,Single-ply,SBD,M,
Boys,82.1,4,Seth Gardea,Midland,75.34,197.31,117.93,183.7,498.95,Single-ply,SBD,M,
Boys,82.1,5,Rogelio Cervantes,Big Spring,82.05,190.51,108.86,195.04,494.42,Single-ply,SBD,M,
Boys,82.1,6,Zion Ward,Midland,77.47,204.12,86.18,183.7,474,Single-ply,SBD,M,
Boys,82.1,7,Isaiah Johnson,Big Spring,80.06,181.44,115.67,161.03,458.13,Single-ply,SBD,M,
Boys,82.1,8,Hunter Manning,Andrews,81.19,179.17,92.99,179.17,451.32,Single-ply,SBD,M,
Boys,82.1,9,Jett Glass,Midland,81.87,158.76,92.99,181.44,433.18,Single-ply,SBD,M,
Boys,82.1,10,Zach Kidd,Midland Greenwood,76.48,163.29,97.52,170.1,430.91,Single-ply,SBD,M,
Boys,82.1,11,Jackson Talley,Midland,79.42,172.37,79.38,161.03,412.77,Single-ply,SBD,M,
Boys,82.1,12,Elijah Gutierrez,Denver City,80.97,170.1,83.91,136.08,390.09,Single-ply,SBD,M,
Boys,82.1,13,Jarod Humphries,Midland Greenwood,76.7,149.69,86.18,147.42,383.29,Single-ply,SBD,M,
Boys,82.1,14,Kevin Rodriguez,Big Spring,81.28,133.81,90.72,151.95,376.48,Single-ply,SBD,M,
Boys,82.1,15,David Garcia,Denver City,78.15,151.95,74.84,138.35,365.14,Single-ply,SBD,M,
Boys,82.1,DQ,Jose Gonzales,Brownfield,76.29,156.49,,,,Single-ply,SBD,M,
Boys,82.1,DQ,Ethan Coleman,Midland Greenwood,81.83,249.48,174.63,,,Single-ply,SBD,M,
Boys,89.81,1,Esau Flores,Andrews,89.09,249.48,151.95,258.55,659.98,Single-ply,SBD,M,
Boys,89.81,2,Justin Gonzales,Andrews,89.63,238.14,147.42,217.72,603.28,Single-ply,SBD,M,
Boys,89.81,3,Kevin Zepeda-Giron,Odessa,85.41,217.72,149.69,192.78,560.19,Single-ply,SBD,M,
Boys,89.81,4,Damon Casarez,Seminole,86.14,219.99,117.93,210.92,548.85,Single-ply,SBD,M,
Boys,89.81,5,Fernando Zapata,Midland Greenwood,82.28,215.46,124.74,195.04,535.24,Single-ply,SBD,M,
Boys,89.81,6,Ra Abdurrazaq,Midland,86.27,181.44,113.4,238.14,532.97,Single-ply,SBD,M,
Boys,89.81,7,Juan Carreon,Odessa,88.86,185.97,124.74,172.37,483.08,Single-ply,SBD,M,
Boys,89.81,8,Alex Wooten,Seminole,86.41,172.37,102.06,172.37,446.79,Single-ply,SBD,M,
Boys,89.81,9,Brandon Castillo,Andrews,87.18,172.37,88.45,165.56,426.38,Single-ply,SBD,M,
Boys,89.81,10,Cole Flora,Andrews,83.73,133.81,95.25,181.44,410.5,Single-ply,SBD,M,
Boys,89.81,11,Oscar Carnero,Andrews,86.91,156.49,90.72,158.76,405.97,Single-ply,SBD,M,
Boys,89.81,12,Arturo Ortiz,Big Spring,86.05,158.76,79.38,161.03,399.16,Single-ply,SBD,M,
Boys,89.81,13,Parker Ragain,Brownfield,83.46,142.88,70.31,174.63,387.82,Single-ply,SBD,M,
Boys,89.81,14,Marquez Garcia,Denver City,85.82,136.08,88.45,136.08,360.61,Single-ply,SBD,M,
Boys,89.81,DQ,Zakeri Gonzalez,Brownfield,83.1,,,,,Single-ply,SBD,M,
Boys,99.79,1,Gary Brooks,Odessa,99.47,319.78,154.22,233.6,707.6,Single-ply,SBD,M,
Boys,99.79,2,Isaiah Rodriguez,Big Spring,99.43,260.82,127.01,240.4,628.23,Single-ply,SBD,M,
Boys,99.79,3,Aaron Olivas,Andrews,94.21,254.01,136.08,201.85,591.94,Single-ply,SBD,M,
Boys,99.79,4,Damian Pena,Denver City,94.03,229.06,138.35,215.46,582.87,Single-ply,SBD,M,
Boys,99.79,5,Petronillo Bustamante,Andrews,91.08,226.8,117.93,197.31,542.04,Single-ply,SBD,M,
Boys,99.79,6,Irvin Delgado,Seminole,99.38,215.46,115.67,199.58,530.7,Single-ply,SBD,M,
Boys,99.79,7,William Payne #3,Odessa Permian,99.06,215.46,131.54,181.44,528.44,Single-ply,SBD,M,
Boys,99.79,8,Jaxon Washington,Seminole,94.12,183.7,111.13,195.04,489.88,Single-ply,SBD,M,
Boys,99.79,9,Mikel Delgado,Midland,96.62,174.63,111.13,183.7,469.47,Single-ply,SBD,M,
Boys,99.79,10,Danny Garza,Brownfield,98.34,181.44,113.4,172.37,467.2,Single-ply,SBD,M,
Boys,99.79,11,Jeremiah Talamantes,Seminole,96.43,190.51,86.18,170.1,446.79,Single-ply,SBD,M,
Boys,99.79,12,Brady Casbeer,Midland Greenwood,98.61,170.1,108.86,165.56,444.52,Single-ply,SBD,M,
Boys,99.79,13,Ryan Joslyn,Big Spring,99.65,172.37,104.33,145.15,421.84,Single-ply,SBD,M,
Boys,99.79,14,Tucker Tippin,Andrews,93.35,142.88,86.18,136.08,365.14,Single-ply,SBD,M,
Boys,99.79,15,Destry Benally,Andrews,90.85,111.13,63.5,136.08,310.71,Single-ply,SBD,M,
Boys,99.79,16,Zayden Morin,Brownfield,90.72,129.27,65.77,102.06,297.1,Single-ply,SBD,M,
Boys,99.79,DQ,D'Angelo Garza,Brownfield,97.3,192.78,102.06,,,Single-ply,SBD,M,
Boys,99.79,DQ,Kesean Dever,Brownfield,97.79,149.69,,,,Single-ply,SBD,M,
Boys,99.79,DQ,Nick Garcia,Denver City,91.17,170.1,113.4,,,Single-ply,SBD,M,
Boys,99.79,DQ,Julian Garcia,Andrews,98.66,131.54,65.77,,,Single-ply,SBD,M,
Boys,109.77,1,Christian Bell,Midland Greenwood,105.51,265.35,170.1,249.48,684.92,Single-ply,SBD,M,
Boys,109.77,2,Jesus Lopez,Andrews,106.59,265.35,170.1,222.26,657.71,Single-ply,SBD,M,
Boys,109.77,3,Joel Estrella,Andrews,107.32,238.14,145.15,235.87,619.15,Single-ply,SBD,M,
Boys,109.77,4,Angel Rodríguez,Odessa,107.82,226.8,158.76,224.53,610.08,Single-ply,SBD,M,
Boys,109.77,5,Chris Correa,Brownfield,105.37,233.6,133.81,208.65,576.06,Single-ply,SBD,M,
Boys,109.77,6,Jesus Trabado,Denver City,102.47,183.7,127.01,167.83,478.54,Single-ply,SBD,M,
Boys,109.77,7,Adrian Salcido,Andrews,105.87,167.83,124.74,151.95,444.52,Single-ply,SBD,M,
Boys,109.77,8,Antonio Garza,Andrews,103.51,172.37,90.72,145.15,408.23,Single-ply,SBD,M,
Boys,109.77,9,Rikter Connally,Seminole,105.51,149.69,99.79,158.76,408.23,Single-ply,SBD,M,
Boys,109.77,10,Rahlei Eddington,Big Spring,100.88,136.08,90.72,158.76,385.55,Single-ply,SBD,M,
Boys,109.77,11,Alejandro Arrando,Brownfield,107.55,102.06,70.31,145.15,317.51,Single-ply,SBD,M,
Boys,124.74,1,Andrew Roberts,Big Spring,123.79,251.74,167.83,215.46,635.03,Single-ply,SBD,M,
Boys,124.74,2,Joaquin Gonzalez,Odessa Permian,113.13,210.92,124.74,192.78,528.44,Single-ply,SBD,M,
Boys,124.74,3,Octavio Caballero,Andrews,111.13,181.44,92.99,195.04,469.47,Single-ply,SBD,M,
Boys,124.74,4,Pancho Corral,Brownfield,119.61,183.7,90.72,192.78,467.2,Single-ply,SBD,M,
Boys,124.74,5,Daveon Walucho,Odessa Permian,117.21,161.03,102.06,172.37,435.45,Single-ply,SBD,M,
Boys,124.74+,1,Kwinton Jennings,Seminole,138.25,272.16,145.15,226.8,644.1,Single-ply,SBD,M,
Boys,124.74+,2,Emilio Dominguez,Odessa,135.13,256.28,158.76,226.8,641.83,Single-ply,SBD,M,
Boys,124.74+,3,Zach Roberts,Big Spring,172.37,233.6,133.81,204.12,571.53,Single-ply,SBD,M,
Boys,124.74+,4,John Martinez-Guedry,Midland,152.86,226.8,117.93,215.46,560.19,Single-ply,SBD,M,
Boys,124.74+,5,Daniel Roberts,Big Spring,128.32,192.78,156.49,190.51,539.77,Single-ply,SBD,M,
Boys,124.74+,6,Sean Castillo,Brownfield,180.53,197.31,111.13,190.51,498.95,Single-ply,SBD,M,
Boys,124.74+,7,Tizoc Suarez,Midland,126.96,190.51,99.79,185.97,476.27,Single-ply,SBD,M,
Boys,124.74+,8,Marties Rogers,Odessa Permian,129.27,181.44,111.13,181.44,474,Single-ply,SBD,M,
Boys,,NS,Parker Gwilliam,Odessa Permian,,,,,,Single-ply,SBD,M,
Boys,,NS,Kaleb Lozano,Odessa,,,,,,Single-ply,SBD,M,
Boys,,NS,Luis Salazar,Brownfield,,,,,,Single-ply,SBD,M,
Boys,,NS,Uriel Rodriguez,Denver City,,,,,,Single-ply,SBD,M,
Boys,,NS,Manny Gonzalez,Denver City,,,,,,Single-ply,SBD,M,
Boys,,NS,William Whitehead,Seminole,,,,,,Single-ply,SBD,M,
Boys,,NS,David Romero,Denver City,,,,,,Single-ply,SBD,M,
Boys,,NS,Adam Velasco,Denver City,,,,,,Single-ply,SBD,M,
Boys,,NS,Ramon Zubiate,Denver City,,,,,,Single-ply,SBD,M,
Boys,,NS,Daniel Alderete,Denver City,,,,,,Single-ply,SBD,M,
Boys,,NS,Brady Digby,Odessa Permian,,,,,,Single-ply,SBD,M,
Boys,,NS,Bradyn Brooks,Odessa Permian,,,,,,Single-ply,SBD,M,
Boys,,NS,Terran Limuel,Odessa Permian,,,,,,Single-ply,SBD,M,
Boys,,NS,Cade Owen,Odessa Permian,,,,,,Single-ply,SBD,M,
Boys,,NS,Blayne Porras,Odessa Permian,,,,,,Single-ply,SBD,M,
Boys,,NS,Ruben Lujan,Odessa Permian,,,,,,Single-ply,SBD,M,
Boys,,NS,Derek Howard,Big Spring,,,,,,Single-ply,SBD,M,
Boys,,NS,Caleb Alexander,Seminole,,,,,,Single-ply,SBD,M,
Boys,,NS,Luke Thibeault,Big Spring,,,,,,Single-ply,SBD,M,
Boys,,NS,John Breeden,Midland Greenwood,,,,,,Single-ply,SBD,M,
Boys,,NS,Ramiro Lopez,Andrews,,,,,,Single-ply,SBD,M,
Boys,,NS,Christian Moreno,Andrews,,,,,,Single-ply,SBD,M,
Boys,,NS,Kenneth Avila,Andrews,,,,,,Single-ply,SBD,M,
