Division,WeightClassKg,Place,Name,Team,BodyweightKg,Best3SquatKg,Best3BenchKg,Best3DeadliftKg,TotalKg,Equipment,Event,Sex,BirthDate
Boys,51.71,1,David Price,College Station A&M Cons,48.08,81.65,45.36,88.45,215.46,Single-ply,SBD,M,
Boys,55.79,1,Tanner Lindsay,Robinson,55.66,122.47,77.11,129.27,328.85,Single-ply,SBD,M,
Boys,59.87,1,Rj Rubio,Bryan Rudder,59.69,181.44,86.18,181.44,449.06,Single-ply,SBD,M,
Boys,59.87,2,Jonathan Hernandez,Robinson,59.78,142.88,90.72,161.03,394.63,Single-ply,SBD,M,
Boys,59.87,3,Houston Scanlin,Bryan Rudder,56.25,117.93,68.04,113.4,299.37,Single-ply,SBD,M,
Boys,67.13,1,Matthew Martin,College Station A&M Cons,65.77,147.42,104.33,154.22,405.97,Single-ply,SBD,M,
Boys,67.13,2,Raymond Finch,Robinson,65.5,142.88,79.38,154.22,376.48,Single-ply,SBD,M,
Boys,67.13,DQ,Henry Aiden,Bryan Rudder,65.77,,,,,Single-ply,SBD,M,
Boys,74.84,1,David May #4,College Station A&M Cons,73.48,206.38,104.33,197.31,508.02,Single-ply,SBD,M,
Boys,74.84,2,Hunter Speasmaker,Robinson,74.75,190.51,120.2,181.44,492.15,Single-ply,SBD,M,
Boys,74.84,3,Malcolm Manley,Bryan Rudder,71.53,174.63,97.52,183.7,455.86,Single-ply,SBD,M,
Boys,74.84,4,Luke Fisher,Robinson,73.12,165.56,104.33,183.7,453.59,Single-ply,SBD,M,
Boys,74.84,5,Tanner Lightsey,College Station A&M Cons,74.84,181.44,77.11,156.49,415.04,Single-ply,SBD,M,
Boys,74.84,6,Lukas Hardy,Bryan Rudder,71.21,147.42,88.45,156.49,392.36,Single-ply,SBD,M,
Boys,74.84,7,Casen Garner,College Station A&M Cons,73.94,142.88,90.72,154.22,387.82,Single-ply,SBD,M,
Boys,74.84,8,Grant Schlinke,College Station A&M Cons,71.67,113.4,63.5,120.2,297.1,Single-ply,SBD,M,
Boys,74.84,DQ,Nick Oliva,Bryan Rudder,70.76,,,,,Single-ply,SBD,M,
Boys,82.1,1,Alvin Dunn,Bryan Rudder,81.78,233.6,133.81,231.33,598.74,Single-ply,SBD,M,
Boys,82.1,2,James Ayers,Bryan Rudder,81.42,233.6,142.88,204.12,580.6,Single-ply,SBD,M,
Boys,82.1,3,Ethan Linder,Robinson,81.01,222.26,131.54,213.19,566.99,Single-ply,SBD,M,
Boys,82.1,4,Logan Sauer,Robinson,81.37,199.58,122.47,197.31,519.36,Single-ply,SBD,M,
Boys,82.1,5,Curtis Hughling,Bruceville-Eddy,77.66,201.85,104.33,199.58,505.76,Single-ply,SBD,M,
Boys,82.1,6,Nathan Quattlebaum,Bruceville-Eddy,75.52,183.7,104.33,183.7,471.74,Single-ply,SBD,M,
Boys,82.1,7,Marcus Diles,Bryan Rudder,81.87,138.35,79.38,158.76,376.48,Single-ply,SBD,M,
Boys,82.1,8,Victor Cabrera,Bryan Rudder,80.29,124.74,83.91,142.88,351.53,Single-ply,SBD,M,
Boys,82.1,DQ,Bryson Harmon,Robinson,75.8,,,,,Single-ply,SBD,M,
Boys,89.81,1,Adyn Ware,Robinson,89.63,226.8,136.08,210.92,573.79,Single-ply,SBD,M,
Boys,89.81,2,Ej Ezar,Bryan Rudder,88.45,181.44,111.13,190.51,483.08,Single-ply,SBD,M,
Boys,89.81,3,Cameron Fouts,Bruceville-Eddy,85.59,158.76,95.25,183.7,437.72,Single-ply,SBD,M,
Boys,89.81,4,Brandon Kendrick,Robinson,87.04,154.22,97.52,165.56,417.3,Single-ply,SBD,M,
Boys,89.81,5,Dylan Olivares,Robinson,84.64,158.76,90.72,163.29,412.77,Single-ply,SBD,M,
Boys,89.81,6,Casey Whitehouse,Robinson,89.18,145.15,81.65,149.69,376.48,Single-ply,SBD,M,
Boys,89.81,DQ,George Ahaneku,College Station A&M Cons,85.28,,,,,Single-ply,SBD,M,
Boys,89.81,DQ,Christin Watters,College Station A&M Cons,87.54,,,,,Single-ply,SBD,M,
Boys,89.81,DQ,Johnathon Mendez,Robinson,87.14,,,,,Single-ply,SBD,M,
Boys,99.79,1,Vince Sheffield,College Station A&M Cons,98.43,240.4,149.69,226.8,616.89,Single-ply,SBD,M,
Boys,99.79,2,Eduardo Chavez,Robinson,99.34,208.65,120.2,231.33,560.19,Single-ply,SBD,M,
Boys,99.79,3,Klayton Sheffield,College Station A&M Cons,95.25,183.7,129.27,190.51,503.49,Single-ply,SBD,M,
Boys,99.79,4,Daniel Walker,Robinson,96.03,183.7,104.33,199.58,487.61,Single-ply,SBD,M,
Boys,99.79,5,Lyndon Williams,Bryan Rudder,94.8,149.69,104.33,195.04,449.06,Single-ply,SBD,M,
Boys,99.79,6,JaMarcus Jones,Bryan Rudder,91.17,163.29,104.33,172.37,439.98,Single-ply,SBD,M,
Boys,99.79,7,Lyndon Williams,College Station A&M Cons,92.99,158.76,104.33,165.56,428.64,Single-ply,SBD,M,
Boys,99.79,8,Cody Clough,College Station A&M Cons,93.44,147.42,86.18,149.69,383.29,Single-ply,SBD,M,
Boys,99.79,9,Dallas Mace,Bruceville-Eddy,96.3,151.95,88.45,136.08,376.48,Single-ply,SBD,M,
Boys,99.79,10,Ryan Poth,Bryan Rudder,92.99,83.91,52.16,124.74,260.82,Single-ply,SBD,M,
Boys,99.79,DQ,Jayden Williams,Bryan Rudder,97.07,,,,,Single-ply,SBD,M,
Boys,99.79,DQ,Eric Goodman,College Station A&M Cons,92.99,,,,,Single-ply,SBD,M,
Boys,109.77,1,Desmond Murphy,Bryan Rudder,103.74,272.16,142.88,283.5,698.53,Single-ply,SBD,M,
Boys,109.77,2,Mario Sedillo,Robinson,105.23,226.8,142.88,226.8,596.47,Single-ply,SBD,M,
Boys,109.77,3,Barton Melder,College Station A&M Cons,108.86,226.8,122.47,197.31,546.58,Single-ply,SBD,M,
Boys,109.77,4,Joseph Lightfoot,College Station A&M Cons,108.86,204.12,113.4,204.12,521.63,Single-ply,SBD,M,
Boys,109.77,5,Colton Stewart,Bryan Rudder,101.15,181.44,102.06,181.44,464.93,Single-ply,SBD,M,
Boys,109.77,6,Hunter Diaz,Bruceville-Eddy,102.87,176.9,102.06,158.76,437.72,Single-ply,SBD,M,
Boys,109.77,7,Xavier Camero,Bryan Rudder,103.87,151.95,102.06,151.95,405.97,Single-ply,SBD,M,
Boys,109.77,DQ,Jakai Bams,College Station A&M Cons,104.33,,,,,Single-ply,SBD,M,
Boys,109.77,DQ,Alijah Bell,Bruceville-Eddy,108.91,,,,,Single-ply,SBD,M,
Boys,124.74,1,Brady Haug,Robinson,114.94,226.8,136.08,215.46,578.33,Single-ply,SBD,M,
Boys,124.74,2,Christian Martinez,Bruceville-Eddy,120.29,217.72,115.67,142.88,476.27,Single-ply,SBD,M,
Boys,124.74,3,Timothy Chandler,College Station A&M Cons,121.56,181.44,102.06,154.22,437.72,Single-ply,SBD,M,
Boys,124.74,DQ,Jason Batiste,Bryan Rudder,115.67,,,,,Single-ply,SBD,M,
Boys,124.74,DQ,Dylan Summey,Robinson,111.63,,,,,Single-ply,SBD,M,
Boys,124.74+,1,Jacob Gallimore,Robinson,152.18,260.82,124.74,235.87,621.42,Single-ply,SBD,M,
Boys,124.74+,2,Tommy Moran,Robinson,125.83,136.08,79.38,149.69,365.14,Single-ply,SBD,M,
Boys,124.74+,DQ,Stanley Gilbert,Bryan Rudder,129.73,174.63,,,,Single-ply,SBD,M,
Boys,124.74+,DQ,Jeff Cain,College Station A&M Cons,145.15,,,,,Single-ply,SBD,M,
