Division,WeightClassKg,Place,Name,Team,BodyweightKg,Best3SquatKg,Best3BenchKg,Best3DeadliftKg,TotalKg,Equipment,Event,Sex
Girls,44.23,1,Criselda Serna,Freeport Brazosport,44.09,99.79,36.29,108.86,244.94,Single-ply,SBD,F
Girls,44.23,2,Marissa Linares,Danbury,40.46,70.31,38.56,83.91,192.78,Single-ply,SBD,F
Girls,44.23,3,Allie Harvey,Beaumont West Brook,44.18,70.31,27.22,90.72,188.24,Single-ply,SBD,F
Girls,44.23,NS,Avery Moresco,Hitchcock,,,,,,Single-ply,SBD,F
Girls,47.85,1,Izamar Rico,Santa Fe,46.99,68.04,29.48,68.04,165.56,Single-ply,SBD,F
Girls,51.94,1,Dani Willis,Port Arthur Memorial,51.07,115.67,58.97,129.27,303.91,Single-ply,SBD,F
Girls,51.94,2,Sarah Buffington,Santa Fe,48.63,106.59,40.82,113.4,260.82,Single-ply,SBD,F
Girls,51.94,3,Joslynn Hall,Beaumont West Brook,50.08,90.72,47.63,95.25,233.6,Single-ply,SBD,F
Girls,51.94,4,Adile Leal,Clute Brazoswood,49.62,95.25,40.82,83.91,219.99,Single-ply,SBD,F
Girls,51.94,5,Cassie Whitmire,Santa Fe,50.17,90.72,38.56,88.45,217.72,Single-ply,SBD,F
Girls,51.94,6,Kayla Gace,Hitchcock,51.26,97.52,34.02,74.84,206.38,Single-ply,SBD,F
Girls,51.94,7,Gabby Murphy,Freeport Brazosport,49.8,81.65,31.75,90.72,204.12,Single-ply,SBD,F
Girls,51.94,8,Alanna Huynh,Beaumont West Brook,48.44,81.65,31.75,88.45,201.85,Single-ply,SBD,F
Girls,51.94,9,Anna Trammell,Danbury,51.8,70.31,36.29,90.72,197.31,Single-ply,SBD,F
Girls,51.94,10,Chloe Oderbert,Port Arthur Memorial,48.17,61.23,29.48,79.38,170.1,Single-ply,SBD,F
Girls,56.02,1,Raelyhn Swan,Hitchcock,53.61,124.74,54.43,113.4,292.57,Single-ply,SBD,F
Girls,56.02,2,Tierra Mouton,Port Arthur Memorial,54.34,108.86,52.16,124.74,285.76,Single-ply,SBD,F
Girls,56.02,3,Frances Ajaero,Stafford,54.34,113.4,47.63,113.4,274.42,Single-ply,SBD,F
Girls,56.02,4,Makiya Thigpen,Beaumont West Brook,55.61,106.59,43.09,124.74,274.42,Single-ply,SBD,F
Girls,56.02,5,Chalonna Harris,Port Arthur Memorial,53.52,95.25,38.56,124.74,258.55,Single-ply,SBD,F
Girls,56.02,6,Kaelen Wycoff,Port Arthur Memorial,53.8,95.25,43.09,104.33,242.67,Single-ply,SBD,F
Girls,56.02,7,Alexis Wood,Freeport Brazosport,54.25,83.91,49.9,99.79,233.6,Single-ply,SBD,F
Girls,56.02,8,Kaleigh Odom,Clute Brazoswood,55.97,92.99,38.56,102.06,233.6,Single-ply,SBD,F
Girls,56.02,9,Victoria Waidner,Hitchcock,53.89,79.38,29.48,95.25,204.12,Single-ply,SBD,F
Girls,56.02,10,Alexis Glasper,Beaumont West Brook,55.61,92.99,34.02,,127.01,Single-ply,SB,F
Girls,56.02,11,Bella Arambala,Clute Brazoswood,53.34,40.82,,,40.82,Single-ply,S,F
Girls,56.02,NS,Quan' Tayshia George,Beaumont West Brook,,,,,,Single-ply,SBD,F
Girls,60.1,1,Keioveon Sullivan,Beaumont West Brook,59.96,115.67,45.36,138.35,299.37,Single-ply,SBD,F
Girls,60.1,2,Genesis Gonzalez,Clute Brazoswood,60.06,102.06,47.63,120.2,269.89,Single-ply,SBD,F
Girls,60.1,3,Kitana Simpson,Beaumont West Brook,58.97,102.06,49.9,113.4,265.35,Single-ply,SBD,F
Girls,60.1,4,Mererdith Kaspar,Manvel,59.6,102.06,54.43,106.59,263.08,Single-ply,SBD,F
Girls,60.1,5,Joselinne Moreno,Manvel,57.79,108.86,43.09,102.06,254.01,Single-ply,SBD,F
Girls,60.1,6,Masadia Rodriguez,Clute Brazoswood,57.88,81.65,45.36,113.4,240.4,Single-ply,SBD,F
Girls,60.1,7,Keyona McPherson,Port Arthur Memorial,56.15,88.45,40.82,104.33,233.6,Single-ply,SBD,F
Girls,60.1,8,Bianca Valdez,Santa Fe,59.06,102.06,49.9,,151.95,Single-ply,SB,F
Girls,60.1,9,Zoe Galvan,Manvel,59.06,106.59,38.56,,145.15,Single-ply,SB,F
Girls,60.1,NS,DeeDee Jackson,Hitchcock,,,,,,Single-ply,SBD,F
Girls,60.1,NS,Shelby Kadlecek,Hitchcock,,,,,,Single-ply,SBD,F
Girls,60.1,NS,Haliegh Ashworth,Texas City,,,,,,Single-ply,SBD,F
Girls,67.36,1,Ashley Alvarez,Friendswood Clear Brook,64.59,142.88,86.18,142.88,371.95,Single-ply,SBD,F
Girls,67.36,2,Kassie Riley,Beaumont West Brook,66.13,131.54,68.04,142.88,342.46,Single-ply,SBD,F
Girls,67.36,3,Mercedez Strambler,Freeport Brazosport,65.41,120.2,72.57,136.08,328.85,Single-ply,SBD,F
Girls,67.36,4,Daelyn Frank,Hitchcock,64.41,129.27,58.97,136.08,324.32,Single-ply,SBD,F
Girls,67.36,5,Peyton Dumas,Beaumont West Brook,65.95,115.67,56.7,151.95,324.32,Single-ply,SBD,F
Girls,67.36,6,Jayden White,Freeport Brazosport,62.51,129.27,47.63,131.54,308.44,Single-ply,SBD,F
Girls,67.36,7,Asia Brown,Port Arthur Memorial,61.23,117.93,43.09,138.35,299.37,Single-ply,SBD,F
Girls,67.36,8,Samantha Raines,Clute Brazoswood,63.5,120.2,54.43,122.47,297.1,Single-ply,SBD,F
Girls,67.36,9,Shermaine Greene,Port Arthur Memorial,65.95,122.47,47.63,120.2,290.3,Single-ply,SBD,F
Girls,67.36,10,Maradney Washington,Port Arthur Memorial,67.31,111.13,49.9,124.74,285.76,Single-ply,SBD,F
Girls,67.36,11,Roni Fleming,Hitchcock,63.59,111.13,54.43,111.13,276.69,Single-ply,SBD,F
Girls,67.36,12,Angellica Moreno,Manvel,66.68,111.13,43.09,122.47,276.69,Single-ply,SBD,F
Girls,67.36,13,Hannah Krenek,Clute Brazoswood,63.59,113.4,43.09,113.4,269.89,Single-ply,SBD,F
Girls,67.36,14,Rhianna Carabajal,Beaumont West Brook,61.14,113.4,49.9,104.33,267.62,Single-ply,SBD,F
Girls,67.36,15,Luna Wev,Texas City,66.04,102.06,47.63,104.33,254.01,Single-ply,SBD,F
Girls,67.36,16,Sienna Hinton,Freeport Brazosport,61.96,90.72,38.56,108.86,238.14,Single-ply,SBD,F
Girls,67.36,17,Andi Martinez,Santa Fe,65.59,92.99,34.02,99.79,226.8,Single-ply,SBD,F
Girls,67.36,18,Rose Connor,Hitchcock,61.33,90.72,36.29,86.18,213.19,Single-ply,SBD,F
Girls,67.36,19,Libby Stavinoha,Manvel,62.78,92.99,34.02,86.18,213.19,Single-ply,SBD,F
Girls,67.36,20,Na'Kyra Darthard,Freeport Brazosport,66.32,133.81,56.7,,190.51,Single-ply,SB,F
Girls,67.36,21,Sarah Rowe,Friendswood Clear Brook,61.05,52.16,31.75,65.77,149.69,Single-ply,SBD,F
Girls,67.36,NS,Kiley Sanders,Freeport Brazosport,,,,,,Single-ply,SBD,F
Girls,75.07,1,Jessica Echegoyen,Manvel,71.21,163.29,70.31,158.76,392.36,Single-ply,SBD,F
Girls,75.07,2,Makaylah Laza,Santa Fe,74.21,151.95,70.31,115.67,337.93,Single-ply,SBD,F
Girls,75.07,3,Morgan Boody,Santa Fe,71.76,142.88,54.43,120.2,317.51,Single-ply,SBD,F
Girls,75.07,4,Madelynn Mahoney,Manvel,72.76,133.81,58.97,117.93,310.71,Single-ply,SBD,F
Girls,75.07,5,Phylane Smith,Freeport Brazosport,73.57,133.81,61.23,111.13,306.17,Single-ply,SBD,F
Girls,75.07,6,Tierra Turner,Beaumont West Brook,71.03,104.33,47.63,133.81,285.76,Single-ply,SBD,F
Girls,75.07,7,Symmone Dobbins,Hitchcock,72.21,104.33,49.9,106.59,260.82,Single-ply,SBD,F
Girls,75.07,8,Kimmy Simmons,Hitchcock,72.67,108.86,47.63,102.06,258.55,Single-ply,SBD,F
Girls,75.07,9,Taylor Wortham,Beaumont West Brook,73.03,102.06,49.9,106.59,258.55,Single-ply,SBD,F
Girls,75.07,10,Kayleigh Edmonston,Texas City,70.76,108.86,43.09,104.33,256.28,Single-ply,SBD,F
Girls,75.07,11,Celeste Powell,Freeport Brazosport,72.85,86.18,38.56,113.4,238.14,Single-ply,SBD,F
Girls,75.07,12,Jacelin Daniel,Beaumont West Brook,69.85,102.06,29.48,97.52,229.06,Single-ply,SBD,F
Girls,75.07,13,Brandi Peloquin,Hitchcock,70.67,77.11,40.82,92.99,210.92,Single-ply,SBD,F
Girls,75.07,14,Gladness Fisher-Afolabi,Stafford,71.49,68.04,36.29,95.25,199.58,Single-ply,SBD,F
Girls,75.07,NS,Karla Hernandez,Freeport Brazosport,,,38.56,,,Single-ply,SBD,F
Girls,75.07,NS,Rosa Naverette,Freeport Brazosport,,,,,,Single-ply,SBD,F
Girls,82.33,1,CaSundra Roberts,Port Arthur Memorial,77.56,140.61,54.43,161.03,356.07,Single-ply,SBD,F
Girls,82.33,2,Jayln Mansfield,Beaumont West Brook,79.65,120.2,43.09,151.95,315.25,Single-ply,SBD,F
Girls,82.33,3,Karenna Castro,Santa Fe,77.02,124.74,63.5,124.74,312.98,Single-ply,SBD,F
Girls,82.33,4,Ashley Westbrooks,Beaumont West Brook,81.56,122.47,58.97,131.54,312.98,Single-ply,SBD,F
Girls,82.33,5,Ayannah Dailey,Port Arthur Memorial,79.02,120.2,52.16,131.54,303.91,Single-ply,SBD,F
Girls,82.33,6,Kiarra Williams,Hitchcock,75.84,136.08,61.23,104.33,301.64,Single-ply,SBD,F
Girls,82.33,7,Karen Foreman,Texas City,81.92,129.27,54.43,102.06,285.76,Single-ply,SBD,F
Girls,82.33,8,Savannah Cridland,Santa Fe,82.01,111.13,47.63,106.59,265.35,Single-ply,SBD,F
Girls,82.33,9,Kaylyn White,Port Arthur Memorial,79.56,97.52,45.36,115.67,258.55,Single-ply,SBD,F
Girls,82.33,10,Hanna Wolf,Friendswood Clear Brook,81.37,90.72,54.43,113.4,258.55,Single-ply,SBD,F
Girls,82.33,11,Madison Somero,Friendswood Clear Brook,75.84,113.4,38.56,92.99,244.94,Single-ply,SBD,F
Girls,82.33,12,Kaitlyn Richards,Santa Fe,79.74,97.52,38.56,97.52,233.6,Single-ply,SBD,F
Girls,82.33,NS,Iyonnee Terrazas,Freeport Brazosport,,,,,,Single-ply,SBD,F
Girls,82.33,DQ,Lillian Johnson,Clute Brazoswood,78.11,90.72,,,,Single-ply,SBD,F
Girls,90.04,1,Victoria Jenkins,Beaumont West Brook,84.91,145.15,56.7,154.22,356.07,Single-ply,SBD,F
Girls,90.04,2,Francisca Damian,Clute Brazoswood,87.54,147.42,74.84,127.01,349.27,Single-ply,SBD,F
Girls,90.04,3,Jalynn Flanagan,Beaumont West Brook,88.72,111.13,52.16,142.88,306.17,Single-ply,SBD,F
Girls,90.04,4,Carly Burns,Beaumont West Brook,86.91,113.4,38.56,108.86,260.82,Single-ply,SBD,F
Girls,90.04,5,Georgi Thiem,Hitchcock,85.73,90.72,38.56,90.72,219.99,Single-ply,SBD,F
Girls,90.04,NS,Erianna Copeland,Hitchcock,,,,,,Single-ply,SBD,F
Girls,100.02,1,Victoria Martinez #4,Freeport Brazosport,91.08,138.35,77.11,136.08,351.53,Single-ply,SBD,F
Girls,100.02,2,Jerrika McDonald,Clute Brazoswood,98.88,142.88,65.77,138.35,347,Single-ply,SBD,F
Girls,100.02,3,Jasmine Gowdie,Beaumont West Brook,90.45,142.88,52.16,133.81,328.85,Single-ply,SBD,F
Girls,100.02,4,Sharcarlra Cannon,Port Arthur Memorial,97.7,81.65,40.82,102.06,224.53,Single-ply,SBD,F
Girls,100.02,NS,Dominique Palacious,Friendswood Clear Brook,,,,,,Single-ply,SBD,F
Girls,100.02,DQ,Kamri Preston,Hitchcock,99.7,,,,,Single-ply,SBD,F
Girls,100.02,DQ,Kyra Rost,Santa Fe,93.53,158.76,,,,Single-ply,SBD,F
Girls,100.02+,1,Daizya Adams,Beaumont West Brook,165.2,226.8,97.52,188.24,512.56,Single-ply,SBD,F
Girls,100.02+,2,Jordyn Bustillos,Freeport Brazosport,112.67,170.1,72.57,147.42,390.09,Single-ply,SBD,F
Girls,100.02+,3,Brooke Beckham,Clute Brazoswood,101.06,136.08,68.04,115.67,319.78,Single-ply,SBD,F
Girls,100.02+,4,Derrica Joseph,Beaumont West Brook,118.12,117.93,54.43,129.27,301.64,Single-ply,SBD,F
Girls,100.02+,5,Ryann Brown,Stafford,102.69,99.79,40.82,102.06,242.67,Single-ply,SBD,F
Girls,100.02+,6,Lauren Martinez,Texas City,104.24,104.33,45.36,86.18,235.87,Single-ply,SBD,F
Girls,100.02+,7,Kaitlyn Kneis,Freeport Brazosport,118.93,74.84,47.63,104.33,226.8,Single-ply,SBD,F
Girls,100.02+,8,Sidney Turner,Hitchcock,109.5,92.99,40.82,81.65,215.46,Single-ply,SBD,F
Girls,100.02+,NS,Alexis Ortiz,Texas City,,,,,,Single-ply,SBD,F
Girls,100.02+,DQ,Alyssa Milliam,Clute Brazoswood,100.88,170.1,,,,Single-ply,SBD,F
