Division,WeightClassKg,Place,Name,Team,BodyweightKg,Best3SquatKg,Best3BenchKg,Best3DeadliftKg,TotalKg,Equipment,Event,Sex,BirthDate
Boys,51.71,1,Tommy Hession,College Station,50.71,163.29,72.57,167.83,403.7,Single-ply,SBD,M,
Boys,51.71,2,Nathan Jeter,Rockdale,51.71,122.47,70.31,142.88,335.66,Single-ply,SBD,M,
Boys,51.71,3,Alan Cruz,Buda Johnson,51.71,117.93,61.23,142.88,322.05,Single-ply,SBD,M,
Boys,51.71,4,Onesimo Esquivel,San Marcos,50.98,122.47,61.23,136.08,319.78,Single-ply,SBD,M,
Boys,51.71,5,Emilio Rangel,Buda Johnson,47.36,113.4,63.5,124.74,301.64,Single-ply,SBD,M,
Boys,51.71,6,Jeremiah Harvey,Elgin,50.44,92.99,61.23,108.86,263.08,Single-ply,SBD,M,
Boys,55.79,1,Caleb Burleson,College Station,55.43,145.15,90.72,151.95,387.82,Single-ply,SBD,M,
Boys,55.79,2,Eric Esquivel,Kyle Lehman,54.61,136.08,83.91,149.69,369.68,Single-ply,SBD,M,
Boys,55.79,3,Alandric Andrade,Brenham,54.98,115.67,70.31,142.88,328.85,Single-ply,SBD,M,
Boys,55.79,4,Randy Reyes,Elgin,54.25,120.2,56.7,113.4,290.3,Single-ply,SBD,M,
Boys,59.87,1,Jesus Recio,Kyle Lehman,58.69,147.42,99.79,179.17,426.38,Single-ply,SBD,M,
Boys,59.87,2,Jay Swain,Manor,59.24,124.74,72.57,183.7,381.02,Single-ply,SBD,M,
Boys,59.87,3,Max Finn,Thrall,59.15,129.27,77.11,156.49,362.87,Single-ply,SBD,M,
Boys,59.87,4,Kevin Liu,Rockdale,59.87,133.81,83.91,142.88,360.61,Single-ply,SBD,M,
Boys,59.87,5,Dalton Garcia,Kyle Lehman,58.6,131.54,72.57,149.69,353.8,Single-ply,SBD,M,
Boys,59.87,6,Caden Young,Rockdale,59.42,133.81,77.11,142.88,353.8,Single-ply,SBD,M,
Boys,59.87,7,Julian Enriguez,Buda Johnson,56.34,133.81,72.57,142.88,349.27,Single-ply,SBD,M,
Boys,59.87,8,Christian Cravens,Bastrop Cedar Creek,59.24,138.35,58.97,149.69,347,Single-ply,SBD,M,
Boys,59.87,9,Ion Collins,Manor,57.06,136.08,63.5,142.88,342.46,Single-ply,SBD,M,
Boys,59.87,10,Dylan Duran,San Marcos,58.33,120.2,72.57,142.88,335.66,Single-ply,SBD,M,
Boys,59.87,11,Ikaika Engleman,Kyle Lehman,56.15,102.06,52.16,138.35,292.57,Single-ply,SBD,M,
Boys,59.87,12,Isaac Charles,Elgin,58.88,102.06,52.16,138.35,292.57,Single-ply,SBD,M,
Boys,59.87,13,Richard Yanez,Thrall,57.24,124.74,68.04,90.72,283.5,Single-ply,SBD,M,
Boys,67.13,1,Ethan Hall,College Station,65.86,195.04,102.06,208.65,505.76,Single-ply,SBD,M,
Boys,67.13,2,Miguel Ochoa,Taylor,66.59,199.58,106.59,185.97,492.15,Single-ply,SBD,M,
Boys,67.13,3,Rolando Valenzuela,Kyle Lehman,65.14,174.63,113.4,190.51,478.54,Single-ply,SBD,M,
Boys,67.13,4,Joel Scott,Taylor,66.5,188.24,106.59,179.17,474,Single-ply,SBD,M,
Boys,67.13,5,Avery Marshaal,Manor,66.59,181.44,74.84,185.97,442.25,Single-ply,SBD,M,
Boys,67.13,6,Zachariah Decker,San Marcos,62.78,154.22,79.38,172.37,405.97,Single-ply,SBD,M,
Boys,67.13,7,Hayden Jones,Thrall,64.86,142.88,90.72,165.56,399.16,Single-ply,SBD,M,
Boys,67.13,8,Garrett Schlottman,Kyle Lehman,65.86,129.27,81.65,172.37,383.29,Single-ply,SBD,M,
Boys,67.13,9,Bryce Flowers,Rockdale,64.41,127.01,88.45,154.22,369.68,Single-ply,SBD,M,
Boys,67.13,10,Alexis Gonzales #3,Bastrop Cedar Creek,67.04,117.93,95.25,149.69,362.87,Single-ply,SBD,M,
Boys,67.13,11,Christian Jeanes,Kyle Lehman,62.41,127.01,86.18,138.35,351.53,Single-ply,SBD,M,
Boys,67.13,12,Tyler Leonardis,Buda Johnson,63.32,127.01,63.5,129.27,319.78,Single-ply,SBD,M,
Boys,67.13,13,Zachary Respress,Kyle Lehman,63.78,102.06,68.04,127.01,297.1,Single-ply,SBD,M,
Boys,74.84,1,Ruben Jarmillo,Manor,73.75,201.85,115.67,215.46,532.97,Single-ply,SBD,M,
Boys,74.84,2,Josh Hart,Taylor,74.03,192.78,104.33,215.46,512.56,Single-ply,SBD,M,
Boys,74.84,3,Amir Johnson,Brenham,69.49,192.78,106.59,206.38,505.76,Single-ply,SBD,M,
Boys,74.84,4,Levonte Benford,Manor,72.03,181.44,108.86,195.04,485.34,Single-ply,SBD,M,
Boys,74.84,5,Ethan Allen,Kyle Lehman,74.03,174.63,113.4,176.9,464.93,Single-ply,SBD,M,
Boys,74.84,6,Codey Ball,Taylor,74.39,170.1,127.01,149.69,446.79,Single-ply,SBD,M,
Boys,74.84,7,Ashton Durst,Buda Johnson,73.75,170.1,90.72,176.9,437.72,Single-ply,SBD,M,
Boys,74.84,8,Oscar Garza,Elgin,74.75,183.7,102.06,151.95,437.72,Single-ply,SBD,M,
Boys,74.84,9,Kolton Griswold,College Station,73.94,163.29,90.72,181.44,435.45,Single-ply,SBD,M,
Boys,74.84,10,Colby Johnson,Elgin,70.31,165.56,92.99,167.83,426.38,Single-ply,SBD,M,
Boys,74.84,11,John Wigger,San Marcos,73.03,142.88,102.06,163.29,408.23,Single-ply,SBD,M,
Boys,74.84,12,Alex Izaguirre,Buda Johnson,72.03,147.42,81.65,158.76,387.82,Single-ply,SBD,M,
Boys,74.84,13,Konnor Streiff,Kyle Lehman,71.94,145.15,83.91,151.95,381.02,Single-ply,SBD,M,
Boys,74.84,14,Luke Townsend,Bastrop Cedar Creek,70.4,149.69,79.38,142.88,371.95,Single-ply,SBD,M,
Boys,74.84,15,Samuel Machala,Taylor,71.85,136.08,79.38,149.69,365.14,Single-ply,SBD,M,
Boys,74.84,16,Troy Osborne,Elgin,70.94,102.06,83.91,138.35,324.32,Single-ply,SBD,M,
Boys,74.84,17,Dalton Richter,Thrall,68.13,92.99,65.77,90.72,249.48,Single-ply,SBD,M,
Boys,82.1,1,Luis Trujillo,Elgin,81.37,192.78,142.88,215.46,551.11,Single-ply,SBD,M,
Boys,82.1,2,Dylan Basham,San Marcos,77.66,188.24,142.88,217.72,548.85,Single-ply,SBD,M,
Boys,82.1,3,Abdias Castillo,Elgin,80.65,188.24,127.01,192.78,508.02,Single-ply,SBD,M,
Boys,82.1,4,Jabrion White,Manor,80.29,208.65,111.13,183.7,503.49,Single-ply,SBD,M,
Boys,82.1,5,Bradley Gonzales,Buda Johnson,80.47,190.51,117.93,190.51,498.95,Single-ply,SBD,M,
Boys,82.1,6,Jaden Strong,Elgin,79.47,183.7,113.4,192.78,489.88,Single-ply,SBD,M,
Boys,82.1,7,Sam Lucia,Thrall,81.19,167.83,108.86,183.7,460.4,Single-ply,SBD,M,
Boys,82.1,8,Aaron Vega,Elgin,80.1,142.88,124.74,183.7,451.32,Single-ply,SBD,M,
Boys,82.1,9,Mario Mendez,Thrall,80.38,158.76,106.59,161.03,426.38,Single-ply,SBD,M,
Boys,82.1,10,Christian Respress,Kyle Lehman,80.1,142.88,83.91,188.24,415.04,Single-ply,SBD,M,
Boys,82.1,11,Jakob Davis,Brenham,80.1,111.13,83.91,136.08,331.12,Single-ply,SBD,M,
Boys,82.1,DQ,William Martin,Elgin,81.47,,,,,Single-ply,SBD,M,
Boys,82.1,DQ,Gabriel Goodman,Rockdale,77.93,,54.43,,,Single-ply,SBD,M,
Boys,89.81,1,Sean Dudo,College Station,88.27,238.14,158.76,215.46,612.35,Single-ply,SBD,M,
Boys,89.81,2,Kolbe Cashion,College Station,86.27,226.8,124.74,217.72,569.26,Single-ply,SBD,M,
Boys,89.81,3,Jaden Taylor,Taylor,89.36,170.1,120.2,183.7,474,Single-ply,SBD,M,
Boys,89.81,4,Jesse Coward,Taylor,84.37,163.29,124.74,174.63,462.66,Single-ply,SBD,M,
Boys,89.81,5,Chris Reyes,Rockdale,89.54,170.1,99.79,170.1,439.98,Single-ply,SBD,M,
Boys,89.81,6,Tyreke Irvin,Thrall,89.45,142.88,108.86,154.22,405.97,Single-ply,SBD,M,
Boys,89.81,7,Elvis Garcia,Buda Johnson,87.45,142.88,90.72,145.15,378.75,Single-ply,SBD,M,
Boys,99.79,1,Cirillo Gonzalez,Manor,94.98,254.01,161.03,249.48,664.51,Single-ply,SBD,M,
Boys,99.79,2,Zachary Perez,San Marcos,98.16,226.8,136.08,213.19,576.06,Single-ply,SBD,M,
Boys,99.79,3,Avian Veals,Elgin,94.44,185.97,124.74,197.31,508.02,Single-ply,SBD,M,
Boys,99.79,4,Tristan Boorman,Buda Johnson,94.89,183.7,95.25,172.37,451.32,Single-ply,SBD,M,
Boys,99.79,5,Seth Chavana,Taylor,95.8,172.37,70.31,183.7,426.38,Single-ply,SBD,M,
Boys,99.79,6,Kade LaSagna,Brenham,98.34,142.88,65.77,165.56,374.21,Single-ply,SBD,M,
Boys,99.79,7,Hunter McNeese,Taylor,94.53,131.54,77.11,151.95,360.61,Single-ply,SBD,M,
Boys,99.79,8,William Davenport,Rockdale,98.25,115.67,77.11,131.54,324.32,Single-ply,SBD,M,
Boys,99.79,9,Landen Pounders,Rockdale,91.72,102.06,70.31,131.54,303.91,Single-ply,SBD,M,
Boys,99.79,DQ,Colton Ellis,Rockdale,95.62,99.79,,,,Single-ply,SBD,M,
Boys,99.79,DQ,Justin Ramirez,Taylor,95.25,136.08,,,,Single-ply,SBD,M,
Boys,109.77,1,Luke Miles,College Station,106.68,274.42,161.03,274.42,709.87,Single-ply,SBD,M,
Boys,109.77,2,Hayden Goodlett,College Station,109.41,244.94,167.83,244.94,657.71,Single-ply,SBD,M,
Boys,109.77,3,Tajha Brooks,Manor,102.06,244.94,151.95,254.01,650.91,Single-ply,SBD,M,
Boys,109.77,4,Willy Rangel,Bastrop Cedar Creek,108.41,242.67,129.27,204.12,576.06,Single-ply,SBD,M,
Boys,109.77,5,Andrew Ball,Taylor,107.5,199.58,154.22,208.65,562.45,Single-ply,SBD,M,
Boys,109.77,6,Case Jordan,Buda Johnson,100.79,204.12,88.45,190.51,483.08,Single-ply,SBD,M,
Boys,109.77,7,Javier Jimenez,Kyle Lehman,102.78,163.29,111.13,208.65,483.08,Single-ply,SBD,M,
Boys,109.77,8,Alex Ellison,Rockdale,105.87,181.44,127.01,174.63,483.08,Single-ply,SBD,M,
Boys,109.77,9,Esau Ortiz,Taylor,100.7,163.29,147.42,163.29,474,Single-ply,SBD,M,
Boys,109.77,10,Willford Minor,Manor,100.97,183.7,83.91,190.51,458.13,Single-ply,SBD,M,
Boys,109.77,11,Garrett Zuma,Buda Johnson,104.51,165.56,83.91,163.29,412.77,Single-ply,SBD,M,
Boys,109.77,12,Benjamin Pactanac,San Marcos,100.52,147.42,79.38,163.29,390.09,Single-ply,SBD,M,
Boys,109.77,DQ,Devin Washington,Brenham,106.68,,,,,Single-ply,SBD,M,
Boys,109.77,DQ,Alexander Rodman,Elgin,109.59,,,,,Single-ply,SBD,M,
Boys,124.74,1,Cedric Truitt,Elgin,123.38,226.8,154.22,254.01,635.03,Single-ply,SBD,M,
Boys,124.74,2,Ty Thorton,Manor,119.84,215.46,158.76,249.48,623.69,Single-ply,SBD,M,
Boys,124.74,3,John Rebolloso,Elgin,122.74,254.01,142.88,204.12,601.01,Single-ply,SBD,M,
Boys,124.74,4,Easthan Mendez,San Marcos,124.65,206.38,122.47,235.87,564.72,Single-ply,SBD,M,
Boys,124.74,5,Gavin Aguilar,Rockdale,112.4,204.12,142.88,204.12,551.11,Single-ply,SBD,M,
Boys,124.74,6,Aaron Avila,Rockdale,113.31,240.4,127.01,174.63,542.04,Single-ply,SBD,M,
Boys,124.74,7,Lee Graves,Brenham,116.94,204.12,124.74,204.12,532.97,Single-ply,SBD,M,
Boys,124.74,8,Alex Handy,Bastrop Cedar Creek,115.12,192.78,111.13,204.12,508.02,Single-ply,SBD,M,
Boys,124.74,9,Audric Hardaway,Manor,124.38,183.7,113.4,183.7,480.81,Single-ply,SBD,M,
Boys,124.74,10,Kaleb DeVous,Brenham,122.83,158.76,104.33,158.76,421.84,Single-ply,SBD,M,
Boys,124.74,11,Austin Goodman,Rockdale,113.31,124.74,74.84,142.88,342.46,Single-ply,SBD,M,
Boys,124.74,12,Miles Grear,Rockdale,123.83,104.33,68.04,111.13,283.5,Single-ply,SBD,M,
Boys,124.74,DQ,Ty Mayberry,Rockdale,110.59,,,,,Single-ply,SBD,M,
Boys,124.74+,1,Jordan Hood,Elgin,133.54,299.37,183.7,283.5,766.57,Single-ply,SBD,M,
Boys,124.74+,2,Ryleigh O'Campo,Thrall,148.51,294.84,138.35,238.14,671.32,Single-ply,SBD,M,
Boys,124.74+,3,Shawn Vega,Taylor,153.68,181.44,158.76,208.65,548.85,Single-ply,SBD,M,
Boys,124.74+,4,Lance Maxie,Brenham,133.54,188.24,149.69,183.7,521.63,Single-ply,SBD,M,
Boys,124.74+,5,Isaiah Arguello,Manor,149.41,201.85,108.86,183.7,494.42,Single-ply,SBD,M,
Boys,124.74+,6,Elias Arteaga,Elgin,129,188.24,113.4,165.56,467.2,Single-ply,SBD,M,
Boys,124.74+,7,Kobe Washington,Brenham,139.16,158.76,136.08,158.76,453.59,Single-ply,SBD,M,
Boys,,NS,Mikey Rodriguez,Thrall,,,,,,Single-ply,SBD,M,
Boys,,NS,Daniel Gardiner,Rockdale,,,,,,Single-ply,SBD,M,
