Place,Name,CyrillicName,BirthYear,WeightClassKg,BodyweightKg,Bench1Kg,Bench2Kg,Bench3Kg,Best3BenchKg,TotalKg,Sex,Division,Event,Equipment
1,Anastasya Strufa,Анастасия Струфа,1986,48,46.85,90,95,97.5,97.5,97.5,F,Open,B,Single-ply
2,Yana Zadorina,Яна Задорина,1982,48,48,92.5,-97.5,-102.5,92.5,92.5,F,Open,B,Single-ply
3,Olga Kovalchuk,Ольга Ковальчук,1980,48,47.65,50,55,57.5,57.5,57.5,F,Open,B,Single-ply
4,Viktoriya Ermakova,Виктория Ермакова,1996,48,47.9,52.5,57.5,-60,57.5,57.5,F,Open,B,Single-ply
1,Oksana Pochinkina-Sokovnina,Оксана Починкина-Соковнина,1986,52,50.2,95,100,105,105,105,F,Open,B,Single-ply
2,Anastasiya Roshchina,Анастасия Рощина,1988,52,51.7,75,80,-85,80,80,F,Open,B,Single-ply
3,Ekaterina Ogorodova,Екатерина Огородова,1993,52,52,67.5,70,72.5,72.5,72.5,F,Open,B,Single-ply
4,Darya Mamontova,Дарья Мамонтова,1995,52,50.95,-60,-62.5,62.5,62.5,62.5,F,Open,B,Single-ply
1,Alena Anokhina,Алена Анохина,1996,56,53.9,77.5,80,,80,80,F,Open,B,Single-ply
2,Anzhelika Karachakova,Анжелика Карачакова,1989,56,55.75,65,67.5,-70,67.5,67.5,F,Open,B,Single-ply
3,Irina Abbazova,Ирина Аббазова,1994,56,55.3,45,50,-52.5,50,50,F,Open,B,Single-ply
1,Natalya Barybina,Наталья Барыбина,1983,60,60,90,97.5,100,100,100,F,Open,B,Single-ply
1,Olga Kozub,Ольга Козуб,1987,67.5,64.45,95,100,105,105,105,F,Open,B,Single-ply
2,Olga Chuvileva,Ольга Чувилева,1979,67.5,65.9,90,-95,95.5,95.5,95.5,F,Open,B,Single-ply
3,Olga Kuratova,Ольга Куратова,1976,67.5,66.45,-75,75,-77.5,75,75,F,Open,B,Single-ply
4,Valeriya Lang,Валерия Ланг,1993,67.5,66.5,55,60,-65,60,60,F,Open,B,Single-ply
1,Natalya Nebaeva,Наталья Небаева,1976,75,67.7,120,125,-130,125,125,F,Open,B,Single-ply
2,Oksana Pribylova,Оксана Прибылова,1982,75,70.65,105,112.5,-122.5,112.5,112.5,F,Open,B,Single-ply
1,Evgeniya Shabanova,Евгения Шабанова,1977,82.5,82.3,120,127.5,-135,127.5,127.5,F,Open,B,Single-ply
1,Tamara Nekoshnova,Тамара Некошнова,1982,90,89.85,110,120,130,130,130,F,Open,B,Single-ply
2,Ekaterina Tanokova,Екатерина Танокова,1964,90,84.25,50,60,65,65,65,F,Open,B,Single-ply
1,Aleksey Korepanov,Алексей Корепанов,1989,56,55.75,120,130,135,135,135,M,Open,B,Single-ply
2,Aleksandr Degtyarev,Александр Дегтярев,1983,56,55.3,120,130,-135,130,130,M,Open,B,Single-ply
3,Roman Anorin,Роман Анорин,1992,56,55.8,102.5,107.5,-110,107.5,107.5,M,Open,B,Single-ply
4,Sergey Kryakov,Сергей Кряков,1993,56,55.65,90,-97.5,97.5,97.5,97.5,M,Open,B,Single-ply
5,Igor Zhukov,Игорь Жуков,1993,56,51.35,92.5,-100,-100,92.5,92.5,M,Open,B,Single-ply
6,Mukhammed Khudoyarov,Мухаммед Худояров,1991,56,51.95,-80,85,-90,85,85,M,Open,B,Single-ply
7,Oleg Konev,Олег Конев,1994,56,54.25,70,77.5,80,80,80,M,Open,B,Single-ply
8,Nikolay Shabanov,Николай Шабанов,1994,56,55.65,80,-85,-85,80,80,M,Open,B,Single-ply
9,Vladislav Shaibekov,Владислав Шайбеков,1994,56,47.45,70,75,77.5,77.5,77.5,M,Open,B,Single-ply
10,Denis Nevezhin,Денис Невежин,1992,56,48,72.5,-77.5,-80,72.5,72.5,M,Open,B,Single-ply
11,Mikhail Permikin,Михаил Пермикин,1995,56,47,62.5,67.5,-72.5,67.5,67.5,M,Open,B,Single-ply
12,Oleg Maksimov,Олег Максимов,1994,56,47.35,60,65,-70,65,65,M,Open,B,Single-ply
13,Aleksandr Shipilov,Александр Шипилов,1995,56,45.6,52.5,55,-57.5,55,55,M,Open,B,Single-ply
1,Konstantin Pavlov,Константин Павлов,1973,60,60,170,180,185,185,185,M,Open,B,Single-ply
2,Nikolay Pochinkin,Николай Починкин,1985,60,58.35,140,145,150,150,150,M,Open,B,Single-ply
3,Dmitriy Chebotarev,Дмитрий Чеботарев,1989,60,60,-130,130,140,140,140,M,Open,B,Single-ply
4,Vitaliy Leontev,Виталий Леонтьев,1992,60,59.9,125,-135,-135,125,125,M,Open,B,Single-ply
5,Vladimir Prazdnikov,Владимир Праздников,1994,60,59.4,100,105,-110,105,105,M,Open,B,Single-ply
1,Aleksandr Tsirulnikov,Александр Цирульников,1981,67.5,66.85,170,175,-185,175,175,M,Open,B,Single-ply
2,Pavel Nikolovskiy,Павел Николовский,1978,67.5,65.7,160,165,-175,165,165,M,Open,B,Single-ply
3,Aleksandr Serenko,Александр Серенко,1988,67.5,66.5,155,162.5,-170,162.5,162.5,M,Open,B,Single-ply
4,Dmitriy Alypov,Дмитрий Алыпов,1992,67.5,64.9,135,140,-147.5,140,140,M,Open,B,Single-ply
5,Igor Polozhechnikov,Игорь Положечников,1991,67.5,66.35,130,135,-137.5,135,135,M,Open,B,Single-ply
6,Anatoliy Shkalovoy,Анатолий Шкаловой,1993,67.5,66.85,122.5,125,-127.5,125,125,M,Open,B,Single-ply
1,Aleksandr Zolov,Александр Золов,1980,75,74.75,215,225,232.5,232.5,232.5,M,Open,B,Single-ply
2,Aleksandr Sharagashev,Александр Шарагашев,1986,75,73.65,210,220,-230,220,220,M,Open,B,Single-ply
3,Denis Zarapov,Денис Зарапов,1986,75,74.65,200,210,215,215,215,M,Open,B,Single-ply
4,Maksim Beloborodov,Максим Белобородов,1983,75,74.95,205,210,-212.5,210,210,M,Open,B,Single-ply
5,Evgeniy Yatsyuk,Евгений Яцюк,1986,75,74.9,195,-202.5,205,205,205,M,Open,B,Single-ply
6,Mikhail Melekhin,Михаил Мелехин,1978,75,74.75,190,-195,200,200,200,M,Open,B,Single-ply
7,Sergey Trishunkin,Сергей Тришункин,1983,75,75,190,195,200,200,200,M,Open,B,Single-ply
8,Mikhail Suvorov,Михаил Суворов,1988,75,74.55,180,-190,190,190,190,M,Open,B,Single-ply
9,Vasiliy Babinov,Василий Бабинов,1990,75,71.25,-160,160,-180,160,160,M,Open,B,Single-ply
10,Vitaliy Golubev,Виталий Голубев,1991,75,73.15,150,-155,155,155,155,M,Open,B,Single-ply
11,Yuriy Alsufev,Юрий Алсуфьев,1992,75,70.6,125,130,135,135,135,M,Open,B,Single-ply
12,Kirill Bolotov,Кирилл Болотов,1996,75,68.45,90,100,105,105,105,M,Open,B,Single-ply
13,Vasiliy Kozin,Василий Козин,1994,75,74.3,95,-100,-105,95,95,M,Open,B,Single-ply
1,Sergey Potapenko,Сергей Потапенко,1969,82.5,80.2,212.5,220,230,230,230,M,Open,B,Single-ply
2,Dmitry Inzarkin,Дмитрий Инзаркин,1987,82.5,82.5,230,-240,-240,230,230,M,Open,B,Single-ply
3,Denis Romanovich,Денис Романович,1989,82.5,81.3,-220,220,225,225,225,M,Open,B,Single-ply
4,Andrey Bukreev,Андрей Букреев,1975,82.5,80,205,210,-215,210,210,M,Open,B,Single-ply
5,Nikolay Bulatov,Николай Булатов,1986,82.5,81.35,202.5,-212.5,-217.5,202.5,202.5,M,Open,B,Single-ply
6,Denis Seryapin,Денис Серяпин,1986,82.5,82.2,190,-195,200,200,200,M,Open,B,Single-ply
7,Igor Sosnin,Игорь Соснин,1986,82.5,82,190,-200,-200,190,190,M,Open,B,Single-ply
8,Andrey Ryzhkov,Андрей Рыжков,1992,82.5,79.75,170,-180,185,185,185,M,Open,B,Single-ply
9,Evgeniy Berdnikov,Евгений Бердников,1991,82.5,81.25,165,-175,182.5,182.5,182.5,M,Open,B,Single-ply
10,Valeriy Borovikov,Валерий Боровиков,1992,82.5,82.35,170,-182.5,182.5,182.5,182.5,M,Open,B,Single-ply
11,Anton Sergeev,Антон Сергеев,1989,82.5,81.6,180,-190,-190,180,180,M,Open,B,Single-ply
12,Denis Zhevlakov,Денис Жевлаков,1989,82.5,79.6,150,160,167.5,167.5,167.5,M,Open,B,Single-ply
1,Dmitriy Gaak,Дмитрий Гаак,1981,90,88.2,-220,-220,220,220,220,M,Open,B,Single-ply
2,Ovik Margaryan,Овик Маргарян,1985,90,87.15,-200,200,210,210,210,M,Open,B,Single-ply
3,Evgeniy Shcherbik,Евгений Щербик,1988,90,89.15,-180,-180,200,200,200,M,Open,B,Single-ply
4,Vyacheslav Blinov,Вячеслав Блинов,1987,90,86.85,190,195,-200,195,195,M,Open,B,Single-ply
5,Sergey Degtyarev,Сергей Дегтярев,1992,90,86.8,180,187.5,192.5,192.5,192.5,M,Open,B,Single-ply
6,Aleksandr Tovpenets,Александр Товпенец,1989,90,83.3,-180,-180,180,180,180,M,Open,B,Single-ply
7,Dmitriy Pavlov,Дмитрий Павлов,1982,90,88.85,180,-192.5,-195,180,180,M,Open,B,Single-ply
8,Aleksandr Zhmakin,Александр Жмакин,1987,90,89.05,180,-185,-190,180,180,M,Open,B,Single-ply
9,Igor Krivosheev,Игорь Кривошеев,1995,90,83.6,-90,90,100,100,100,M,Open,B,Single-ply
1,Artem Nechaev,Артем Нечаев,1985,100,99.95,240,250,-257.5,250,250,M,Open,B,Single-ply
2,Arkadiy Pechenin,Аркадий Печенин,1976,100,99.45,240,245,-255,245,245,M,Open,B,Single-ply
3,Fedor Opolev,Федор Ополев,1973,100,99.95,-230,-240,242.5,242.5,242.5,M,Open,B,Single-ply
4,Vladislav Makeev,Владислав Макеев,1979,100,98.85,230,240,-245,240,240,M,Open,B,Single-ply
5,Konstantin Elshin,Константин Ельшин,1986,100,99.3,220,230,-242.5,230,230,M,Open,B,Single-ply
6,Igor Ananin,Игорь Ананьин,1989,100,99.55,190,202.5,205,205,205,M,Open,B,Single-ply
7,Danil Popov,Данил Попов,1988,100,95.25,192.5,202.5,-210,202.5,202.5,M,Open,B,Single-ply
1,Yuriy Pudikov,Юрий Пудиков,1982,110,108,240,250,252.5,252.5,252.5,M,Open,B,Single-ply
2,Dmitriy Batrakov,Дмитрий Батраков,1976,110,106.55,225,235,250,250,250,M,Open,B,Single-ply
3,Aleksey Valeev,Алексей Валеев,1987,110,109.8,205,210,220,220,220,M,Open,B,Single-ply
4,Viktor Prisyazhnyuk,Виктор Присяжнюк,1976,110,105.25,-200,200,-220,200,200,M,Open,B,Single-ply
5,Evgeniy Savchenko,Евгений Савченко,1993,110,103.25,110,120,-130,120,120,M,Open,B,Single-ply
1,Denis Bukhtoyarov,Денис Бухтояров,1980,125,120.65,270,-280,-280,270,270,M,Open,B,Single-ply
2,Oleg Bokarev,Олег Бокарев,1965,125,115.15,240,247.5,-255,247.5,247.5,M,Open,B,Single-ply
3,Dmitriy Kotov,Дмитрий Котов,1976,125,114.25,240,-255,-255,240,240,M,Open,B,Single-ply
4,Andrey Kudrin,Андрей Кудрин,1973,125,122.5,230,240,-257.5,240,240,M,Open,B,Single-ply
5,Vitaliy Kirdanov,Виталий Кирданов,1976,125,124.15,220,-230,-230,220,220,M,Open,B,Single-ply
6,Aleksey Demchenko,Алексей Демченко,1988,125,121.95,-170,170,-180,170,170,M,Open,B,Single-ply
1,Aleksey Mikhalev,Алексей Михалев,1984,125+,144.3,255,265,-275,265,265,M,Open,B,Single-ply
2,Sergey Kushchev,Сергей Кущев,1967,125+,146.15,230,240,250,250,250,M,Open,B,Single-ply
3,Aleksandr Bogatyrev,Александр Богатырев,1950,125+,125.5,190,200,210,210,210,M,Open,B,Single-ply
