Division,WeightClassKg,Place,Name,Team,BodyweightKg,Best3SquatKg,Best3BenchKg,Best3DeadliftKg,TotalKg,Equipment,Event,Sex
Girls,44.23,1,Lexie Reyes,Plainview,43.82,90.72,38.56,83.91,213.19,Single-ply,SBD,F
Girls,44.23,2,Angel Ramos #1,Plainview,42.82,65.77,40.82,70.31,176.9,Single-ply,SBD,F
Girls,44.23,DQ,Janet Becerril,Perryton,44,,,,,Single-ply,SBD,F
Girls,44.23,DQ,Estefania Espino,Perryton,44,,,,,Single-ply,SBD,F
Girls,44.23,DQ,Monica Hernandez,Dumas,44,,,,,Single-ply,SBD,F
Girls,47.85,1,Jordan Ramirez,Levelland,44.36,102.06,52.16,99.79,254.01,Single-ply,SBD,F
Girls,47.85,2,Marissa Godino,Hart,47.17,81.65,52.16,97.52,231.33,Single-ply,SBD,F
Girls,47.85,3,Laney Medrano,Dimmitt,45.81,68.04,49.9,95.25,213.19,Single-ply,SBD,F
Girls,47.85,4,Natalie Perez,Plainview,45.81,70.31,29.48,81.65,181.44,Single-ply,SBD,F
Girls,47.85,DQ,Sage Landeros,Plainview,45.72,86.18,,,,Single-ply,SBD,F
Girls,47.85,DQ,Ryan Araujo,Lockney,47.63,,,,,Single-ply,SBD,F
Girls,47.85,DQ,Mariana Gallegos,Dumas,47.63,,,,,Single-ply,SBD,F
Girls,47.85,DQ,Evelyn Ibarra,Dumas,47.63,,,,,Single-ply,SBD,F
Girls,51.94,1,Zharia Childers,Seagraves,51.71,97.52,54.43,97.52,249.48,Single-ply,SBD,F
Girls,51.94,2,Alyssa Gutierrez,Lockney,50.35,72.57,43.09,90.72,206.38,Single-ply,SBD,F
Girls,51.94,3,Shelby Dawson,Amarillo Highland Park,48.44,74.84,36.29,83.91,195.04,Single-ply,SBD,F
Girls,51.94,DQ,Carmen Gonzales,Amarillo Highland Park,50.71,79.38,36.29,,,Single-ply,SBD,F
Girls,51.94,DQ,Jennifer Munoz,Plainview,49.62,54.43,,,,Single-ply,SBD,F
Girls,51.94,DQ,Karen Becerril,Perryton,51.71,,,,,Single-ply,SBD,F
Girls,51.94,DQ,Kereny Hernandez,Perryton,51.71,,,,,Single-ply,SBD,F
Girls,51.94,DQ,Vanessa Castillo,Dumas,51.71,,,,,Single-ply,SBD,F
Girls,56.02,1,Bryannah Minjarez,Seagraves,55.25,102.06,52.16,117.93,272.16,Single-ply,SBD,F
Girls,56.02,2,Alyssa Barretero,Lockney,54.34,68.04,24.95,79.38,172.37,Single-ply,SBD,F
Girls,56.02,DQ,Esperanza Salazar,Hart,54.88,54.43,,,,Single-ply,SBD,F
Girls,56.02,DQ,Anissa Porras,Plainview,53.52,,,,,Single-ply,SBD,F
Girls,56.02,DQ,Alicia Monreal,Perryton,55.79,,,,,Single-ply,SBD,F
Girls,56.02,DQ,Makaylah Casanova,Dumas,55.79,,,,,Single-ply,SBD,F
Girls,60.1,1,Bianca Jimenez,Dimmitt,58.97,106.59,63.5,106.59,276.69,Single-ply,SBD,F
Girls,60.1,2,Karisa Minjarez,Seagraves,58.51,90.72,43.09,95.25,229.06,Single-ply,SBD,F
Girls,60.1,3,Kaitlynn Whipple,Levelland,58.88,86.18,34.02,99.79,219.99,Single-ply,SBD,F
Girls,60.1,DQ,Angela Banda,Plainview,58.06,,,,,Single-ply,SBD,F
Girls,60.1,DQ,Cinthia Ramirez,Plainview,58.97,99.79,,,,Single-ply,SBD,F
Girls,60.1,DQ,Nallely Ramirez,Perryton,59.87,,,,,Single-ply,SBD,F
Girls,60.1,DQ,Rosealy Chavira,Dumas,59.87,,,,,Single-ply,SBD,F
Girls,67.36,1,Allyson Solis,Plainview,64.32,102.06,61.23,129.27,292.57,Single-ply,SBD,F
Girls,67.36,2,Andrea Cuevas,Dimmitt,64.86,113.4,61.23,108.86,283.5,Single-ply,SBD,F
Girls,67.36,3,Harli Estes,Bushland,65.77,92.99,52.16,106.59,251.74,Single-ply,SBD,F
Girls,67.36,4,Katelyn Ochoa,Levelland,65.68,90.72,45.36,102.06,238.14,Single-ply,SBD,F
Girls,67.36,5,Cinthya Munoz,Levelland,63.5,72.57,49.9,97.52,219.99,Single-ply,SBD,F
Girls,67.36,6,Celestina Salazar,Hart,60.78,61.23,36.29,81.65,179.17,Single-ply,SBD,F
Girls,67.36,DQ,Anastasia Espinosa,Plainview,65.23,102.06,,,,Single-ply,SBD,F
Girls,67.36,DQ,Jade Perez,Lubbock Coronado,67.13,,,,,Single-ply,SBD,F
Girls,67.36,DQ,Zaira Navarrete,Perryton,67.13,,,,,Single-ply,SBD,F
Girls,67.36,DQ,Nayeli Miranda,Perryton,67.13,,,,,Single-ply,SBD,F
Girls,67.36,DQ,Vanessa Hernandez,Perryton,67.13,,,,,Single-ply,SBD,F
Girls,67.36,DQ,Hope Bargas,Dumas,67.13,,,,,Single-ply,SBD,F
Girls,67.36,DQ,Clarissa Hernandez,Dimmitt,67.13,,,,,Single-ply,SBD,F
Girls,75.07,1,Stephanie Avalos,Lubbock Cooper,72.48,136.08,61.23,124.74,322.05,Single-ply,SBD,F
Girls,75.07,2,Kaylynn Gonzales,Lubbock Coronado,74.84,124.74,70.31,124.74,319.78,Single-ply,SBD,F
Girls,75.07,3,Briana Jimenez,Dimmitt,71.58,106.59,52.16,108.86,267.62,Single-ply,SBD,F
Girls,75.07,DQ,Marissa Salinas,Lubbock Coronado,73.84,,,,,Single-ply,SBD,F
Girls,75.07,DQ,Jasmine Rodriguez,Plainview,70.94,165.56,,,,Single-ply,SBD,F
Girls,75.07,DQ,Claire Currie,Wolfforth Frenship,69.85,115.67,63.5,,,Single-ply,SBD,F
Girls,75.07,DQ,Thalia Perez,Lubbock Coronado,74.84,,,,,Single-ply,SBD,F
Girls,75.07,DQ,Kyla Clark,Dumas,74.84,,,,,Single-ply,SBD,F
Girls,82.33,1,Sarah Oltivero,Dimmitt,78.83,158.76,70.31,138.35,367.41,Single-ply,SBD,F
Girls,82.33,2,Hannah Tyson,Wolfforth Frenship,82.1,106.59,43.09,136.08,285.76,Single-ply,SBD,F
Girls,82.33,3,Alexis Ponder,Plainview,80.2,111.13,52.16,108.86,272.16,Single-ply,SBD,F
Girls,82.33,4,M'Kenzi Campbell,Levelland,75.3,99.79,61.23,104.33,265.35,Single-ply,SBD,F
Girls,82.33,5,Brooke Garza,Seagraves,78.47,92.99,47.63,111.13,251.74,Single-ply,SBD,F
Girls,82.33,6,Mariah Lopez,Lubbock Coronado,79.74,83.91,45.36,99.79,229.06,Single-ply,SBD,F
Girls,82.33,7,Destiny Soliz,Lockney,77.56,81.65,47.63,90.72,219.99,Single-ply,SBD,F
Girls,82.33,8,Kali Copeland,Levelland,78.83,79.38,43.09,97.52,219.99,Single-ply,SBD,F
Girls,82.33,DQ,Tatum Shagula,Lubbock Coronado,82.1,117.93,,,,Single-ply,SBD,F
Girls,82.33,DQ,Brandi Christian,Perryton,82.1,,,,,Single-ply,SBD,F
Girls,82.33,DQ,Alexis Lafever,Dumas,82.1,,,,,Single-ply,SBD,F
Girls,82.33,DQ,Mariana Loya,Dumas,82.1,,,,,Single-ply,SBD,F
Girls,82.33,DQ,Arlene Ramos,Dumas,82.1,,,,,Single-ply,SBD,F
Girls,82.33,DQ,Vanessa Ramirez,Childress,82.1,,,,,Single-ply,SBD,F
Girls,90.04,1,Saron Mendoza,Levelland,83.91,140.61,79.38,142.88,362.87,Single-ply,SBD,F
Girls,90.04,2,Reina Vargas,Levelland,84.37,120.2,65.77,120.2,306.17,Single-ply,SBD,F
Girls,90.04,3,Storey Muse,Wolfforth Frenship,84.73,106.59,49.9,117.93,274.42,Single-ply,SBD,F
Girls,90.04,DQ,Madison Zacardo,Lubbock Coronado,87.91,,,,,Single-ply,SBD,F
Girls,90.04,DQ,Emily Collins,Plainview,84.28,142.88,,,,Single-ply,SBD,F
Girls,90.04,DQ,McKenzie Cristan,Lubbock Coronado,89.81,,,,,Single-ply,SBD,F
Girls,90.04,DQ,Crystal Gutirrez,Perryton,89.81,,,,,Single-ply,SBD,F
Girls,90.04,DQ,Ester Chavez,Dumas,89.81,,,,,Single-ply,SBD,F
Girls,90.04,DQ,Daisy Martinez,Dumas,89.81,,,,,Single-ply,SBD,F
Girls,90.04,DQ,Ysenia Martinez,Dumas,89.81,,,,,Single-ply,SBD,F
Girls,100.02,1,Sirena Minjarez,Seagraves,93.89,181.44,99.79,167.83,449.06,Single-ply,SBD,F
Girls,100.02,2,Yasmin Dominguez,Plainview,96.89,151.95,63.5,142.88,358.34,Single-ply,SBD,F
Girls,100.02,DQ,Jolee Sierra,Lubbock Coronado,99.79,,,,,Single-ply,SBD,F
Girls,117.71,1,Alexis Gutierrez,Seagraves,103.42,122.47,65.77,131.54,319.78,Single-ply,SBD,F
Girls,117.71,2,Megan Hartline,Wolfforth Frenship,102.06,120.2,56.7,136.08,312.98,Single-ply,SBD,F
Girls,117.71,DQ,Irma Rodriguez,Perryton,117.48,,,,,Single-ply,SBD,F
Girls,117.71,DQ,Priscilla Zamarron,Dumas,117.48,,,,,Single-ply,SBD,F
Girls,117.71+,1,Mikala Arizmendi,Dimmitt,137.35,181.44,81.65,167.83,430.91,Single-ply,SBD,F
Girls,117.71+,2,Qu'Vonna Tealer,Levelland,154.58,138.35,65.77,124.74,328.85,Single-ply,SBD,F
Girls,117.71+,DQ,Leslie Mendoza,Dumas,117.93,,,,,Single-ply,SBD,F
