Name,Sex,Equipment,BodyweightKg,WeightClassKg,Division,Squat1Kg,Squat2Kg,Squat3Kg,Best3SquatKg,Bench1Kg,Bench2Kg,Bench3Kg,Best3BenchKg,Deadlift1Kg,Deadlift2Kg,Deadlift3Kg,Best3DeadliftKg,TotalKg,Event,AgeRange,Place
Rakib Abdul,M,Raw,64.3,66,M-C-Open,100,105,110,110,70,75,77.5,77.5,120,130,140,140,327.5,SBD,23.5-38.5,1
Jamie Payne,M,Raw,73.45,74,M-C-Open,160,170,180,180,115,122.5,-130,122.5,185,195,205,205,507.5,SBD,23.5-38.5,1
Ben Kyriakou,M,Raw,71.9,74,M-C-Open,160,170,180,180,95,105,110,110,190,200,210,210,500,SBD,23.5-38.5,2
Andrew Johnston,M,Raw,71.5,74,M-C-Open,150,160,162.5,162.5,90,100,105,105,190,210,225,225,492.5,SBD,23.5-38.5,3
Ben Streatfield,M,Raw,72.6,74,M-C-Open,160,170,-180,170,95,102.5,-107.5,102.5,190,-200,-200,190,462.5,SBD,23.5-38.5,4
Daniel Farrugia,M,Raw,72.6,74,M-C-Open,120,135,140,140,90,100,105,105,155,170,180,180,425,SBD,23.5-38.5,5
Luke Wells,M,Raw,73.2,74,M-C-Open,115,-120,125,125,90,95,-100,95,150,165,180,180,400,SBD,23.5-38.5,6
James Blanchard,M,Raw,82.5,83,M-C-Open,215,225,230,230,140,145,-150,145,215,225,-230,225,600,SBD,23.5-38.5,1
Rob Jaye,M,Raw,81.1,83,M-C-Open,180,-190,-190,180,140,147.5,-150,147.5,200,210,-215,210,537.5,SBD,23.5-38.5,2
Oliver Helm,M,Raw,80.5,83,M-C-Open,190,200,-205,200,95,105,110,110,-200,200,215,215,525,SBD,23.5-38.5,3
Mark Webster,M,Raw,79,83,M-C-Open,175,-185,-185,175,125,-127.5,-127.5,125,200,-207.5,-207.5,200,500,SBD,23.5-38.5,4
Simon Passey,M,Raw,81.45,83,M-C-Open,165,175,185,185,105,112.5,-120,112.5,180,190,200,200,497.5,SBD,23.5-38.5,5
Ryan Beeson,M,Raw,82,83,M-C-Open,150,160,-170,160,95,100,-105,100,180,200,-212.5,200,460,SBD,23.5-38.5,6
Thomas Hall,M,Raw,80.75,83,M-C-Open,145,157.5,-170,157.5,100,107.5,-115,107.5,185,-200,-200,185,450,SBD,23.5-38.5,7
James Gill,M,Raw,81,83,M-C-Open,-130,130,140,140,110,115,-125,115,175,185,195,195,450,SBD,23.5-38.5,8
Ben Goodman,M,Raw,79.3,83,M-C-Open,142.5,150,155,155,92.5,97.5,102.5,102.5,165,175,182.5,182.5,440,SBD,23.5-38.5,9
Richard Perfield,M,Raw,88.4,93,M-C-Open,210,220,227.5,227.5,165,-175,-175,165,240,255,265,265,657.5,SBD,23.5-38.5,1
Harry Grove,M,Raw,91.1,93,M-C-Open,215,225,-235,225,130,137.5,-142.5,137.5,255,272.5,-283,272.5,635,SBD,23.5-38.5,2
Ryan Godding,M,Raw,90.85,93,M-C-Open,190,205,-217.5,205,125,135,145,145,240,265,-275,265,615,SBD,23.5-38.5,3
Joe Van der Toorn,M,Raw,90.4,93,M-C-Open,190,205,215,215,115,122.5,130,130,235,245,255,255,600,SBD,23.5-38.5,4
Owen Morgan,M,Raw,91,93,M-C-Open,185,195,202.5,202.5,130,135,140,140,245,257.5,-275,257.5,600,SBD,23.5-38.5,5
Drew Blackman,M,Raw,92.5,93,M-C-Open,190,205,-217.5,205,135,145,-150,145,200,220,235,235,585,SBD,23.5-38.5,6
Jamie Pearce,M,Raw,91.1,93,M-C-Open,185,195,-205,195,122.5,127.5,135,135,205,212.5,222.5,222.5,552.5,SBD,23.5-38.5,7
Ian Chapman,M,Raw,92.05,93,M-C-Open,160,170,180,180,110,117.5,122.5,122.5,200,210,220,220,522.5,SBD,23.5-38.5,8
David Cole,M,Raw,90.55,93,M-C-Open,145,155,165,165,100,112.5,120,120,175,190,205,205,490,SBD,23.5-38.5,9
Michael Goodwin,M,Raw,99.9,105,M-C-Open,212.5,222.5,232.5,232.5,150,157.5,165,165,240,252.5,265,265,662.5,SBD,23.5-38.5,1
David Downs,M,Raw,102.9,105,M-C-Open,215,225,-230,225,137.5,145,150,150,250,260,-273,260,635,SBD,23.5-38.5,2
George Souter,M,Raw,98.5,105,M-C-Open,210,220,-230,220,150,-160,-160,150,240,-250,250,250,620,SBD,23.5-38.5,3
Gary Langton,M,Raw,98.95,105,M-C-Open,205,217.5,220,220,130,140,-145,140,232.5,245,250,250,610,SBD,23.5-38.5,4
Liam Tye,M,Raw,95.6,105,M-C-Open,195,205,210,210,115,122.5,127.5,127.5,210,220,225,225,562.5,SBD,23.5-38.5,5
Alex Beevis,M,Raw,102.1,105,M-C-Open,160,170,-182.5,170,142.5,150,155,155,200,220,235,235,560,SBD,23.5-38.5,6
Paul Dawson,M,Raw,94.9,105,M-C-Open,170,177.5,185,185,120,127.5,135,135,215,225,235,235,555,SBD,23.5-38.5,7
Sergio Stelitano,M,Raw,102.5,105,M-C-Open,150,165,-180,165,100,115,125,125,170,190,-205,190,480,SBD,23.5-38.5,8
Reggie Smith,M,Raw,117,120,M-C-Open,220,240,-260,240,160,175,185.5,185.5,220,240,260,260,685.5,SBD,23.5-38.5,1
Joseph Buckton,M,Raw,106.5,120,M-C-Open,195,210,212.5,212.5,132.5,142.5,145,145,205,227.5,230,230,587.5,SBD,23.5-38.5,2
George Fisher,M,Raw,111.2,120,M-C-Open,190,200,207.5,207.5,107.5,112.5,117.5,117.5,210,220,225,225,550,SBD,23.5-38.5,3
Matthew Ward,M,Raw,110.9,120,M-C-Open,192.5,205,-215,205,120,-127.5,,120,210,-235,,210,535,SBD,23.5-38.5,4
Oliver Millen,M,Raw,140.99,120+,M-C-Open,195,-205,-205,195,135,145,150,150,240,-250,,240,585,SBD,23.5-38.5,1
Bernard Cunningham,M,Raw,105.5,120,M-C-M4,-60,-60,60,60,50,52.5,55,55,120,127.5,130,130,245,SBD,69.5-999,1
Doug Graham,M,Raw,74,74,M-C-M3,-117.5,-122.5,122.5,122.5,70,-75,-75,70,155,-165,-165,155,347.5,SBD,59.5-68.5,1
Malcolm Bainbridge,M,Single-ply,66.45,74,M-E-M4,105,115,-125,115,65,70,-75,70,155,170,180,180,365,SBD,69.5-999,1
Peter Barrett,M,Raw,64.3,66,M-C-M4,-95,95,100,100,65,67.5,-70,67.5,155,170,-180,170,337.5,SBD,69.5-999,1
James Gordon,M,Raw,109.1,120,M-C-M1,162.5,170,,170,130,-137.5,137.5,137.5,195,205,-212.5,205,512.5,SBD,39.5-48.5,1
Mick Ellender,M,Single-ply,90.6,93,M-E-M4,145,155,-165,155,110,120,125,125,205,220,-230,220,500,SBD,69.5-999,1
Steve Porter,M,Raw,115,120,M-C-M2,-200,200,-212.5,200,135,-140,140,140,-200,,,,,SBD,49.5-58.5,DQ
Lee Richards,M,Raw,135.9,120+,M-C-M1,,,,,170,180,-190,180,,,,,180,B,39.5-48.5,1
Thomas Wright,M,Raw,70.2,74,M-C-U18,105,110,115,115,92.5,97.5,-100,97.5,120,135,150,150,362.5,SBD,0-17.5,5
Alexander Kolliari-Turner,M,Raw,72.55,74,M-C-U23,115,125,132.5,132.5,75,80,85,85,130,140,147.5,147.5,365,SBD,0-22.5,3
Lucas Sedgwick,M,Raw,69.5,74,M-C-U18,102.5,-107.5,-107.5,102.5,65,70,72.5,72.5,130,135,140,140,315,SBD,0-17.5,6
Nathan Reeve,M,Raw,64.85,66,M-C-U18,92.5,97.5,102.5,102.5,62.5,65,-67.5,65,130,135,142.5,142.5,310,SBD,0-17.5,1
James Coleman,M,Raw,67.95,74,M-C-U18,-130,135,142.5,142.5,80,90,95,95,145,155,-162.5,155,392.5,SBD,0-17.5,3
Harrison Wall,M,Raw,71,74,M-C-U18,130,135,-137.5,135,80,85,87.5,87.5,150,155,,155,377.5,SBD,0-15.5,4
Craig Prickett,M,Raw,72.45,74,M-C-U23,-120,125,-132.5,125,90,95,-100,95,155,-165,-165,155,375,SBD,0-22.5,2
Will Skinner,M,Raw,70.4,74,M-C-U18,125,137.5,147.5,147.5,72.5,80,-85,80,180,195,205,205,432.5,SBD,0-17.5,2
Anthony Ramsbottom,M,Raw,72.15,74,M-C-U18,140,152.5,-162.5,152.5,80,90,-102.5,90,180,192.5,202.5,202.5,445,SBD,0-17.5,1
Marshal Packer,M,Raw,81.65,83,M-C-U18,160,170,180,180,90,100,-106,100,180,190,210,210,490,SBD,0-15.5,1
Bradley May,M,Raw,116.2,120,M-C-U18,225,237.5,250,250,132.5,137.5,-142.5,137.5,245,262.5,-267.5,262.5,650,SBD,0-17.5,1
Christian Larman,M,Raw,118.3,120,M-C-U23,140,150,160,160,82.5,87.5,92.5,92.5,170,180,190,190,442.5,SBD,0-22.5,2
Robert Flashman,M,Raw,92.3,93,M-C-U23,150,160,167.5,167.5,100,110,-120,110,180,200,-205,200,477.5,SBD,0-22.5,4
Jack Clayton,M,Raw,98.2,105,M-C-U23,170,185,-200,185,130,142.5,-152.5,142.5,190,210,227.5,227.5,555,SBD,0-22.5,3
Adam Jones #3,M,Raw,87.1,93,M-C-U23,170,175,182.5,182.5,105,107.5,-112.5,107.5,210,215,220,220,510,SBD,0-22.5,3
Thomas Smith,M,Raw,91.4,93,M-C-U23,170,180,185,185,130,132.5,140,140,210,225,235,235,560,SBD,0-22.5,2
Ben Glasscock,M,Raw,103.8,105,M-C-U23,195,-215,-215,195,95,102.5,-110,102.5,210,225,235,235,532.5,SBD,0-22.5,4
Daniel Fletcher,M,Raw,115.4,120,M-C-U23,195,205,212.5,212.5,127.5,135,-140,135,220,230,-240,230,577.5,SBD,0-22.5,1
Joey Watson,M,Raw,104.8,105,M-C-U23,210,-217.5,217.5,217.5,160,-165,-165,160,250,260,275,275,652.5,SBD,0-22.5,2
Edwin Bree-Martin,M,Raw,104.6,105,M-C-U23,240,250,-260,250,147.5,-155,,147.5,250,260,-272.5,260,657.5,SBD,0-22.5,1
Diddy Cridland,M,Raw,133.2,120+,M-C-U23,,,,,135,140,145,145,,,,,145,B,0-22.5,1
Luka Smyth,M,Raw,78.2,83,M-C-U23,125,135,140,140,75,80,85,85,135,145,155,155,380,SBD,0-22.5,8
Brian Tai Yue Xiang,M,Raw,71.7,74,M-C-U23,140,150,160,160,80,85,90,90,160,170,182.5,182.5,432.5,SBD,0-22.5,1
Ben Ayling,M,Raw,81.8,83,M-C-U23,135,145,155,155,95,102.5,-105,102.5,160,180,-200,180,437.5,SBD,0-22.5,7
Elliot Rolfe,M,Raw,103.8,105,M-C-U23,155,-170,170,170,77.5,87.5,-92.5,87.5,170,187.5,200,200,457.5,SBD,0-22.5,6
Lewis Fisher,M,Raw,78,83,M-C-U23,150,160,170,170,115,120,125,125,185,187.5,197.5,197.5,492.5,SBD,0-22.5,6
Dan Magee,M,Raw,81.85,83,M-C-U23,165,175,-185,175,120,130,132.5,132.5,190,210,-220,210,517.5,SBD,0-22.5,4
Sebastian Biggins,M,Raw,80.5,83,M-C-U23,180,195,-202.5,195,110,115,120,120,190,200,205,205,520,SBD,0-22.5,3
Henry Easthope,M,Raw,81.55,83,M-C-U23,-175,175,190,190,105,115,-120,115,205,220,230,230,535,SBD,0-22.5,1
Edgar Felix Glover,M,Raw,82.2,83,M-C-U23,160,175,-180,175,90,95,-100,95,210,220,235,235,505,SBD,0-22.5,5
Wong Kwang Ik,M,Raw,78,83,M-C-U23,175,-185,-185,175,120,-127.5,127.5,127.5,220,-227.5,-232.5,220,522.5,SBD,0-22.5,2
James Balchin,M,Raw,91.5,93,M-C-U23,215,222.5,-227.5,222.5,147.5,155,160,160,220,232.5,245.5,245.5,628,SBD,0-22.5,1
Adam Rochussen,M,Raw,94,105,M-C-U23,165,172.5,-180,172.5,115,122.5,-125,122.5,220,230,235,235,530,SBD,0-22.5,5
Cameron Keyes,M,Raw,116.5,120,M-C-U23,212.5,-225,,212.5,-130,,,,-225,,,,,SBD,0-22.5,DQ
Katie Grove,F,Single-ply,70.4,72,F-E-Open,140,160,170,170,60,65,-70,65,150,165,,165,400,SBD,23.5-38.5,1
Sue Burrows-Meaney,F,Raw,70.6,72,F-C-M1,110,-115,-115,110,55,57.5,-60,57.5,120,130,135,135,302.5,SBD,39.5-48.5,1
Kristina March,F,Raw,55.22,57,F-C-Open,87.5,97.5,-102.5,97.5,62.5,67.5,-70,67.5,135,142.5,145,145,310,SBD,23.5-38.5,1
Danielle Summers,F,Raw,56.4,57,F-C-Open,75,85,-90,85,37.5,42.5,-45,42.5,85,92.5,95,95,222.5,SBD,23.5-38.5,2
Harriet Milligan,F,Raw,59.7,63,F-C-Open,95,102.5,-107.5,102.5,45,50,55,55,125,132.5,137.5,137.5,295,SBD,23.5-38.5,1
Ana Rojo,F,Raw,60.75,63,F-C-Open,75,-82.5,82.5,82.5,40,47.5,-52.5,47.5,100,110,-120,110,240,SBD,23.5-38.5,2
Beth Mitchell,F,Raw,60.4,63,F-C-Open,50,55,60,60,25,27.5,30,30,80,85,87.5,87.5,177.5,SBD,23.5-38.5,3
Natasha Oxford,F,Raw,59.5,63,F-C-Open,,,,,,,,,115,125,-132.5,125,125,D,23.5-38.5,1
Susanna Argile,F,Raw,71,72,F-C-Open,-127.5,132.5,145,145,85,90,92.5,92.5,130,150,155,155,392.5,SBD,23.5-38.5,1
Emily Williams,F,Raw,71.75,72,F-C-Open,122.5,132.5,140,140,60,62.5,65,65,130,140,150,150,355,SBD,23.5-38.5,2
Kenlyn Stewart,F,Raw,71.5,72,F-C-Open,100,107.5,112.5,112.5,50,55,57.5,57.5,125,132.5,140,140,310,SBD,23.5-38.5,3
Lisa Bacon,F,Raw,68.55,72,F-C-Open,107.5,115,-122.5,115,60,65,67.5,67.5,115,-125,-125,115,297.5,SBD,23.5-38.5,4
Kim Diaper,F,Raw,70.6,72,F-C-Open,90,100,-110,100,47.5,52.5,-55,52.5,110,120,-130,120,272.5,SBD,23.5-38.5,5
Katya Vezzadini,F,Raw,72.2,84,F-C-Open,90,-97.5,102.5,102.5,50,55,-60,55,110,122.5,130,130,287.5,SBD,23.5-38.5,1
Jade Beeson,F,Raw,73.4,84,F-C-Open,-80,80,-90,80,45,50,55,55,100,110,115,115,250,SBD,23.5-38.5,2
Diana Miscenko,F,Raw,78.6,84,F-C-Open,75,80,85,85,37.5,40,-42.5,40,90,97.5,102.5,102.5,227.5,SBD,23.5-38.5,3
Julie Rider,F,Raw,96.9,84+,F-C-Open,90,100,120,120,-102.5,102.5,107.5,107.5,150,170,180,180,407.5,SBD,23.5-38.5,1
Scarlett Sotiris,F,Raw,85.9,84+,F-C-Open,120,125,-127.5,125,60,67.5,-75,67.5,160,170,175,175,367.5,SBD,23.5-38.5,2
Jo Beesley,F,Raw,96.55,84+,F-C-Open,122.5,130,135,135,52.5,57.5,-62.5,57.5,120,130,137.5,137.5,330,SBD,23.5-38.5,3
Hwee Lee Richards,F,Raw,85.7,84+,F-C-Open,110,115,120,120,42.5,47.5,52.5,52.5,107.5,112.5,117.5,117.5,290,SBD,23.5-38.5,4
Chloe Brennan-Card,F,Raw,50.15,52,F-C-U23,-80,80,-90,80,47.5,-50,-50,47.5,95,105,112.5,112.5,240,SBD,0-22.5,1
Lizzie Jones,F,Raw,70.25,72,F-C-U23,82.5,87.5,92.5,92.5,50,-52.5,-52.5,50,107.5,112.5,115,115,257.5,SBD,0-22.5,1
Chloe Evans,F,Raw,82.8,84,F-C-U23,90,100,110,110,47.5,52.5,55,55,110,120,127.5,127.5,292.5,SBD,0-22.5,1
Teneka Walford,F,Raw,92.8,84+,F-C-U23,100,107.5,-112.5,107.5,57.5,62.5,-67.5,62.5,107.5,112.5,-117.5,112.5,282.5,SBD,0-22.5,1
Emily Killick,F,Raw,61.8,63,F-C-U18,95,102.5,-112.5,102.5,40,45,-52.5,45,100,115,130,130,277.5,SBD,0-17.5,1
