Division,WeightClassKg,Place,Name,Team,BodyweightKg,Best3SquatKg,Best3BenchKg,Best3DeadliftKg,TotalKg,Equipment,Event,Sex
Boys,51.71,1,Martin Villareal,Laredo United South,50.89,124.74,63.5,138.35,326.59,Single-ply,SBD,M
Boys,55.79,2,Rafael Morales,Laredo Cigarroa,51.89,102.06,79.38,138.35,319.78,Single-ply,SBD,M
Boys,51.71,3,Jesus Ramirez,Zapata,49.21,61.23,43.09,86.18,190.51,Single-ply,SBD,M
Boys,55.79,1,Enrique Alvarez,Laredo Cigarroa,54.34,183.7,99.79,174.63,458.13,Single-ply,SBD,M
Boys,59.87,2,Virgil Alfaro,Zapata,55.93,142.88,79.38,181.44,403.7,Single-ply,SBD,M
Boys,55.79,3,Robert Barajas,Laredo Martin,54.16,163.29,81.65,149.69,394.63,Single-ply,SBD,M
Boys,55.79,4,Michael Sauceda,Laredo United,53.07,142.88,74.84,154.22,371.95,Single-ply,SBD,M
Boys,55.79,5,Angel Solano,Bruni,54.88,122.47,63.5,154.22,340.19,Single-ply,SBD,M
Boys,55.79,6,David Saenz,Hebbronville,55.7,120.2,70.31,129.27,319.78,Single-ply,SBD,M
Boys,55.79,7,Ivan Guzman,Laredo Martin,54.7,106.59,83.91,127.01,317.51,Single-ply,SBD,M
Boys,55.79,8,Ricky Fonseca,Laredo United,54.98,124.74,52.16,131.54,308.44,Single-ply,SBD,M
Boys,55.79,9,Felipe Medina,Zapata,55.66,117.93,52.16,129.27,299.37,Single-ply,SBD,M
Boys,55.79,10,Randy Castillo,Bruni,52.34,104.33,38.56,113.4,256.28,Single-ply,SBD,M
Boys,67.13,1,Vinny Flores,Zapata,59.96,136.08,104.33,172.37,412.77,Single-ply,SBD,M
Boys,59.87,2,Amado De La Fuente,Laredo United South,56.34,142.88,83.91,158.76,385.55,Single-ply,SBD,M
Boys,67.13,3,Juan Ramos,Hebbronville,60.1,115.67,86.18,163.29,365.14,Single-ply,SBD,M
Boys,67.13,4,Jordy Lagrange,Laredo Martin,59.96,127.01,63.5,124.74,315.25,Single-ply,SBD,M
Boys,59.87,5,Adam Corvera,Falfurrias,59.87,106.59,81.65,120.2,308.44,Single-ply,SBD,M
Boys,59.87,6,Benito Salazar,Carrizo Springs,56.25,111.13,65.77,117.93,294.84,Single-ply,SBD,M
Boys,59.87,7,Josue Valadez,Zapata,59.78,97.52,58.97,133.81,290.3,Single-ply,SBD,M
Boys,67.13,8,Noe Diaz,Falfurrias,59.96,90.72,65.77,113.4,269.89,Single-ply,SBD,M
Boys,59.87,9,Lorenzo Cruz,Carrizo Springs,56.25,77.11,72.57,92.99,242.67,Single-ply,SBD,M
Boys,74.84,1,Danny Flores,Zapata,67.27,192.78,108.86,206.38,508.02,Single-ply,SBD,M
Boys,67.13,2,Rene Molina,Hebbronville,65.32,183.7,97.52,181.44,462.66,Single-ply,SBD,M
Boys,67.13,3,Abram Ramirez,Hebbronville,63.78,170.1,99.79,181.44,451.32,Single-ply,SBD,M
Boys,67.13,4,Edgar Martinez,Laredo Cigarroa,60.87,165.56,90.72,174.63,430.91,Single-ply,SBD,M
Boys,67.13,5,Frank Rubacava,Laredo Cigarroa,65.32,161.03,104.33,161.03,426.38,Single-ply,SBD,M
Boys,67.13,6,David Trinidad,Laredo United South,64.14,142.88,90.72,154.22,387.82,Single-ply,SBD,M
Boys,67.13,7,Jose Gonzalez #19,Laredo Cigarroa,65.05,129.27,79.38,149.69,358.34,Single-ply,SBD,M
Boys,67.13,8,Alexander Villarreal,Laredo Nixon,64.14,122.47,83.91,142.88,349.27,Single-ply,SBD,M
Boys,67.13,9,James Vasquez,Bruni,66.04,115.67,70.31,154.22,340.19,Single-ply,SBD,M
Boys,67.13,10,Steven Moreno,Laredo United,60.6,115.67,63.5,149.69,328.85,Single-ply,SBD,M
Boys,67.13,11,Mike Garcia,Falfurrias,63.68,102.06,77.11,136.08,315.25,Single-ply,SBD,M
Boys,67.13,12,Nicholas Adame,Freer,61.05,90.72,74.84,131.54,297.1,Single-ply,SBD,M
Boys,74.84,13,Jesus Lopez,Zapata,67.27,102.06,68.04,127.01,297.1,Single-ply,SBD,M
Boys,67.13,DQ,Daniel Granados,Laredo Nixon,66.68,163.29,,,,Single-ply,SBD,M
Boys,67.13,DQ,Mando Rodriguez,Falfurrias,64.86,104.33,,,,Single-ply,SBD,M
Boys,74.84,1,Cesar Castillo,Laredo United South,74.75,192.78,120.2,206.38,519.36,Single-ply,SBD,M
Boys,74.84,2,Paul Lopez,Laredo United South,69.4,170.1,120.2,183.7,474,Single-ply,SBD,M
Boys,74.84,3,Edgar Mendiola,Laredo Nixon,71.76,167.83,113.4,185.97,467.2,Single-ply,SBD,M
Boys,74.84,4,Daniel Wells,Laredo Nixon,74.75,170.1,102.06,183.7,455.86,Single-ply,SBD,M
Boys,74.84,5,Eddie Salinas,Laredo Cigarroa,74.12,145.15,111.13,192.78,449.06,Single-ply,SBD,M
Boys,82.1,6,Jerry Rodriguez,Laredo Nixon,75.02,172.37,95.25,181.44,449.06,Single-ply,SBD,M
Boys,82.1,7,Alex Hernandez,Zapata,75.02,170.1,115.67,154.22,439.98,Single-ply,SBD,M
Boys,74.84,8,Alfredo Castillo,Zapata,74.62,147.42,102.06,167.83,417.3,Single-ply,SBD,M
Boys,74.84,9,Mark Morales,Bruni,73.84,165.56,83.91,165.56,415.04,Single-ply,SBD,M
Boys,74.84,10,Aaron Hunter,Bruni,68.4,122.47,74.84,158.76,356.07,Single-ply,SBD,M
Boys,74.84,11,Lupe Saenz,Falfurrias,68.67,124.74,77.11,113.4,315.25,Single-ply,SBD,M
Boys,74.84,12,Dylan Vasquez,Falfurrias,70.76,97.52,63.5,117.93,278.96,Single-ply,SBD,M
Boys,74.84,DQ,Alex Salinas,Laredo United,74.48,,,,,Single-ply,SBD,M
Boys,82.1,1,Ricky Martinez,Laredo Nixon,81.01,192.78,108.86,190.51,492.15,Single-ply,SBD,M
Boys,82.1,2,Joseph Wells,Laredo Nixon,80.65,188.24,124.74,170.1,483.08,Single-ply,SBD,M
Boys,82.1,3,Brandon Garza,Falfurrias,79.38,149.69,111.13,181.44,442.25,Single-ply,SBD,M
Boys,82.1,4,Alfredo Ibarra,Laredo United,79.92,195.04,81.65,165.56,442.25,Single-ply,SBD,M
Boys,82.1,5,Nacho Villarreal,Freer,80.74,138.35,92.99,183.7,415.04,Single-ply,SBD,M
Boys,82.1,6,Juan Ybanez,Freer,75.66,124.74,86.18,158.76,369.68,Single-ply,SBD,M
Boys,82.1,7,Austin Gonzalez,Freer,76.57,108.86,58.97,108.86,276.69,Single-ply,SBD,M
Boys,82.1,8,Dennis Cruz,Zapata,82.01,79.38,52.16,102.06,233.6,Single-ply,SBD,M
Boys,82.1,DQ,Jorge Gonzalez #7,Laredo United South,80.65,174.63,,,,Single-ply,SBD,M
Boys,82.1,DQ,Alfredo Mancillas,Laredo United,77.93,122.47,102.06,,,Single-ply,SBD,M
Boys,89.81,1,Alex Wheeler,Zapata,89.72,206.38,170.1,226.8,603.28,Single-ply,SBD,M
Boys,89.81,2,Alex Costilla,Falfurrias,89.27,226.8,147.42,224.53,598.74,Single-ply,SBD,M
Boys,89.81,3,Justin Sosa,Zapata,89.58,219.99,147.42,201.85,569.26,Single-ply,SBD,M
Boys,89.81,4,Lauro Banda,Laredo Nixon,86.55,181.44,111.13,188.24,480.81,Single-ply,SBD,M
Boys,89.81,5,Daryl Garcia,Bruni,83.28,163.29,111.13,195.04,469.47,Single-ply,SBD,M
Boys,99.79,6,Ej Canales,Hebbronville,89.99,163.29,88.45,190.51,442.25,Single-ply,SBD,M
Boys,89.81,7,Esteban Arredondo,Hebbronville,88.54,142.88,83.91,181.44,408.23,Single-ply,SBD,M
Boys,89.81,8,Robert Rodriguez,Laredo Nixon,84.46,131.54,102.06,170.1,403.7,Single-ply,SBD,M
Boys,89.81,9,Ivan Paredes,Laredo United South,84.82,151.95,77.11,170.1,399.16,Single-ply,SBD,M
Boys,89.81,10,Jaime Sanchez,Bruni,84.19,131.54,79.38,165.56,376.48,Single-ply,SBD,M
Boys,89.81,11,Alex Chavarria,Carrizo Springs,86.36,113.4,83.91,117.93,315.25,Single-ply,SBD,M
Boys,89.81,12,Phillip Gallegos,Carrizo Springs,87.54,113.4,65.77,113.4,292.57,Single-ply,SBD,M
Boys,109.77,1,Jerry Nino,Laredo Martin,100.02,226.8,145.15,219.99,591.94,Single-ply,SBD,M
Boys,99.79,2,Andres Costilla,Falfurrias,95.71,226.8,122.47,204.12,553.38,Single-ply,SBD,M
Boys,99.79,3,Ricky Lopez,Laredo United South,93.26,217.72,111.13,217.72,546.58,Single-ply,SBD,M
Boys,99.79,4,George Gonzalez,Laredo United South,93.71,190.51,102.06,210.92,503.49,Single-ply,SBD,M
Boys,99.79,5,Jamie Menchaca,Carrizo Springs,92.99,174.63,124.74,183.7,483.08,Single-ply,SBD,M
Boys,99.79,6,Justin Fuentes,Zapata,91.85,185.97,117.93,170.1,474,Single-ply,SBD,M
Boys,99.79,7,Erick Fernandez,Laredo Nixon,96.43,165.56,111.13,183.7,460.4,Single-ply,SBD,M
Boys,99.79,8,Jorge Gutierrez,Zapata,99.65,142.88,117.93,174.63,435.45,Single-ply,SBD,M
Boys,99.79,9,Kevin Lujan,Laredo United,93.62,165.56,92.99,142.88,401.43,Single-ply,SBD,M
Boys,99.79,10,Arturo Espinoza,Freer,93.89,151.95,86.18,149.69,387.82,Single-ply,SBD,M
Boys,99.79,11,Logan Wilson,Falfurrias,92.26,136.08,86.18,149.69,371.95,Single-ply,SBD,M
Boys,99.79,12,Kevin Leal,Freer,91.72,131.54,72.57,136.08,340.19,Single-ply,SBD,M
Boys,99.79,13,David Cruz,Zapata,93.67,124.74,68.04,136.08,328.85,Single-ply,SBD,M
Boys,99.79,DQ,Jose Coreas,Laredo Cigarroa,94.62,190.51,,,,Single-ply,SBD,M
Boys,109.77,1,Freddy Chavarria,Laredo Martin,107.77,231.33,145.15,210.92,587.4,Single-ply,SBD,M
Boys,109.77,2,Ivan Gonzalez,Bruni,106.14,226.8,108.86,240.4,576.06,Single-ply,SBD,M
Boys,109.77,3,Raul Hinojosa,Zapata,109.09,206.38,122.47,215.46,544.31,Single-ply,SBD,M
Boys,109.77,4,Tanner Bierstedt,Freer,108.41,183.7,127.01,181.44,492.15,Single-ply,SBD,M
Boys,109.77,5,Ricky Martinez,Laredo United,106.41,181.44,92.99,174.63,449.06,Single-ply,SBD,M
Boys,124.74,6,Victor Martinez,Laredo Martin,109.86,156.49,111.13,167.83,435.45,Single-ply,SBD,M
Boys,109.77,7,Eddie Alvarez,Laredo Martin,101.42,142.88,72.57,151.95,367.41,Single-ply,SBD,M
Boys,109.77,8,Michael Escamilla,Carrizo Springs,109.77,120.2,72.57,163.29,356.07,Single-ply,SBD,M
Boys,109.77,9,Joseph Reyes,Falfurrias,109.5,127.01,72.57,127.01,326.59,Single-ply,SBD,M
Boys,124.74,1,Rafa Vasquez,Laredo United South,111.58,213.19,131.54,210.92,555.65,Single-ply,SBD,M
Boys,124.74,2,Kevin Vela,Bruni,112.04,213.19,122.47,206.38,542.04,Single-ply,SBD,M
Boys,124.74,3,Carlos Gomez,Laredo Martin,122.2,192.78,127.01,217.72,537.51,Single-ply,SBD,M
Boys,124.74,4,Rudy Martinez,Laredo Nixon,122.83,195.04,104.33,199.58,498.95,Single-ply,SBD,M
Boys,124.74,5,Rolando Garza,Hebbronville,119.11,170.1,90.72,185.97,446.79,Single-ply,SBD,M
Boys,124.74,DQ,Tony Garcia,Hebbronville,116.39,294.84,,,,Single-ply,SBD,M
Boys,124.74,DQ,Sammy Cobos,Zapata,119.07,,,,,Single-ply,SBD,M
Boys,124.74+,1,Joey Ybanez,Freer,136.89,174.63,124.74,204.12,503.49,Single-ply,SBD,M
Boys,124.74+,2,JR Sandoval,Laredo United,128.19,165.56,83.91,183.7,433.18,Single-ply,SBD,M
Boys,124.74+,3,Gerardo Cadena,Laredo Cigarroa,164.56,142.88,81.65,140.61,365.14,Single-ply,SBD,M
Boys,124.74+,4,Jacob Chapa,Bruni,129.36,145.15,72.57,131.54,349.27,Single-ply,SBD,M
Boys,124.74+,DQ,Benito Vega,Laredo United South,127.46,174.63,,,,Single-ply,SBD,M
