Division,WeightClassKg,Place,Name,Team,BodyweightKg,Best3SquatKg,Best3BenchKg,Best3DeadliftKg,TotalKg,Equipment,Event,Sex
Girls,44.23,1,Alexis Herrera,Alice,42.31,117.93,56.7,111.13,285.76,Single-ply,SBD,F
Girls,44.23,2,Aleah Bustamante,Cotulla,43.52,86.18,40.82,95.25,222.26,Single-ply,SBD,F
Girls,44.23,3,Miranda Ortiz,Alice,43.87,72.57,38.56,77.11,188.24,Single-ply,SBD,F
Girls,44.23,4,Iyesha Trevino,Knippa,44.21,40.82,24.95,45.36,111.13,Single-ply,SBD,F
Girls,47.85,1,Samantha Sanchez,Natalia,45.1,102.06,56.7,108.86,267.62,Single-ply,SBD,F
Girls,47.85,2,Julia Owens,Natalia,46.64,99.79,49.9,104.33,254.01,Single-ply,SBD,F
Girls,47.85,3,Kaylee Garza,Cotulla,47.38,88.45,40.82,122.47,251.74,Single-ply,SBD,F
Girls,47.85,4,Emily Wheeler,Natalia,46.9,88.45,52.16,97.52,238.14,Single-ply,SBD,F
Girls,47.85,5,Jalesca Schorsh,Natalia,46.19,56.7,47.63,79.38,183.7,Single-ply,SBD,F
Girls,47.85,DQ,Trinity Garza,Devine,47.85,99.79,,,,Single-ply,SBD,F
Girls,47.85,DQ,Lainey Figueroa,Alice,45.99,68.04,34.02,,,Single-ply,SBD,F
Girls,47.85,DQ,Mia Macias,Alice,46.3,,,,,Single-ply,SBD,F
Girls,47.85,DQ,Caitlyn Thrasher,Bandera,47.57,,,,,Single-ply,SBD,F
Girls,51.94,1,Caitlin Watson,Bandera,48.57,120.2,56.7,120.2,297.1,Single-ply,SBD,F
Girls,51.94,2,Sophia Padilla,Natalia,49.92,83.91,47.63,106.59,238.14,Single-ply,SBD,F
Girls,51.94,3,Mariah Luna,Cotulla,51.85,83.91,47.63,102.06,233.6,Single-ply,SBD,F
Girls,51.94,4,Briana Paredes,Natalia,50.11,92.99,40.82,95.25,229.06,Single-ply,SBD,F
Girls,51.94,5,Carolina Tapia,Natalia,50.45,83.91,49.9,86.18,219.99,Single-ply,SBD,F
Girls,51.94,6,Katie Curiel,Natalia,51.59,86.18,36.29,81.65,204.12,Single-ply,SBD,F
Girls,51.94,7,Alexis Shook,Devine,50.12,72.57,38.56,88.45,199.58,Single-ply,SBD,F
Girls,51.94,8,Erin Garza,Knippa,49.21,74.84,40.82,79.38,195.04,Single-ply,SBD,F
Girls,51.94,9,Jonessa Ramirez,Cotulla,51.75,74.84,36.29,77.11,188.24,Single-ply,SBD,F
Girls,51.94,10,Cassidy Hicks,Comal Canyon Lake,48.52,70.31,34.02,74.84,179.17,Single-ply,SBD,F
Girls,51.94,11,Valentina Gasca,Pleasanton,49.47,74.84,34.02,65.77,174.63,Single-ply,SBD,F
Girls,51.94,DQ,Ashley Arroyo,Alice,50.89,,,,,Single-ply,SBD,F
Girls,56.02,1,Angelina Zapata,Natalia,55.76,111.13,54.43,104.33,269.89,Single-ply,SBD,F
Girls,56.02,2,Angelica Padilla,Natalia,54.75,102.06,56.7,108.86,267.62,Single-ply,SBD,F
Girls,56.02,3,Noemi Ruiz,Alice,54.85,104.33,43.09,115.67,263.08,Single-ply,SBD,F
Girls,56.02,4,Miranda Lopez,Alice,55.12,102.06,49.9,97.52,249.48,Single-ply,SBD,F
Girls,56.02,5,Autumn Guerra,Pleasanton,54.44,86.18,54.43,95.25,235.87,Single-ply,SBD,F
Girls,56.02,6,Hailey Manka,Natalia,53.89,79.38,54.43,97.52,231.33,Single-ply,SBD,F
Girls,56.02,7,Mariah Molina,Cotulla,55.17,90.72,45.36,81.65,217.72,Single-ply,SBD,F
Girls,56.02,8,Madison Shad,Marion,56.01,70.31,47.63,77.11,195.04,Single-ply,SBD,F
Girls,56.02,9,Kyra Keylich,Devine,54.61,68.04,29.48,90.72,188.24,Single-ply,SBD,F
Girls,56.02,10,Alisia Niestemski,Comal Canyon Lake,55.08,70.31,31.75,68.04,170.1,Single-ply,SBD,F
Girls,56.02,11,Bobbi Ligocky,Knippa,53.71,56.7,29.48,61.23,147.42,Single-ply,SBD,F
Girls,56.02,DQ,Toryn Autry,Marion,53.73,61.23,,,,Single-ply,SBD,F
Girls,56.02,DQ,Ingrid Nava,Marion,53.77,,,,,Single-ply,SBD,F
Girls,60.1,1,Pauline Inocencio,Cotulla,57.69,117.93,68.04,120.2,306.17,Single-ply,SBD,F
Girls,60.1,2,Genesis Luna,San Antonio Southwest,59.72,108.86,56.7,127.01,292.57,Single-ply,SBD,F
Girls,60.1,3,Gabryelle Contreras,Natalia,59.65,99.79,58.97,117.93,276.69,Single-ply,SBD,F
Girls,60.1,4,Emily Espinoza,Cotulla,59.74,95.25,45.36,99.79,240.4,Single-ply,SBD,F
Girls,60.1,5,Isabella Martinez,Natalia,58.08,83.91,47.63,106.59,238.14,Single-ply,SBD,F
Girls,60.1,6,Reagan Juarez,Natalia,58.91,99.79,52.16,79.38,231.33,Single-ply,SBD,F
Girls,60.1,7,Fe Vielma,Pleasanton,59.48,95.25,43.09,92.99,231.33,Single-ply,SBD,F
Girls,60.1,8,Bianca Cisneros,Cotulla,59,86.18,36.29,90.72,213.19,Single-ply,SBD,F
Girls,60.1,9,Aavery Navarro,Comal Canyon Lake,60.1,65.77,36.29,70.31,172.37,Single-ply,SBD,F
Girls,60.1,DQ,Alesandra Carmona,Knippa,59.93,,,,,Single-ply,SBD,F
Girls,60.1,DQ,Alex Petree,Marion,58.51,74.84,,,,Single-ply,SBD,F
Girls,67.36,1,Stephanie Benavidez,Cotulla,60.9,147.42,65.77,138.35,351.53,Single-ply,SBD,F
Girls,67.36,2,Jessie Ramirez,Devine,66,127.01,63.5,127.01,317.51,Single-ply,SBD,F
Girls,67.36,3,Tressa Reading,Knippa,64.77,113.4,70.31,106.59,290.3,Single-ply,SBD,F
Girls,67.36,4,Miranda Ovalle,Pleasanton,66.29,111.13,52.16,115.67,278.96,Single-ply,SBD,F
Girls,67.36,5,Alyssa Sheeds,Bandera,64.75,111.13,43.09,113.4,267.62,Single-ply,SBD,F
Girls,67.36,6,Jazlin Olvera,Devine,66.94,90.72,61.23,113.4,265.35,Single-ply,SBD,F
Girls,67.36,7,Trista Vera,Natalia,61.31,106.59,47.63,102.06,256.28,Single-ply,SBD,F
Girls,67.36,8,Clarissa Ybanez,Devine,65.09,99.79,61.23,95.25,256.28,Single-ply,SBD,F
Girls,67.36,9,Jazmine Bible,Blanco,67.26,99.79,52.16,102.06,254.01,Single-ply,SBD,F
Girls,67.36,10,Kaelyn Lara,Natalia,62.79,102.06,54.43,95.25,251.74,Single-ply,SBD,F
Girls,67.36,11,Jaleiyah Romero,Cotulla,65.61,95.25,56.7,99.79,251.74,Single-ply,SBD,F
Girls,67.36,12,Bianca Cordova,Cotulla,65.14,104.33,43.09,99.79,247.21,Single-ply,SBD,F
Girls,67.36,13,Kara Chapa,Natalia,60.65,95.25,52.16,97.52,244.94,Single-ply,SBD,F
Girls,67.36,14,Claire Dean,Knippa,62.26,81.65,54.43,102.06,238.14,Single-ply,SBD,F
Girls,67.36,15,Elizabeth Britt,Marion,64.02,83.91,45.36,106.59,235.87,Single-ply,SBD,F
Girls,67.36,16,Kendall Tanner #1,Natalia,62.15,86.18,47.63,88.45,222.26,Single-ply,SBD,F
Girls,67.36,17,Analisa Gonzalez,Cotulla,63.65,72.57,47.63,95.25,215.46,Single-ply,SBD,F
Girls,67.36,18,Faith Mayse,Marion,63.36,79.38,40.82,92.99,213.19,Single-ply,SBD,F
Girls,67.36,19,Jacy Goodard,Marion,63.71,72.57,36.29,92.99,201.85,Single-ply,SBD,F
Girls,67.36,DQ,Madison Doss,Marion,61.7,65.77,,,,Single-ply,SBD,F
Girls,67.36,DQ,Brianna Torres,Devine,67.18,61.23,27.22,,,Single-ply,SBD,F
Girls,75.07,1,Dezarae Perez,Natalia,70.72,129.27,74.84,142.88,347,Single-ply,SBD,F
Girls,75.07,2,Makayla Markham,Alice,72.8,138.35,74.84,127.01,340.19,Single-ply,SBD,F
Girls,75.07,3,Gabrielle Santoya,Natalia,74.98,129.27,61.23,136.08,326.59,Single-ply,SBD,F
Girls,75.07,4,Analiese Andersen,Marion,68.15,115.67,58.97,127.01,301.64,Single-ply,SBD,F
Girls,75.07,5,Kylee Hensley,Bandera,68.56,120.2,56.7,115.67,292.57,Single-ply,SBD,F
Girls,75.07,6,Gabby Munoz,Natalia,73.92,115.67,56.7,108.86,281.23,Single-ply,SBD,F
Girls,75.07,7,Sofia Aguilar,Pleasanton,75.05,102.06,56.7,108.86,267.62,Single-ply,SBD,F
Girls,75.07,8,Veronica Gonzalez,Marion,69.4,97.52,45.36,120.2,263.08,Single-ply,SBD,F
Girls,75.07,9,Elsa Vasquez,Marion,69.58,92.99,45.36,104.33,242.67,Single-ply,SBD,F
Girls,75.07,10,Lexi Cumberland,Pleasanton,71.08,74.84,47.63,102.06,224.53,Single-ply,SBD,F
Girls,75.07,11,Carla Covarrubias,Natalia,70.83,90.72,43.09,88.45,222.26,Single-ply,SBD,F
Girls,75.07,12,Destiny DeLeon,Knippa,72.94,74.84,43.09,83.91,201.85,Single-ply,SBD,F
Girls,75.07,13,Emiley Windham,Blanco,71.3,65.77,36.29,81.65,183.7,Single-ply,SBD,F
Girls,75.07,14,Laney Heun,Comal Canyon Lake,70.8,68.04,31.75,79.38,179.17,Single-ply,SBD,F
Girls,75.07,DQ,Mikayla Moore,Bandera,73.3,104.33,47.63,,,Single-ply,SBD,F
Girls,75.07,DQ,Ysabella Munoz,Alice,71.61,,,,,Single-ply,SBD,F
Girls,82.33,1,Jacqueline Guerra,Alice,79.41,195.04,97.52,181.44,474,Single-ply,SBD,F
Girls,82.33,2,Daniela Quintero,Cotulla,81.76,129.27,72.57,129.27,331.12,Single-ply,SBD,F
Girls,82.33,3,Zita Perez,Natalia,77.96,106.59,58.97,127.01,292.57,Single-ply,SBD,F
Girls,82.33,4,Isabella Gutierrez,Devine,79.61,108.86,49.9,111.13,269.89,Single-ply,SBD,F
Girls,82.33,5,Kylie Rodriguez,Devine,76.88,77.11,43.09,95.25,215.46,Single-ply,SBD,F
Girls,82.33,6,Karina Martinez,Pleasanton,80.06,47.63,40.82,90.72,179.17,Single-ply,SBD,F
Girls,90.04,1,Jasmine Ramon,Natalia,86.82,145.15,63.5,129.27,337.93,Single-ply,SBD,F
Girls,90.04,2,Jazlynn Lewis,Bandera,88.18,136.08,65.77,136.08,337.93,Single-ply,SBD,F
Girls,90.04,3,Natasha Dunn-Kvedaras,Natalia,86.05,83.91,56.7,108.86,249.48,Single-ply,SBD,F
Girls,90.04,4,Janaya Rodriguez,Cotulla,84.56,77.11,49.9,92.99,219.99,Single-ply,SBD,F
Girls,90.04,DQ,Savannah Cadena,Pleasanton,84.12,,,,,Single-ply,SBD,F
Girls,100.02,1,Julie Sepulveda,Alice,95.83,183.7,86.18,156.49,426.38,Single-ply,SBD,F
Girls,100.02,2,Felicity Diaz,Devine,97.11,122.47,77.11,117.93,317.51,Single-ply,SBD,F
Girls,100.02,3,Khali Key,Devine,90.4,108.86,70.31,131.54,310.71,Single-ply,SBD,F
Girls,100.02,4,Regina Sidel,Cotulla,93.62,117.93,65.77,127.01,310.71,Single-ply,SBD,F
Girls,117.71,1,Brianna Ortiz,Pleasanton,106.78,124.74,58.97,106.59,290.3,Single-ply,SBD,F
Girls,117.71,2,Cirina Plaza,Blanco,106.82,104.33,49.9,106.59,260.82,Single-ply,SBD,F
Girls,117.71,3,Zuri Garcia,Cotulla,102.25,97.52,58.97,99.79,256.28,Single-ply,SBD,F
Girls,117.71,4,Kristiana Ortiz,Devine,102.24,90.72,52.16,106.59,249.48,Single-ply,SBD,F
Girls,117.71,5,Mia Gomez,Cotulla,101.32,70.31,40.82,79.38,190.51,Single-ply,SBD,F
Girls,117.71,DQ,Marissa Garcia,Alice,111.18,,,,,Single-ply,SBD,F
Girls,117.71+,1,Victoria Gonzalez,Cotulla,128.32,204.12,102.06,190.51,496.68,Single-ply,SBD,F
Girls,117.71+,2,Illeana Bosquez,Pleasanton,145.38,142.88,90.72,151.95,385.55,Single-ply,SBD,F
Girls,117.71+,3,Madison Curbow,Pleasanton,126.69,129.27,95.25,124.74,349.27,Single-ply,SBD,F
