Place,Name,Division,Equipment,Event,BirthDate,BirthYear,Age,Sex,BodyweightKg,WeightClassKg,Squat1Kg,Squat2Kg,Squat3Kg,Best3SquatKg,Bench1Kg,Bench2Kg,Bench3Kg,Best3BenchKg,Deadlift1Kg,Deadlift2Kg,Deadlift3Kg,Best3DeadliftKg,TotalKg
1,Eloise Bastien,Sub-Juniors,Raw,SBD,,2002,16,F,41.69,43,50,55,60,60,32.5,37.5,43,43,67.5,75,82.5,82.5,185.5
1,Manon Dufour,Sub-Juniors,Raw,SBD,,2001,17,F,48.14,52,60,65,67.5,67.5,35,-37.5,-37.5,35,85,-92.5,-92.5,85,187.5
1,Lea Berthe,Sub-Juniors,Raw,SBD,,2001,17,F,70.075,72,65,70,75,75,-47.5,47.5,-50,47.5,-100,100,-105,100,222.5
1,Victoria Cascan,Juniors,Raw,SBD,,1997,21,F,62.86,63,100,110,122.5,122.5,50,60,-65,60,120,130,-140,130,312.5
DQ,Justine Obry,Juniors,Raw,SBD,,1996,22,F,59.75,63,70,75,-80,75,50,-55,-55,50,-105,-105,-105,,
DQ,Elvira Winant,Juniors,Raw,SBD,,1997,21,F,62.815,63,95,-100,-100,95,55,57.5,60,60,-97.5,-107.5,,,
1,Valentine Dubois,Juniors,Raw,SBD,,1999,19,F,64.1,72,75,-87.5,-90,75,40,45,-50,45,90,105,-115,105,225
2,Carline Plantard,Juniors,Raw,SBD,,1998,20,F,66.775,72,-75,75,80,80,32.5,35,-37.5,35,85,95,-102.5,95,210
DQ,Canelle Bourbotte,Juniors,Raw,SBD,,1997,21,F,70.4,72,-80,-80,-85,,,,,,,,,,
1,Severine Pradere,Seniors,Raw,SBD,,1987,31,F,62.35,63,100,105,-107.5,105,40,-42.5,-42.5,40,125,-130,-130,125,270
1,Maxence Haussy,Cadet,Raw,SBD,,2005,13,M,60.39,66,20,27.5,,27.5,20,25,,25,45,55,,55,107.5
DQ,Louis Patinier,Sub-Juniors,Raw,SBD,,2001,17,M,64.64,66,-105,-110,-120,,,,,,,,,,
1,Maxime Duhamel,Sub-Juniors,Raw,SBD,,2001,17,M,91.235,93,140,150,-160,150,95,100,-102.5,100,165,-180,-180,165,415
2,Antonio Chuvas,Sub-Juniors,Raw,SBD,,2001,17,M,84.89,93,115,120,-130,120,-82.5,82.5,-85,82.5,175,192.5,200,200,402.5
1,Didier Dacquignie,Masters 1,Raw,SBD,,1973,45,M,82.815,83,175,-182.5,-182.5,175,132.5,135,137.5,137.5,192.5,200,-205,200,512.5
1,Ludovic Lutz,Masters 1,Raw,SBD,,1971,47,M,91.755,93,200,207.5,-215,207.5,145,152.5,-155,152.5,215,225,235,235,595
1,Olivier Waymel,Masters 2,Raw,SBD,,1966,52,M,65.72,66,120,130,,130,-135,135,,135,140,155,170,170,435
DQ,Bruno Bastien,Masters 2,Raw,SBD,,1965,53,M,73.745,74,-135,-135,-135,,,,,,,,,,
1,Patrick Maes,Masters 3,Raw,SBD,,1959,59,M,104.155,105,180,195,210,210,80,100,-105,100,210,230,250,250,560
2,Pascal Merlier,Masters 3,Raw,SBD,,1959,59,M,104.275,105,170,180,,180,110,120,130,130,200,,,200,510
1,Paul Rembauville,Juniors,Raw,SBD,,1997,22,M,73.79,74,-210,210,-220,210,115,-120,-120,115,-260,-260,260,260,585
2,Alexandre Lechene,Juniors,Raw,SBD,,1999,19,M,73.985,74,185,192.5,197.5,197.5,117.5,-120,120,120,205,212.5,217.5,217.5,535
3,Anaël Beaurieux,Juniors,Raw,SBD,,1997,21,M,72.455,74,180,190,-200,190,90,95,100,100,205,215,-220,215,505
4,Edward Sohier,Juniors,Raw,SBD,,1998,20,M,72.795,74,175,180,182.5,182.5,95,100,105,105,210,215,217.5,217.5,505
5,Geoffrey Leblanc,Juniors,Raw,SBD,,1996,22,M,73.33,74,140,147.5,-157.5,147.5,105,110,-112.5,110,197.5,-207.5,-207.5,197.5,455
1,Aurélien Batteur,Juniors,Raw,SBD,,1999,19,M,92.085,93,205,210,,210,140,145,-147.5,145,230,235,-237.5,235,590
2,Ryan Evraere,Juniors,Raw,SBD,,1997,21,M,90.075,93,185,190,195,195,135,140,142.5,142.5,225,237.5,-245,237.5,575
3,Celien Zawadski,Juniors,Raw,SBD,,1996,22,M,86.43,93,185,195,200,200,125,132.5,135,135,200,215,-222.5,215,550
4,Jimmy Laurent,Juniors,Raw,SBD,,1997,21,M,91.27,93,-175,180,185,185,-115,115,120,120,210,217.5,225,225,530
1,Nicolas Bracq,Juniors,Raw,SBD,,1997,21,M,99.015,105,177.5,187.5,-195,187.5,135,142.5,-147.5,142.5,205,215,-220,215,545
1,Guillaume Brunet,Seniors,Raw,SBD,,1995,23,M,65.975,66,165,172.5,-180,172.5,105,110,-115,110,185,195,207.5,207.5,490
DQ,François Merland,Seniors,Raw,SBD,,1984,34,M,65.91,66,-182.5,-185,-185,,,,,,,,,,
1,Jonathan Darras,Seniors,Raw,SBD,,1991,27,M,81.175,83,220,232.5,237.5,237.5,135,-140,-140,135,255,265,277.5,277.5,650
2,Benoit Crebouw,Seniors,Raw,SBD,,1995,23,M,79.51,83,227.5,235,-242.5,235,127.5,-132.5,-135,127.5,237.5,245,250,250,612.5
3,Rémi Denecker,Seniors,Raw,SBD,,1986,32,M,82.905,83,180,-190,-190,180,147.5,-152.5,-152.5,147.5,245,-255,-255,245,572.5
1,Yoan Bulvestre,Seniors,Raw,SBD,,1988,30,M,92.19,93,200,210,-215,210,137.5,-142.5,,137.5,230,245,255,255,602.5
2,Claude Ngoma,Seniors,Raw,SBD,,1989,29,M,89.995,93,195,202.5,210,210,135,140,-145,140,-235,235,245,245,595
DQ,Aymeric Mercier,Seniors,Raw,SBD,,1995,23,M,92.035,93,-205,-210,-210,,,,,,,,,,
1,Jean Daniel Delhaye,Seniors,Raw,SBD,,1995,23,M,104.885,105,235,-245,245,245,125,132.5,-137.5,132.5,250,282.5,-300,282.5,660
2,Olivier Hersin,Seniors,Raw,SBD,,1984,34,M,104.83,105,-210,210,,210,-150,150,160,160,220,,,220,590
1,Benjamin Pillon,Seniors,Raw,SBD,,1987,31,M,114.89,120,190,-200,-200,190,135,140,-145,140,210,220,230,230,560
G,Eric Gillon,Seniors,Raw,SBD,,1993,25,M,85.92,93,150,-160,162.5,162.5,92.5,-100,,92.5,-200,210,-220,210,465
1,Pascal Merlier,Masters 3,Single-ply,SBD,,1959,59,M,104.275,105,185,195,,195,120,130,140,140,215,230,240,240,575
