Division,WeightClassKg,Place,Name,Team,BodyweightKg,Best3SquatKg,Best3BenchKg,Best3DeadliftKg,TotalKg,Equipment,Event,Sex
Girls,44.23,1,Bret King #1,Hamshire-Fannett,44.18,79.38,36.29,90.72,206.38,Single-ply,SBD,F
Girls,44.23,DQ,Carmen Guzman,Hamshire-Fannett,44,,,,,Single-ply,SBD,F
Girls,47.85,1,Marisol Contreras,Cleveland,46.67,120.2,49.9,120.2,290.3,Single-ply,SBD,F
Girls,47.85,2,Jessica Price,Cleveland,47.72,52.16,31.75,81.65,165.56,Single-ply,SBD,F
Girls,47.85,DQ,Savannah Day,Hamshire-Fannett,47.63,108.86,,,,Single-ply,SBD,F
Girls,51.94,1,Jenn Sierra,Cleveland,50.67,95.25,36.29,79.38,210.92,Single-ply,SBD,F
Girls,51.94,2,Michelle Espinoza,Cleveland,49.53,70.31,38.56,90.72,199.58,Single-ply,SBD,F
Girls,51.94,3,Celeste Barron,Cleveland,51.75,63.5,38.56,86.18,188.24,Single-ply,SBD,F
Girls,51.94,4,Victoria Cash,Sour Lake Hardin-Jefferson,51.53,63.5,34.02,83.91,181.44,Single-ply,SBD,F
Girls,51.94,5,Jasmine Bailey,Cleveland,51.3,56.7,34.02,81.65,172.37,Single-ply,SBD,F
Girls,56.02,1,Kristina Turner,Cleveland,55.97,102.06,52.16,115.67,269.89,Single-ply,SBD,F
Girls,56.02,2,Feather Wilson,Coldspring-Oakhurst,53.61,88.45,43.09,108.86,240.4,Single-ply,SBD,F
Girls,56.02,3,Cynthia Espinoza,Cleveland,54.48,92.99,38.56,97.52,229.06,Single-ply,SBD,F
Girls,56.02,4,Camary Patterson,Coldspring-Oakhurst,53.43,83.91,38.56,92.99,215.46,Single-ply,SBD,F
Girls,56.02,5,Hannah Gieseke,Sour Lake Hardin-Jefferson,55.25,88.45,31.75,92.99,213.19,Single-ply,SBD,F
Girls,56.02,6,Bailey Campbell,Sour Lake Hardin-Jefferson,55.16,77.11,40.82,86.18,204.12,Single-ply,SBD,F
Girls,56.02,DQ,Valorie Pafford,Coldspring-Oakhurst,52.62,65.77,,,,Single-ply,SBD,F
Girls,60.1,1,Kaitlyn Gans,Sour Lake Hardin-Jefferson,57.61,124.74,49.9,136.08,310.71,Single-ply,SBD,F
Girls,60.1,2,D'Kayla Donahue,Coldspring-Oakhurst,58.51,92.99,34.02,115.67,242.67,Single-ply,SBD,F
Girls,60.1,3,Kaylee Choate,Cleveland,58.92,83.91,40.82,106.59,231.33,Single-ply,SBD,F
Girls,60.1,4,Mileena Rodriguez,Coldspring-Oakhurst,59.96,83.91,31.75,92.99,208.65,Single-ply,SBD,F
Girls,60.1,5,Millie Bridges,Coldspring-Oakhurst,56.61,70.31,31.75,61.23,163.29,Single-ply,SBD,F
Girls,60.1,DQ,Gia Williams,Hamshire-Fannett,59.87,,,,,Single-ply,SBD,F
Girls,67.36,1,Caroline Spacek,Sour Lake Hardin-Jefferson,66.22,104.33,54.43,140.61,299.37,Single-ply,SBD,F
Girls,67.36,2,Tiffani Huff,Coldspring-Oakhurst,60.78,83.91,43.09,113.4,240.4,Single-ply,SBD,F
Girls,67.36,3,Mason Garcia,Sour Lake Hardin-Jefferson,60.78,90.72,45.36,99.79,235.87,Single-ply,SBD,F
Girls,67.36,4,Caitlyn Johnson,Sour Lake Hardin-Jefferson,64.77,88.45,34.02,104.33,226.8,Single-ply,SBD,F
Girls,67.36,5,Isabel Rodriguez,Cleveland,63.14,70.31,43.09,92.99,206.38,Single-ply,SBD,F
Girls,67.36,6,Abby Swope,Sour Lake Hardin-Jefferson,64.23,81.65,31.75,81.65,195.04,Single-ply,SBD,F
Girls,67.36,7,Morgan Martel,Sour Lake Hardin-Jefferson,60.69,65.77,36.29,74.84,176.9,Single-ply,SBD,F
Girls,67.36,DQ,Vaurisa Harrison,Coldspring-Oakhurst,67.13,,,,,Single-ply,SBD,F
Girls,75.07,1,Victoria Allen,Cleveland,70.35,124.74,52.16,108.86,285.76,Single-ply,SBD,F
Girls,75.07,2,McKenzie West,Sour Lake Hardin-Jefferson,70.31,95.25,40.82,104.33,240.4,Single-ply,SBD,F
Girls,75.07,3,Kris Stark,Hamshire-Fannett,71.49,83.91,45.36,88.45,217.72,Single-ply,SBD,F
Girls,75.07,4,Skylar Gorski,Cleveland,69.44,70.31,38.56,92.99,201.85,Single-ply,SBD,F
Girls,75.07,DQ,Tiann Perry,Coldspring-Oakhurst,74.84,,,,,Single-ply,SBD,F
Girls,75.07,DQ,Shae Doucet,Hamshire-Fannett,74.84,,,,,Single-ply,SBD,F
Girls,82.33,1,Callie Saurage,Hamshire-Fannett,81.83,170.1,117.93,165.56,453.59,Single-ply,SBD,F
Girls,82.33,2,Reanah Cross,Coldspring-Oakhurst,79.38,111.13,52.16,131.54,294.84,Single-ply,SBD,F
Girls,82.33,3,Sophie Hurley,Hamshire-Fannett,77.75,117.93,56.7,104.33,278.96,Single-ply,SBD,F
Girls,82.33,4,Kattie Miller,Hamshire-Fannett,80.92,81.65,43.09,111.13,235.87,Single-ply,SBD,F
Girls,82.33,5,Olivia Jackson,Shepherd,81.01,92.99,38.56,92.99,224.53,Single-ply,SBD,F
Girls,82.33,6,Nikkia Yates,Cleveland,79.88,83.91,36.29,83.91,204.12,Single-ply,SBD,F
Girls,90.04,1,Le'Shay Johnson,Cleveland,89.9,70.31,47.63,108.86,226.8,Single-ply,SBD,F
Girls,90.04,DQ,Keili Ginsel,Hamshire-Fannett,89.81,,,,,Single-ply,SBD,F
Girls,100.02,1,Grace McCullough,Sour Lake Hardin-Jefferson,97.43,133.81,77.11,138.35,349.27,Single-ply,SBD,F
Girls,100.02,2,Kelby LeBlanc,Hamshire-Fannett,92.35,117.93,68.04,113.4,299.37,Single-ply,SBD,F
Girls,100.02+,1,Tikyana Harrison,Coldspring-Oakhurst,102.87,156.49,68.04,170.1,394.63,Single-ply,SBD,F
Girls,100.02+,2,Janal Robertson,Cleveland,111.18,113.4,61.23,124.74,299.37,Single-ply,SBD,F
Girls,100.02+,3,Kayla Bell,Sour Lake Hardin-Jefferson,106.96,104.33,56.7,113.4,274.42,Single-ply,SBD,F
Girls,,NS,Gabriela Valencia,Shepherd,,,,,,Single-ply,SBD,F
