Division,WeightClassKg,Place,Name,Team,BodyweightKg,Best3SquatKg,Best3BenchKg,Best3DeadliftKg,TotalKg,Equipment,Event,Sex
Girls,44.23,1,Taci Sanders,Weatherford,40.82,61.23,34.02,70.31,165.56,Single-ply,SBD,F
Girls,47.85,1,Caylee Bray,Weatherford,45.13,99.79,43.09,104.33,247.21,Single-ply,SBD,F
Girls,47.85,2,Natalee Castro,Weatherford,45.81,79.38,27.22,72.57,179.17,Single-ply,SBD,F
Girls,47.85,3,Alexus Johnson,Mansfield Summit,47.85,56.7,27.22,68.04,151.95,Single-ply,SBD,F
Girls,51.94,1,Puckie Ratanabouapha,Saginaw,50.35,83.91,40.82,81.65,206.38,Single-ply,SBD,F
Girls,56.02,1,Ivy Walker,Mansfield Summit,54.88,120.2,58.97,129.27,308.44,Single-ply,SBD,F
Girls,56.02,2,Bailey Roberts,Crowley,52.84,70.31,34.02,77.11,181.44,Single-ply,SBD,F
Girls,56.02,3,Wenda Dos Anjos,Mansfield Summit,55.11,63.5,31.75,61.23,156.49,Single-ply,SBD,F
Girls,56.02,4,Sasipij Kamthong,Mansfield Timberview,55.79,61.23,,65.77,127.01,Single-ply,SD,F
Girls,60.1,1,Taylor Kincaid,Mansfield,58.97,74.84,45.36,102.06,222.26,Single-ply,SBD,F
Girls,60.1,2,Jordan Kinsel,Mansfield Summit,57.83,65.77,40.82,102.06,208.65,Single-ply,SBD,F
Girls,60.1,3,Alyse Scoggins,Weatherford,57.83,83.91,36.29,83.91,204.12,Single-ply,SBD,F
Girls,60.1,4,Paris Kelly,Mansfield Timberview,60.1,77.11,36.29,86.18,199.58,Single-ply,SBD,F
Girls,67.36,1,Cierra Jackson,Mansfield Timberview,61.01,120.2,49.9,127.01,297.1,Single-ply,SBD,F
Girls,67.36,2,Tyriona Bonner,Mansfield Timberview,65.32,111.13,45.36,122.47,278.96,Single-ply,SBD,F
Girls,67.36,3,Diamond Alexander,Crowley,65.77,92.99,45.36,136.08,274.42,Single-ply,SBD,F
Girls,67.36,4,Rebecca Romero,Mansfield Timberview,66.9,106.59,43.09,113.4,263.08,Single-ply,SBD,F
Girls,67.36,5,Suli Balogun,Mansfield Timberview,66.22,97.52,31.75,104.33,233.6,Single-ply,SBD,F
Girls,67.36,6,Taylor Zaccarelski,Weatherford,61.01,86.18,36.29,83.91,206.38,Single-ply,SBD,F
Girls,75.07,1,Jordan Wilson,Mansfield,71.67,104.33,45.36,124.74,274.42,Single-ply,SBD,F
Girls,75.07,2,Morgan Dunn,Weatherford,73.26,115.67,43.09,108.86,267.62,Single-ply,SBD,F
Girls,75.07,3,Micayla Garza,Saginaw,72.57,79.38,47.63,102.06,229.06,Single-ply,SBD,F
Girls,75.07,4,Madison Briles,Mansfield,72.57,81.65,45.36,102.06,229.06,Single-ply,SBD,F
Girls,75.07,5,Tatyana Crosby,Crowley,69.17,79.38,38.56,83.91,201.85,Single-ply,SBD,F
Girls,75.07,6,Kameron Turner #1,Mansfield Summit,70.53,54.43,34.02,79.38,167.83,Single-ply,SBD,F
Girls,75.07,DQ,Cassidy Washington,Crowley,73.26,,,,,Single-ply,SBD,F
Girls,82.33,1,Joy Lyon,Saginaw,76.43,99.79,31.75,104.33,235.87,Single-ply,SBD,F
Girls,82.33,2,Mia Turner,Crowley,81.42,88.45,43.09,92.99,224.53,Single-ply,SBD,F
Girls,82.33,3,Alyssa Hughes,Mansfield Timberview,80.74,81.65,52.16,86.18,219.99,Single-ply,SBD,F
Girls,82.33,4,Alex Fields,Weatherford,81.87,83.91,29.48,97.52,210.92,Single-ply,SBD,F
Girls,90.04,1,Kasie Haemker,Mansfield Legacy,84.59,120.2,61.23,129.27,310.71,Single-ply,SBD,F
Girls,90.04,2,Nykesciah Williams,Saginaw,89.81,102.06,58.97,106.59,267.62,Single-ply,SBD,F
Girls,90.04,DQ,Alauna Teal-Goldsmith,Crowley,87.54,,,,,Single-ply,SBD,F
Girls,100.02,1,Jasmine Ayena,Mansfield Summit,99.56,149.69,70.31,147.42,367.41,Single-ply,SBD,F
Girls,100.02,2,Rachel Bridges,Keller Timber Creek,97.07,102.06,79.38,124.74,306.17,Single-ply,SBD,F
Girls,100.02,3,Alicia Rogers,Crowley,90.26,74.84,43.09,74.84,192.78,Single-ply,SBD,F
Girls,100.02,DQ,Maxine Etti,Mansfield Timberview,95.71,,,,,Single-ply,SBD,F
Girls,100.02+,1,Khali Edwards,Mansfield,126.33,61.23,68.04,122.47,251.74,Single-ply,SBD,F
Girls,100.02+,2,Abby Thompson,Mansfield,112.49,79.38,65.77,102.06,247.21,Single-ply,SBD,F
Girls,100.02+,3,Yonyetta Sutton,Saginaw,131.54,92.99,49.9,102.06,244.94,Single-ply,SBD,F
