Division,WeightClassKg,Place,Name,Team,BodyweightKg,Best3SquatKg,Best3BenchKg,Best3DeadliftKg,TotalKg,Equipment,Event,Sex,BirthDate
Girls,44.23,1,Dulce De La Cruz,Floresville,40.82,102.06,52.16,102.06,256.28,Single-ply,SBD,F,
Girls,44.23,2,Natilie Garza,Dilley,41.64,90.72,34.02,106.59,231.33,Single-ply,SBD,F,
Girls,44.23,3,Michelle Paredes,Carrizo Springs,44,88.45,43.09,95.25,226.8,Single-ply,SBD,F,
Girls,44.23,4,Sol Seivera,Pearsall,42.27,63.5,34.02,68.04,165.56,Single-ply,SBD,F,
Girls,47.85,1,Almar Garcia,Pearsall,47.54,136.08,65.77,115.67,317.51,Single-ply,SBD,F,
Girls,47.85,2,Ana Granados,Crystal City,47.45,113.4,65.77,111.13,290.3,Single-ply,SBD,F,
Girls,47.85,3,Devany Reyna,Pearsall,47.26,106.59,52.16,113.4,272.16,Single-ply,SBD,F,
Girls,47.85,4,Leandra Gandara,Pearsall,47.08,104.33,54.43,106.59,265.35,Single-ply,SBD,F,
Girls,47.85,5,Gabby Riojas,Carrizo Springs,45.72,97.52,34.02,104.33,235.87,Single-ply,SBD,F,
Girls,47.85,6,Sofia Torres,Uvalde,46.18,83.91,38.56,102.06,224.53,Single-ply,SBD,F,
Girls,47.85,7,Erin Garza,Knippa,46.9,86.18,40.82,88.45,215.46,Single-ply,SBD,F,
Girls,47.85,8,Alyson Lombrana,Crystal City,46.63,92.99,38.56,74.84,206.38,Single-ply,SBD,F,
Girls,47.85,9,Joshlyn Cardenas,Uvalde,45.54,70.31,38.56,83.91,192.78,Single-ply,SBD,F,
Girls,47.85,10,Lauren Salazar,Carrizo Springs,45.63,68.04,34.02,90.72,192.78,Single-ply,SBD,F,
Girls,47.85,11,Mia Martinez,Uvalde,44.36,70.31,34.02,79.38,183.7,Single-ply,SBD,F,
Girls,47.85,12,Kayhla Vedia,Laredo Cigarroa,47.36,49.9,20.41,58.97,129.27,Single-ply,SBD,F,
Girls,51.94,1,Virgina Gallegos,Carrizo Springs,50.89,102.06,43.09,127.01,272.16,Single-ply,SBD,F,
Girls,51.94,2,Ivanna Olivarez,Crystal City,50.98,115.67,52.16,99.79,267.62,Single-ply,SBD,F,
Girls,51.94,3,Blanca Muniz,Dilley,51.17,102.06,47.63,104.33,254.01,Single-ply,SBD,F,
Girls,51.94,4,Stephanie Flores,Dilley,51.07,97.52,43.09,111.13,251.74,Single-ply,SBD,F,
Girls,51.94,5,Jaslyn Ochoa,Dilley,49.99,97.52,47.63,104.33,249.48,Single-ply,SBD,F,
Girls,51.94,6,Daeja Gomez,Floresville,51.44,92.99,45.36,106.59,244.94,Single-ply,SBD,F,
Girls,51.94,7,Briann Avalos,Carrizo Springs,49.17,83.91,40.82,99.79,224.53,Single-ply,SBD,F,
Girls,51.94,8,Nahomi Montoya,Laredo Cigarroa,48.99,52.16,27.22,58.97,138.35,Single-ply,SBD,F,
Girls,51.94,9,Alexa Sotelo,Laredo Cigarroa,49.71,47.63,24.95,54.43,127.01,Single-ply,SBD,F,
Girls,51.94,DQ,Johneli Gutierrez,Crystal City,48.26,90.72,,,,Single-ply,SBD,F,
Girls,56.02,1,Kristal Rodriguez,Dilley,55.25,124.74,88.45,124.74,337.93,Single-ply,SBD,F,
Girls,56.02,2,Gabriela Moncada,Crystal City,52.62,127.01,63.5,122.47,312.98,Single-ply,SBD,F,
Girls,56.02,3,Amanda Aguilar,Uvalde,52.71,108.86,49.9,108.86,267.62,Single-ply,SBD,F,
Girls,56.02,4,Kaylee Longoria,Carrizo Springs,54.98,102.06,54.43,111.13,267.62,Single-ply,SBD,F,
Girls,56.02,5,Abigail Diaz,Carrizo Springs,52.62,95.25,43.09,92.99,231.33,Single-ply,SBD,F,
Girls,56.02,6,Kyrsten Ruiz,Dilley,55.97,92.99,52.16,79.38,224.53,Single-ply,SBD,F,
Girls,56.02,7,Lilyanna Gonzales,Stockdale,54.79,74.84,49.9,83.91,208.65,Single-ply,SBD,F,
Girls,56.02,8,Amber Gonzales,Uvalde,53.07,74.84,47.63,83.91,206.38,Single-ply,SBD,F,
Girls,56.02,DQ,Marijane Pedraza,Laredo Martin,52.53,79.38,,,,Single-ply,SBD,F,
Girls,60.1,1,Madalyn Armendariz,Crystal City,58.88,104.33,90.72,122.47,317.51,Single-ply,SBD,F,
Girls,60.1,2,Anamarie Rodriguez,Dilley,58.6,129.27,58.97,122.47,310.71,Single-ply,SBD,F,
Girls,60.1,3,Reyna Martel,Dilley,58.51,115.67,52.16,131.54,299.37,Single-ply,SBD,F,
Girls,60.1,4,Claire Dean,Knippa,59.96,102.06,63.5,127.01,292.57,Single-ply,SBD,F,
Girls,60.1,5,Klarissa Sonora,Uvalde,58.69,106.59,52.16,111.13,269.89,Single-ply,SBD,F,
Girls,60.1,6,Hailey Medrano,Pearsall,58.24,95.25,54.43,106.59,256.28,Single-ply,SBD,F,
Girls,60.1,7,Angela Garcia,Floresville,58.15,95.25,49.9,108.86,254.01,Single-ply,SBD,F,
Girls,60.1,8,Emily Valle,Pearsall,58.42,86.18,36.29,92.99,215.46,Single-ply,SBD,F,
Girls,60.1,9,Amanda Garcia,Pearsall,59.15,79.38,38.56,83.91,201.85,Single-ply,SBD,F,
Girls,60.1,10,Alexa Lopez,Laredo Nixon,56.43,56.7,31.75,65.77,154.22,Single-ply,SBD,F,
Girls,67.36,1,Tressa Reading,Knippa,65.23,129.27,86.18,120.2,335.66,Single-ply,SBD,F,
Girls,67.36,2,Zenestina Perez,Dilley,62.6,120.2,56.7,129.27,306.17,Single-ply,SBD,F,
Girls,67.36,3,Priscilla Alvarez,Uvalde,64.95,108.86,61.23,120.2,290.3,Single-ply,SBD,F,
Girls,67.36,4,Jodycee Trujillo,Carrizo Springs,64.32,108.86,56.7,117.93,283.5,Single-ply,SBD,F,
Girls,67.36,5,Stormi Balderas,Carrizo Springs,66.77,111.13,47.63,120.2,278.96,Single-ply,SBD,F,
Girls,67.36,6,Celi Ortiz,Pearsall,67.13,129.27,43.09,97.52,269.89,Single-ply,SBD,F,
Girls,67.36,7,Samara Gandara,Pearsall,66.59,108.86,43.09,113.4,265.35,Single-ply,SBD,F,
Girls,67.36,8,Llubia Rodriguez,Pearsall,65.41,111.13,49.9,99.79,260.82,Single-ply,SBD,F,
Girls,67.36,9,Johanna Alfaro,Laredo United South,67.31,102.06,49.9,106.59,258.55,Single-ply,SBD,F,
Girls,67.36,10,Brendela Avalos,Carrizo Springs,67.31,108.86,47.63,83.91,240.4,Single-ply,SBD,F,
Girls,67.36,11,Karla Contreras,Laredo Nixon,65.14,79.38,43.09,102.06,224.53,Single-ply,SBD,F,
Girls,67.36,12,Natalie Tristan,Laredo Nixon,65.05,72.57,43.09,102.06,217.72,Single-ply,SBD,F,
Girls,67.36,13,Yaretzi Moreno,Laredo Nixon,66.59,79.38,38.56,90.72,208.65,Single-ply,SBD,F,
Girls,67.36,14,Joelynn Teran,Pearsall,60.69,83.91,38.56,81.65,204.12,Single-ply,SBD,F,
Girls,67.36,15,Rosa Najera,Laredo Nixon,66.13,68.04,40.82,92.99,201.85,Single-ply,SBD,F,
Girls,67.36,16,Ashley Villeda,Laredo Cigarroa,65.32,58.97,34.02,74.84,167.83,Single-ply,SBD,F,
Girls,67.36,DQ,Jacqueline Lozano,Laredo Cigarroa,64.68,,,,,Single-ply,SBD,F,
Girls,75.07,1,Ariana Hernández,Laredo Cigarroa,67.59,151.95,70.31,131.54,353.8,Single-ply,SBD,F,
Girls,75.07,2,Isabella Rodriguez,Stockdale,69.13,120.2,72.57,147.42,340.19,Single-ply,SBD,F,
Girls,75.07,3,Kelesy Garcia,Uvalde,75.02,147.42,68.04,122.47,337.93,Single-ply,SBD,F,
Girls,75.07,4,Marissa Ramirez,Crystal City,72.48,145.15,68.04,122.47,335.66,Single-ply,SBD,F,
Girls,75.07,5,Isanelli Escamilla,Crystal City,71.67,147.42,65.77,111.13,324.32,Single-ply,SBD,F,
Girls,75.07,6,Yesenia Arellano,Floresville,74.03,127.01,65.77,129.27,322.05,Single-ply,SBD,F,
Girls,75.07,7,Leslie Acosta,Laredo United South,70.31,138.35,61.23,120.2,319.78,Single-ply,SBD,F,
Girls,75.07,8,Azalea Orozco,Floresville,72.85,120.2,54.43,111.13,285.76,Single-ply,SBD,F,
Girls,75.07,9,Makayla Jasso,Pearsall,73.21,113.4,54.43,97.52,265.35,Single-ply,SBD,F,
Girls,75.07,10,Brianna Herbert,Stockdale,70.03,90.72,58.97,108.86,258.55,Single-ply,SBD,F,
Girls,75.07,11,Isabel Muniz,Pearsall,71.21,111.13,52.16,83.91,247.21,Single-ply,SBD,F,
Girls,75.07,12,Allison Machado,Floresville,72.67,113.4,58.97,74.84,247.21,Single-ply,SBD,F,
Girls,75.07,13,Alex Rodriguez,Pearsall,73.03,95.25,56.7,92.99,244.94,Single-ply,SBD,F,
Girls,75.07,14,Kristina Munoz,Carrizo Springs,67.68,83.91,43.09,111.13,238.14,Single-ply,SBD,F,
Girls,75.07,15,Krystell Conde,Laredo Martin,69.67,79.38,52.16,106.59,238.14,Single-ply,SBD,F,
Girls,75.07,16,Destiny DeLeon,Knippa,73.48,95.25,45.36,92.99,233.6,Single-ply,SBD,F,
Girls,75.07,17,Daphne Medina,Laredo Nixon,73.03,97.52,40.82,90.72,229.06,Single-ply,SBD,F,
Girls,75.07,18,Marlene Cabrera,Laredo Nixon,72.21,72.57,38.56,95.25,206.38,Single-ply,SBD,F,
Girls,75.07,19,Brooke Deagen,Stockdale,71.85,63.5,34.02,90.72,188.24,Single-ply,SBD,F,
Girls,75.07,DQ,Lyna Castronera,Crystal City,72.12,136.08,,,,Single-ply,SBD,F,
Girls,82.33,1,Maria Rodriguez,Crystal City,82.28,204.12,124.74,165.56,494.42,Single-ply,SBD,F,
Girls,82.33,2,Jocelyn Bustamante,Uvalde,80.83,165.56,88.45,147.42,401.43,Single-ply,SBD,F,
Girls,82.33,3,Giana Rios,Crystal City,77.93,149.69,81.65,158.76,390.09,Single-ply,SBD,F,
Girls,82.33,4,Alizah Rodriguez,Crystal City,81.92,142.88,74.84,131.54,349.27,Single-ply,SBD,F,
Girls,82.33,5,Lexi Ramirez,Dilley,75.75,145.15,56.7,131.54,333.39,Single-ply,SBD,F,
Girls,82.33,6,Victoria Arredondo,Laredo Alexander,81.56,108.86,61.23,117.93,288.03,Single-ply,SBD,F,
Girls,82.33,7,Britany Lugo,Laredo Nixon,80.01,102.06,40.82,115.67,258.55,Single-ply,SBD,F,
Girls,82.33,8,Natalie Herrera,Laredo Cigarroa,81.65,77.11,47.63,95.25,219.99,Single-ply,SBD,F,
Girls,82.33,9,Carolina Garcia,Laredo Nixon,81.47,70.31,36.29,102.06,208.65,Single-ply,SBD,F,
Girls,82.33,10,Amanda Alvardo,Laredo Cigarroa,81.01,70.31,40.82,79.38,190.51,Single-ply,SBD,F,
Girls,90.04,1,Alyssa Alva,Pearsall,89.63,208.65,108.86,181.44,498.95,Single-ply,SBD,F,
Girls,90.04,2,Alessandra Mejia,Laredo Cigarroa,89.09,151.95,72.57,142.88,367.41,Single-ply,SBD,F,
Girls,90.04,3,Alex Soto #1,Crystal City,88.63,145.15,68.04,142.88,356.07,Single-ply,SBD,F,
Girls,90.04,4,Janel Garcia,Uvalde,82.83,147.42,49.9,129.27,326.59,Single-ply,SBD,F,
Girls,90.04,5,Anika Cisneros,Laredo United South,87,138.35,52.16,124.74,315.25,Single-ply,SBD,F,
Girls,90.04,6,Natalie Leal,Laredo United South,84.55,111.13,61.23,120.2,292.57,Single-ply,SBD,F,
Girls,90.04,7,Yessennia Gonzales,Stockdale,89.18,99.79,63.5,104.33,267.62,Single-ply,SBD,F,
Girls,100.02,1,Bethanie Rodriguez,Crystal City,99.79,219.99,133.81,167.83,521.63,Single-ply,SBD,F,
Girls,100.02,2,Brittney Briseno,Pearsall,91.53,138.35,70.31,136.08,344.73,Single-ply,SBD,F,
Girls,100.02,3,Janae Galindo,Dilley,96.89,142.88,65.77,115.67,324.32,Single-ply,SBD,F,
Girls,100.02,4,Mia Serrano,Laredo Cigarroa,94.26,108.86,56.7,124.74,290.3,Single-ply,SBD,F,
Girls,100.02,5,Claudia Holtschlag,Laredo Alexander,95.89,95.25,54.43,108.86,258.55,Single-ply,SBD,F,
Girls,100.02,6,Abbygail Hernandez,Laredo United South,94.62,102.06,38.56,108.86,249.48,Single-ply,SBD,F,
Girls,100.02,DQ,Kat Villarreal,Crystal City,98.97,138.35,68.04,,,Single-ply,SBD,F,
Girls,117.71,1,Cerina Smith,Carrizo Springs,112.31,142.88,61.23,142.88,347,Single-ply,SBD,F,
Girls,117.71,2,Sierra Pardo,Floresville,102.15,120.2,61.23,142.88,324.32,Single-ply,SBD,F,
Girls,117.71,3,Andriah Trevino,Uvalde,107.5,124.74,68.04,124.74,317.51,Single-ply,SBD,F,
Girls,117.71,4,Sydney Ybarra,Dilley,102.97,113.4,38.56,102.06,254.01,Single-ply,SBD,F,
Girls,117.71,5,Christiana Orozco,Laredo Cigarroa,116.85,77.11,52.16,86.18,215.46,Single-ply,SBD,F,
Girls,117.71+,1,Clarissa Ramirez,Crystal City,127.46,147.42,88.45,113.4,349.27,Single-ply,SBD,F,
