Name,WeightClassKg,Division,Sex,Best3SquatKg,Best3BenchKg,Best3DeadliftKg,TotalKg,Event,Equipment,Place,Age
D. Summers,67.5,Open,M,185.97,124.74,192.78,503.49,SBD,Multi-ply,1,
A. Yezer,75,Open,M,142.88,124.74,226.8,494.42,SBD,Multi-ply,1,
Virgil Diaz,90,Open,M,281.23,138.35,233.6,653.17,SBD,Single-ply,1,38
J. Gonzalez Jr,100,Open,M,249.48,142.88,226.8,619.15,SBD,Multi-ply,1,
J. Brown,75,Juniors,M,206.38,156.49,204.12,566.99,SBD,Multi-ply,1,
Lee Barry,125,Juniors,M,299.37,,,,SBD,Multi-ply,DQ,
Lee Barry Sr,100,Masters,M,185.97,140.61,217.72,544.31,SBD,Multi-ply,1,
J. Brogan,82.5,Masters,M,192.78,122.47,213.19,528.44,SBD,Multi-ply,1,
