Division,WeightClassKg,Place,Name,Team,BodyweightKg,Best3SquatKg,Best3BenchKg,Best3DeadliftKg,TotalKg,Equipment,Event,Sex
Boys,51.71,1,Eddie Taylor,La Porte,50.8,122.47,77.11,129.27,328.85,Single-ply,SBD,M
Boys,51.71,2,Raymond Garza,Clute Brazoswood,50.35,122.47,56.7,122.47,301.64,Single-ply,SBD,M
Boys,51.71,3,Steve Melgar,Hitchcock,42.64,108.86,49.9,129.27,288.03,Single-ply,SBD,M
Boys,51.71,4,Macus Mayorga,Pearland,50.35,111.13,65.77,102.06,278.96,Single-ply,SBD,M
Boys,51.71,5,Devin West,Clute Brazoswood,50.8,106.59,54.43,117.93,278.96,Single-ply,SBD,M
Boys,55.79,1,Blake Gamez,La Porte,55.79,176.9,106.59,183.7,467.2,Single-ply,SBD,M
Boys,55.79,2,Anthony Scarborough,Hitchcock,55.79,149.69,74.84,142.88,367.41,Single-ply,SBD,M
Boys,67.13,1,Cecilio Hernandez,Dickinson,59.96,174.63,111.13,176.9,462.66,Single-ply,SBD,M
Boys,59.87,2,Jakob Rios,Clute Brazoswood,59.42,165.56,104.33,183.7,453.59,Single-ply,SBD,M
Boys,59.87,3,Jim Tran,Dickinson,57.97,165.56,90.72,181.44,437.72,Single-ply,SBD,M
Boys,59.87,4,Chen Phan,Dickinson,58.24,170.1,90.72,176.9,437.72,Single-ply,SBD,M
Boys,59.87,5,Cameron Guillen,Clute Brazoswood,59.42,176.9,92.99,165.56,435.45,Single-ply,SBD,M
Boys,59.87,6,Adrian Martinez #6,Texas City,58.06,140.61,90.72,149.69,381.02,Single-ply,SBD,M
Boys,59.87,7,Christian Suayan,Galveston Ball,57.06,113.4,79.38,145.15,337.93,Single-ply,SBD,M
Boys,59.87,DQ,Bryce Hall,Baytown Sterling,59.87,,,,,Single-ply,SBD,M
Boys,67.13,1,Alec DeLeon,Dickinson,66.22,244.94,140.61,222.26,607.81,Single-ply,SBD,M
Boys,67.13,2,Brandon Martinez,Dickinson,65.77,190.51,111.13,183.7,485.34,Single-ply,SBD,M
Boys,67.13,3,Nefi Hernandez,Texas City,66.86,183.7,127.01,170.1,480.81,Single-ply,SBD,M
Boys,67.13,4,Caleb Ross,Clute Brazoswood,65.77,161.03,92.99,181.44,435.45,Single-ply,SBD,M
Boys,67.13,5,Nathaniel Walker,Hitchcock,63.05,161.03,102.06,151.95,415.04,Single-ply,SBD,M
Boys,67.13,6,Brandyn Ginyard,Pasadena Dobie,63.05,154.22,86.18,170.1,410.5,Single-ply,SBD,M
Boys,67.13,7,Ramon Ayala,Pearland,65.14,140.61,106.59,149.69,396.89,Single-ply,SBD,M
Boys,67.13,8,Blane Marcantel,Santa Fe,67.13,151.95,79.38,154.22,385.55,Single-ply,SBD,M
Boys,67.13,9,Robert Ricard,Hitchcock,65.77,142.88,97.52,142.88,383.29,Single-ply,SBD,M
Boys,67.13,10,Adam Bates,Baytown Lee,67.13,142.88,92.99,147.42,383.29,Single-ply,SBD,M
Boys,67.13,DQ,Darrius Smith,Pearland Dawson,67.13,,,,,Single-ply,SBD,M
Boys,67.13,DQ,Dominick Melchor,Baytown Lee,62.23,,90.72,142.88,,Single-ply,SBD,M
Boys,74.84,1,Cournelious Vaughans,Dickinson,73.75,235.87,142.88,219.99,598.74,Single-ply,SBD,M
Boys,74.84,2,Raymond Granderson,Baytown Sterling,73.94,215.46,120.2,204.12,539.77,Single-ply,SBD,M
Boys,74.84,3,Drew Lowery,Clute Brazoswood,74.39,176.9,106.59,210.92,494.42,Single-ply,SBD,M
Boys,74.84,4,Jared Hernandez,Texas City,72.57,174.63,117.93,190.51,483.08,Single-ply,SBD,M
Boys,74.84,5,Courtney Bell,Baytown Sterling,74.75,183.7,102.06,197.31,483.08,Single-ply,SBD,M
Boys,74.84,6,Randy Williams,Hitchcock,69.85,181.44,88.45,172.37,442.25,Single-ply,SBD,M
Boys,74.84,7,Jonathan Ernest,Baytown Lee,71.67,161.03,95.25,170.1,426.38,Single-ply,SBD,M
Boys,74.84,8,Colton Miller,Santa Fe,74.84,151.95,95.25,161.03,408.23,Single-ply,SBD,M
Boys,74.84,9,Carl Issac,Pearland Dawson,74.84,163.29,95.25,149.69,408.23,Single-ply,SBD,M
Boys,74.84,10,Aaron Jordan,Pasadena Dobie,72.12,147.42,90.72,149.69,387.82,Single-ply,SBD,M
Boys,74.84,11,John Michael Wilson,Santa Fe,74.84,142.88,102.06,136.08,381.02,Single-ply,SBD,M
Boys,74.84,DQ,Vincent Chachere,La Porte,74.84,,,,,Single-ply,SBD,M
Boys,74.84,DQ,Jacori James,Baytown Lee,73.12,145.15,,,,Single-ply,SBD,M
Boys,74.84,DQ,Rigello Pena,Baytown Sterling,74.84,,,,,Single-ply,SBD,M
Boys,82.1,1,Elijah Chennier,Baytown Sterling,80.29,222.26,124.74,208.65,555.65,Single-ply,SBD,M
Boys,82.1,2,Exavier Simpson,Texas City,76.66,206.38,136.08,208.65,551.11,Single-ply,SBD,M
Boys,82.1,3,Gabe Benitez,Pearland,82.1,197.31,117.93,204.12,519.36,Single-ply,SBD,M
Boys,82.1,4,Eric Ramirez,Pearland,82.1,204.12,104.33,204.12,512.56,Single-ply,SBD,M
Boys,82.1,5,Carlos Frank,Texas City,79.83,192.78,111.13,192.78,496.68,Single-ply,SBD,M
Boys,82.1,6,Andew Stokes,Galveston Ball,82.1,172.37,124.74,197.31,494.42,Single-ply,SBD,M
Boys,82.1,7,Xavien Henry,La Porte,79.38,195.04,102.06,163.29,460.4,Single-ply,SBD,M
Boys,82.1,8,Sergio Rada,Pasadena Dobie,77.47,156.49,111.13,185.97,453.59,Single-ply,SBD,M
Boys,82.1,9,Cameron Manning,Baytown Lee,76.66,151.95,102.06,172.37,426.38,Single-ply,SBD,M
Boys,82.1,10,Chase Thompson,Santa Fe,81.65,151.95,92.99,158.76,403.7,Single-ply,SBD,M
Boys,82.1,11,Justin Wade,Baytown Lee,79.38,,79.38,151.95,231.33,Single-ply,BD,M
Boys,82.1,DQ,Richard Kiffer,La Porte,82.1,,,,,Single-ply,BD,M
Boys,82.1,DQ,Saevion Johnson,Pearland Dawson,82.1,,,,,Single-ply,BD,M
Boys,82.1,DQ,Xavier Wright,Baytown Sterling,82.1,,,,,Single-ply,BD,M
Boys,82.1,DQ,Gabe Camerino,Baytown Lee,75.3,142.88,95.25,172.37,,Single-ply,SBD,M
Boys,82.1,DQ,Ashanti Walker,Texas City,82.1,,,,,Single-ply,BD,M
Boys,89.81,1,Logan Holt,Hitchcock,87.54,249.48,142.88,215.46,607.81,Single-ply,SBD,M
Boys,89.81,2,Tony Landry,Baytown Sterling,85.46,204.12,131.54,206.38,542.04,Single-ply,SBD,M
Boys,89.81,3,Eric Hembling,Clute Brazoswood,88.36,210.92,127.01,242.67,580.6,Single-ply,SBD,M
Boys,89.81,3,Aidan Blair,Santa Fe,89.36,197.31,108.86,197.31,503.49,Single-ply,SBD,M
Boys,89.81,4,Brent Smith,Hitchcock,89.72,204.12,111.13,188.24,503.49,Single-ply,SBD,M
Boys,89.81,5,Chris Ponder,Texas City,85.28,181.44,122.47,188.24,492.15,Single-ply,SBD,M
Boys,89.81,6,Sean Castillo,La Porte,83.91,199.58,113.4,172.37,485.34,Single-ply,SBD,M
Boys,89.81,7,Ethan Arthur,Pearland Dawson,89.36,183.7,120.2,181.44,485.34,Single-ply,SBD,M
Boys,89.81,8,Seth Betancourt,Baytown Lee,89.36,174.63,115.67,183.7,474,Single-ply,SBD,M
Boys,89.81,9,Osby Mitchell,Pearland Dawson,84.37,151.95,106.59,181.44,439.98,Single-ply,SBD,M
Boys,89.81,10,Tyler Ray,Santa Fe,88.45,174.63,92.99,170.1,437.72,Single-ply,SBD,M
Boys,99.79,1,Alan Elizando,La Porte,99.79,201.85,136.08,197.31,535.24,Single-ply,SBD,M
Boys,99.79,2,Beaux Casillo,Santa Fe,97.07,197.31,120.2,192.78,510.29,Single-ply,SBD,M
Boys,99.79,3,Jared Parrino,Baytown Sterling,91.17,197.31,104.33,206.38,508.02,Single-ply,SBD,M
Boys,99.79,4,Keion Patterson,Pasadena Dobie,91.63,165.56,145.15,195.04,505.76,Single-ply,SBD,M
Boys,99.79,5,Sam Tripp,Pearland Dawson,97.52,181.44,106.59,210.92,498.95,Single-ply,SBD,M
Boys,99.79,6,Vincent Gutierrez,Pasadena Dobie,96.34,183.7,120.2,188.24,492.15,Single-ply,SBD,M
Boys,99.79,7,Courtlan Shorter,Pearland Dawson,99.79,181.44,102.06,188.24,471.74,Single-ply,SBD,M
Boys,99.79,8,Levi Winson,Santa Fe,94.62,183.7,88.45,183.7,455.86,Single-ply,SBD,M
Boys,99.79,DQ,Jordan Rodriguez,Pearland Dawson,99.79,,,,,Single-ply,SBD,M
Boys,99.79,DQ,Andre Salazar,Pearland,99.79,,,,,Single-ply,SBD,M
Boys,99.79,DQ,Eddie White,Pearland,99.79,,,,,Single-ply,SBD,M
Boys,99.79,DQ,Hunter Thiem,Hitchcock,95.71,,,,,Single-ply,SBD,M
Boys,99.79,DQ,Quan Eaglin,Baytown Sterling,99.79,,,,,Single-ply,SBD,M
Boys,109.77,1,Kaylond North,Dickinson,108.68,317.51,190.51,276.69,784.71,Single-ply,SBD,M
Boys,109.77,2,Anietie Etuk,Dickinson,106.78,274.42,161.03,290.3,725.75,Single-ply,SBD,M
Boys,109.77,3,Ronnie Fraser,Pearland,108.41,272.16,188.24,254.01,714.41,Single-ply,SBD,M
Boys,109.77,4,Lorenzo Baeza,Texas City,106.59,294.84,165.56,233.6,694,Single-ply,SBD,M
Boys,109.77,5,Jared Reedy,Dickinson,109.23,285.76,156.49,244.94,687.19,Single-ply,SBD,M
Boys,109.77,6,Jimmy LaFata,Clute Brazoswood,109.77,265.35,165.56,215.46,646.37,Single-ply,SBD,M
Boys,109.77,7,Carlos Alvarez,Hitchcock,108.41,260.82,170.1,208.65,639.57,Single-ply,SBD,M
Boys,109.77,8,Dante Hayes,Texas City,109.77,235.87,145.15,242.67,623.69,Single-ply,SBD,M
Boys,109.77,9,Xavian Hampton,Hitchcock,105.23,263.08,113.4,226.8,603.28,Single-ply,SBD,M
Boys,109.77,10,Paul Guevera,Clute Brazoswood,109.77,219.99,145.15,208.65,573.79,Single-ply,SBD,M
Boys,109.77,11,Niko Afuaamango,Pearland,108.86,204.12,136.08,210.92,551.11,Single-ply,SBD,M
Boys,109.77,12,Estevan Lopez,Baytown Lee,107.32,224.53,106.59,210.92,542.04,Single-ply,SBD,M
Boys,109.77,13,Victor Esquivel,Clute Brazoswood,109.77,190.51,129.27,192.78,512.56,Single-ply,SBD,M
Boys,109.77,14,Rodnick Artmore,Galveston Ball,102.51,185.97,131.54,188.24,505.76,Single-ply,SBD,M
Boys,109.77,15,Frank Camacho,Pasadena Dobie,109.13,181.44,95.25,181.44,458.13,Single-ply,SBD,M
Boys,109.77,16,Pedro Alba,Pasadena Dobie,103.42,165.56,106.59,181.44,453.59,Single-ply,SBD,M
Boys,109.77,17,Pat Howell,Pearland Dawson,103.24,147.42,92.99,195.04,435.45,Single-ply,SBD,M
Boys,109.77,DQ,Chris Desantiago,Pearland Dawson,109.77,,,,,Single-ply,SBD,M
Boys,124.74,1,Denaus Ferguson,La Porte,121.29,285.76,163.29,274.42,723.48,Single-ply,SBD,M
Boys,124.74,2,Young Troung,Pasadena Dobie,121.56,254.01,192.78,276.69,723.48,Single-ply,SBD,M
Boys,124.74,3,Nathaniel Flores,Pasadena Dobie,112.94,249.48,183.7,249.48,682.66,Single-ply,SBD,M
Boys,124.74,4,DeQuan Allen,Baytown Sterling,114.76,249.48,176.9,226.8,653.17,Single-ply,SBD,M
Boys,124.74,5,Zach Arias,Pearland,120.02,242.67,151.95,215.46,610.08,Single-ply,SBD,M
Boys,124.74,6,Kyler Gentry,Santa Fe,118.39,226.8,147.42,231.33,605.55,Single-ply,SBD,M
Boys,124.74,7,Anthony Salazar,Texas City,113.85,217.72,124.74,183.7,526.17,Single-ply,SBD,M
Boys,124.74,8,Seth Lambert,Clute Brazoswood,113.58,197.31,111.13,215.46,523.9,Single-ply,SBD,M
Boys,124.74,9,Bayden Pethel,Texas City,118.84,201.85,131.54,190.51,523.9,Single-ply,SBD,M
Boys,124.74,10,Cameron Villareal,Galveston Ball,121.93,192.78,124.74,195.04,512.56,Single-ply,SBD,M
Boys,124.74,11,Paul Nieto,Baytown Lee,112.49,192.78,129.27,181.44,503.49,Single-ply,SBD,M
Boys,124.74,12,Jimmy Powell,Santa Fe,115.67,183.7,102.06,197.31,483.08,Single-ply,SBD,M
Boys,124.74+,1,Chance Harmanson,Dickinson,143.97,324.32,204.12,281.23,809.66,Single-ply,SBD,M
Boys,124.74+,2,Alonzo Crittendon,Dickinson,139.25,344.73,163.29,272.16,780.18,Single-ply,SBD,M
Boys,124.74+,4,Chris Sampson,Texas City,132.81,247.21,124.74,204.12,576.06,Single-ply,SBD,M
Boys,124.74+,5,Joseph Dill,Baytown Lee,151.5,215.46,129.27,226.8,571.53,Single-ply,SBD,M
Boys,124.74+,6,Herbert Goudeau,Baytown Sterling,164.11,226.8,127.01,208.65,562.45,Single-ply,SBD,M
Boys,124.74+,7,Gino Cortez,Pearland,130.63,215.46,151.95,190.51,557.92,Single-ply,SBD,M
Boys,124.74+,8,Casey Motley,La Porte,125.55,215.46,136.08,204.12,555.65,Single-ply,SBD,M
Boys,124.74+,9,Bryan Hayes,La Porte,142.61,215.46,145.15,192.78,553.38,Single-ply,SBD,M
Boys,124.74+,10,Parker Correia,Pearland Dawson,146.51,233.6,120.2,197.31,551.11,Single-ply,SBD,M
Boys,124.74+,11,Victor Sanchez,Hitchcock,135.17,215.46,127.01,204.12,546.58,Single-ply,SBD,M
Boys,124.74+,12,Austin Zachery,Baytown Lee,130,176.9,117.93,151.95,446.79,Single-ply,SBD,M
