Division,WeightClassKg,Place,Name,Team,BodyweightKg,Best3SquatKg,Best3BenchKg,Best3DeadliftKg,TotalKg,Equipment,Event,Sex
Boys,55.79,1,Davion Aldridge,Hutto,54.25,131.54,79.38,154.22,365.14,Single-ply,SBD,M
Boys,59.87,2,Timarcus Davis,College Station,55.88,140.61,63.5,124.74,328.85,Single-ply,SBD,M
Boys,55.79,3,David Hernandez,Hearne,53.16,111.13,70.31,145.15,326.59,Single-ply,SBD,M
Boys,55.79,4,Julian Rendow,Little River Academy,54.88,115.67,81.65,129.27,326.59,Single-ply,SBD,M
Boys,55.79,5,Gabe Spikes,Lago Vista,53.07,111.13,68.04,142.88,322.05,Single-ply,SBD,M
Boys,55.79,6,Zan Baer,Normangee,55.16,88.45,61.23,120.2,269.89,Single-ply,SBD,M
Boys,55.79,7,Juan Rodriguez,Hearne,54.16,102.06,43.09,113.4,258.55,Single-ply,SBD,M
Boys,55.79,8,Matt Pousson,Georgetown East View,54.25,81.65,43.09,97.52,222.26,Single-ply,SBD,M
Boys,55.79,9,Gavin Smith #2,Little River Academy,55.34,70.31,52.16,83.91,206.38,Single-ply,SBD,M
Boys,55.79,DQ,Logan McMillian,Little River Academy,54.07,104.33,,102.06,,Single-ply,SBD,M
Boys,67.13,1,Miguel Valdez,Georgetown East View,59.96,165.56,90.72,174.63,430.91,Single-ply,SBD,M
Boys,59.87,2,Braden Tschirhart,College Station,59.33,154.22,97.52,154.22,405.97,Single-ply,SBD,M
Boys,59.87,3,Clay Stamper,Lago Vista,59.6,104.33,74.84,127.01,306.17,Single-ply,SBD,M
Boys,67.13,4,Carnell Thompson,Hearne,59.96,104.33,65.77,131.54,301.64,Single-ply,SBD,M
Boys,59.87,5,Dakota Volk,Salado,59.33,102.06,58.97,129.27,290.3,Single-ply,SBD,M
Boys,59.87,6,Rodrigo Hernandez,Caldwell,56.25,95.25,61.23,97.52,254.01,Single-ply,SBD,M
Boys,59.87,DQ,Trace Saucedo,Hutto,59.6,,61.23,154.22,,Single-ply,SBD,M
Boys,59.87,DQ,Colton Harris,Georgetown East View,57.88,83.91,,90.72,,Single-ply,SBD,M
Boys,67.13,1,Daniel Iselt,Giddings,66.13,195.04,115.67,188.24,498.95,Single-ply,SBD,M
Boys,67.13,2,Derek Camero,Hutto,66.86,154.22,83.91,158.76,396.89,Single-ply,SBD,M
Boys,67.13,3,Caden Forisha,Hutto,65.68,133.81,88.45,161.03,383.29,Single-ply,SBD,M
Boys,67.13,4,Chris Monroe,College Station,62.23,138.35,88.45,142.88,369.68,Single-ply,SBD,M
Boys,67.13,5,Anthony Ortegon,Georgetown East View,65.23,117.93,86.18,163.29,367.41,Single-ply,SBD,M
Boys,67.13,6,Brandon Batot,Bastrop,62.32,149.69,72.57,142.88,365.14,Single-ply,SBD,M
Boys,67.13,7,Kirk Bookman,Cameron Yoe,61.78,142.88,77.11,142.88,362.87,Single-ply,SBD,M
Boys,67.13,8,Darryl Florez,Cameron Yoe,64.95,106.59,92.99,156.49,356.07,Single-ply,SBD,M
Boys,67.13,9,Danny Rogalie,Little River Academy,65.14,136.08,72.57,147.42,356.07,Single-ply,SBD,M
Boys,67.13,10,Jake LaMotte,Little River Academy,61.6,124.74,83.91,140.61,349.27,Single-ply,SBD,M
Boys,67.13,11,Devynn Halloran,College Station,64.95,124.74,72.57,151.95,349.27,Single-ply,SBD,M
Boys,67.13,12,Kaden Trice,Salado,66.22,124.74,81.65,140.61,347,Single-ply,SBD,M
Boys,74.84,13,Tate Hill,Salado,67.31,120.2,68.04,149.69,337.93,Single-ply,SBD,M
Boys,67.13,14,Clay Johnson,Little River Academy,65.41,113.4,74.84,124.74,312.98,Single-ply,SBD,M
Boys,67.13,15,Justin Gonzalez,Bastrop,60.69,102.06,61.23,115.67,278.96,Single-ply,SBD,M
Boys,67.13,16,Dustin May,Georgetown East View,61.42,102.06,56.7,120.2,278.96,Single-ply,SBD,M
Boys,67.13,DQ,Blaine Wootan,College Station,64.32,,81.65,149.69,,Single-ply,SBD,M
Boys,74.84,1,Carlos Lucio,Bryan,74.75,215.46,147.42,204.12,566.99,Single-ply,SBD,M
Boys,74.84,2,Alex Kyner,Thrall,72.12,192.78,131.54,204.12,528.44,Single-ply,SBD,M
Boys,74.84,3,Kyle Castilleja,Hearne,73.84,170.1,102.06,222.26,494.42,Single-ply,SBD,M
Boys,74.84,4,Tristan Dudley,Rogers,72.85,188.24,127.01,176.9,492.15,Single-ply,SBD,M
Boys,74.84,5,Scott Zufelt,Lago Vista,71.12,163.29,95.25,226.8,485.34,Single-ply,SBD,M
Boys,74.84,6,Justis Owens,Hutto,68.95,176.9,106.59,181.44,464.93,Single-ply,SBD,M
Boys,74.84,7,William Toliver,Hearne,67.68,154.22,106.59,199.58,460.4,Single-ply,SBD,M
Boys,74.84,8,Cole Ballard,Hutto,73.84,170.1,102.06,174.63,446.79,Single-ply,SBD,M
Boys,74.84,9,Bryce Williams,Little River Academy,74.03,163.29,102.06,181.44,446.79,Single-ply,SBD,M
Boys,74.84,10,Alec Behrendt,Thrall,68.95,158.76,113.4,170.1,442.25,Single-ply,SBD,M
Boys,74.84,11,Zack Smith,Little River Academy,73.3,154.22,106.59,167.83,428.64,Single-ply,SBD,M
Boys,74.84,12,Travis Stone,Rogers,68.76,161.03,86.18,172.37,419.57,Single-ply,SBD,M
Boys,74.84,13,Joe Verdi,Bastrop,72.94,145.15,102.06,165.56,412.77,Single-ply,SBD,M
Boys,74.84,14,Caleb Tinnell,Hearne,73.12,145.15,97.52,167.83,410.5,Single-ply,SBD,M
Boys,74.84,15,River Wylie,Lago Vista,67.77,154.22,90.72,163.29,408.23,Single-ply,SBD,M
Boys,74.84,16,Eduardo Bautista,Cameron Yoe,73.75,142.88,102.06,145.15,390.09,Single-ply,SBD,M
Boys,74.84,17,Michael Carpeno,Lago Vista,70.13,129.27,79.38,165.56,374.21,Single-ply,SBD,M
Boys,74.84,18,Grayson Edwards,Little River Academy,72.67,136.08,72.57,151.95,360.61,Single-ply,SBD,M
Boys,74.84,19,Dylan Hines,Lago Vista,68.49,117.93,70.31,149.69,337.93,Single-ply,SBD,M
Boys,74.84,20,Tyler Stairs,Salado,69.67,120.2,65.77,124.74,310.71,Single-ply,SBD,M
Boys,74.84,21,Andrew Ramstedt,Little River Academy,69.4,120.2,63.5,124.74,308.44,Single-ply,SBD,M
Boys,74.84,22,Connor Vernachio,Lago Vista,74.39,86.18,52.16,136.08,274.42,Single-ply,SBD,M
Boys,74.84,23,Titus Lewis,Cameron Yoe,70.85,68.04,68.04,124.74,260.82,Single-ply,SBD,M
Boys,74.84,DQ,Dylan Thomas,Bastrop,70.22,147.42,,145.15,,Single-ply,SBD,M
Boys,74.84,DQ,Antwone Antwone,Bryan,72.3,172.37,,154.22,,Single-ply,SBD,M
Boys,74.84,DQ,Byron Williams,Bryan,68.67,,,145.15,,Single-ply,SBD,M
Boys,74.84,DQ,Leonard Sterling,Bryan Rudder,69.85,,74.84,102.06,,Single-ply,SBD,M
Boys,74.84,DQ,Maliq Phoenix,Hutto,70.22,,77.11,,,Single-ply,SBD,M
Boys,74.84,DQ,Matthew Bates,Hutto,69.67,,79.38,181.44,,Single-ply,SBD,M
Boys,74.84,DQ,Ryan Hill #1,Lago Vista,74.48,,102.06,163.29,,Single-ply,SBD,M
Boys,74.84,DQ,Kyle King,Salado,68.13,,79.38,136.08,,Single-ply,SBD,M
Boys,74.84,DQ,Michael Caldwell,Normangee,72.3,,97.52,133.81,,Single-ply,SBD,M
Boys,82.1,1,Patrick Clouston,College Station,80.56,181.44,97.52,190.51,469.47,Single-ply,SBD,M
Boys,82.1,2,David Beltran,Georgetown East View,81.74,172.37,113.4,174.63,460.4,Single-ply,SBD,M
Boys,82.1,3,Kris Rodriguez,Hutto,80.74,165.56,97.52,181.44,444.52,Single-ply,SBD,M
Boys,82.1,4,Paul Hoover,Hutto,77.11,154.22,113.4,170.1,437.72,Single-ply,SBD,M
Boys,82.1,5,Christian Garcia,Bastrop,80.56,147.42,99.79,183.7,430.91,Single-ply,SBD,M
Boys,82.1,6,Scott Thompson,Georgetown East View,76.57,151.95,97.52,176.9,426.38,Single-ply,SBD,M
Boys,82.1,7,Aaron Ratliff,Normangee,79.56,147.42,104.33,158.76,410.5,Single-ply,SBD,M
Boys,82.1,8,Dearyon Milligan,Hutto,78.29,142.88,97.52,167.83,408.23,Single-ply,SBD,M
Boys,82.1,9,Adrian Jimenez,Georgetown East View,81.1,163.29,104.33,138.35,405.97,Single-ply,SBD,M
Boys,82.1,10,Jacob Hernandez,Lago Vista,79.74,145.15,92.99,158.76,396.89,Single-ply,SBD,M
Boys,82.1,11,Dawson Hernandez,Lago Vista,75.57,145.15,79.38,163.29,387.82,Single-ply,SBD,M
Boys,82.1,12,Logan Gollihare,Georgetown East View,76.29,124.74,102.06,156.49,383.29,Single-ply,SBD,M
Boys,82.1,13,Ricky Sampson,Salado,80.47,124.74,97.52,147.42,369.68,Single-ply,SBD,M
Boys,89.81,14,Brad Weichman,Lago Vista,82.28,136.08,83.91,149.69,369.68,Single-ply,SBD,M
Boys,89.81,1,Desmond Payton,College Station,88.99,272.16,117.93,272.16,662.24,Single-ply,SBD,M
Boys,89.81,2,Auston Ellis,Bryan Rudder,86.73,260.82,145.15,208.65,614.62,Single-ply,SBD,M
Boys,89.81,3,MarcJavion McGrew,Hearne,87.82,238.14,133.81,240.4,612.35,Single-ply,SBD,M
Boys,89.81,4,Kaleb Miears,College Station,89.18,201.85,113.4,204.12,519.36,Single-ply,SBD,M
Boys,89.81,5,Evan Wotipka,Lago Vista,84.73,188.24,115.67,201.85,505.76,Single-ply,SBD,M
Boys,89.81,6,Noe Salazar,Bastrop,89.45,190.51,102.06,199.58,492.15,Single-ply,SBD,M
Boys,89.81,7,Duane Howard,Bastrop,86.64,183.7,111.13,174.63,469.47,Single-ply,SBD,M
Boys,89.81,8,Michael Els,Lago Vista,87.36,163.29,108.86,158.76,430.91,Single-ply,SBD,M
Boys,89.81,9,Byshup Rhodes,Hutto,86.73,149.69,106.59,172.37,428.64,Single-ply,SBD,M
Boys,89.81,10,Gorgonio De Los Reyes,Georgetown East View,85.73,165.56,104.33,156.49,426.38,Single-ply,SBD,M
Boys,89.81,11,Caleb McGee,Cameron Yoe,88.45,136.08,97.52,192.78,426.38,Single-ply,SBD,M
Boys,89.81,12,Russell Sweet,Lago Vista,87,149.69,92.99,158.76,401.43,Single-ply,SBD,M
Boys,89.81,13,Jaedon McGee,Bastrop,83.91,138.35,83.91,136.08,358.34,Single-ply,SBD,M
Boys,89.81,14,Noah Gonzales,Cameron Yoe,89.58,127.01,83.91,142.88,353.8,Single-ply,SBD,M
Boys,89.81,15,Jason Flynn,Salado,84.91,131.54,88.45,131.54,351.53,Single-ply,SBD,M
Boys,89.81,16,Anthony Arburn,Lago Vista,85.09,102.06,79.38,149.69,331.12,Single-ply,SBD,M
Boys,89.81,17,Cody Sutton,Lago Vista,86.64,90.72,83.91,129.27,303.91,Single-ply,SBD,M
Boys,99.79,1,Luis Villafranco,Salado,95.35,219.99,122.47,215.46,557.92,Single-ply,SBD,M
Boys,99.79,2,Brandon Bruce,Rogers,90.72,213.19,115.67,210.92,539.77,Single-ply,SBD,M
Boys,99.79,3,Bryson Jones,Rogers,93.53,208.65,142.88,181.44,532.97,Single-ply,SBD,M
Boys,109.77,4,Cristian Contreras,Hearne,99.88,195.04,133.81,204.12,532.97,Single-ply,SBD,M
Boys,99.79,5,Daniel Barrientos,College Station,91.26,215.46,117.93,197.31,530.7,Single-ply,SBD,M
Boys,99.79,6,Roel Santana,Hutto,90.99,142.88,92.99,149.69,385.55,Single-ply,SBD,M
Boys,99.79,7,Robert Rangel,Hutto,92.08,136.08,88.45,161.03,385.55,Single-ply,SBD,M
Boys,109.77,8,Matthew Sumbillo,Thrall,99.97,145.15,104.33,136.08,385.55,Single-ply,SBD,M
Boys,99.79,9,Lance Spakes,Salado,92.71,154.22,92.99,136.08,383.29,Single-ply,SBD,M
Boys,99.79,10,Chris Keeling,Hearne,97.52,142.88,79.38,151.95,374.21,Single-ply,SBD,M
Boys,99.79,11,Jonathan Willett,Georgetown East View,90.08,102.06,83.91,142.88,328.85,Single-ply,SBD,M
Boys,99.79,12,Andrew Remmenga,Thrall,91.17,113.4,77.11,124.74,315.25,Single-ply,SBD,M
Boys,99.79,DQ,Collins Collins,Salado,98.7,,106.59,165.56,,Single-ply,SBD,M
Boys,99.79,DQ,Eric Brown,Lago Vista,96.98,140.61,,120.2,,Single-ply,SBD,M
Boys,109.77,1,Collin McMillan,Little River Academy,109.04,210.92,154.22,249.48,614.62,Single-ply,SBD,M
Boys,109.77,2,Kee Kee Johnson,Bryan,107.14,204.12,127.01,206.38,537.51,Single-ply,SBD,M
Boys,124.74,3,O'neal Patterson,Hutto,109.86,201.85,133.81,192.78,528.44,Single-ply,SBD,M
Boys,124.74,4,Drew Rodriguez,College Station,109.95,204.12,120.2,181.44,505.76,Single-ply,SBD,M
Boys,109.77,5,Daegan Fowler,Lago Vista,102.87,170.1,131.54,197.31,498.95,Single-ply,SBD,M
Boys,109.77,6,Arnold Moreno,Georgetown East View,103.15,183.7,102.06,199.58,485.34,Single-ply,SBD,M
Boys,109.77,7,Kobe Ward,Hutto,103.42,165.56,86.18,190.51,442.25,Single-ply,SBD,M
Boys,109.77,8,Vincent Gallegos,Giddings,105.69,151.95,113.4,154.22,419.57,Single-ply,SBD,M
Boys,109.77,9,Craig Orona,Lago Vista,104.87,158.76,90.72,158.76,408.23,Single-ply,SBD,M
Boys,109.77,10,Pablo Rodriguez,Cameron Yoe,101.24,124.74,90.72,142.88,358.34,Single-ply,SBD,M
Boys,109.77,11,Tomas Salomon,Cameron Yoe,109.68,140.61,90.72,122.47,353.8,Single-ply,SBD,M
Boys,109.77,12,Brian McDonald,Cameron Yoe,108.23,68.04,49.9,102.06,219.99,Single-ply,SBD,M
Boys,109.77,DQ,Jared Trinidad,Bryan Rudder,103.6,,111.13,,,Single-ply,SBD,M
Boys,109.77,DQ,Cameron King,Bastrop,102.6,158.76,,149.69,,Single-ply,SBD,M
Boys,109.77,DQ,Tony Green,Hutto,100.33,192.78,,192.78,,Single-ply,SBD,M
Boys,124.74,1,Peyton Womack,Salado,117.48,247.21,136.08,226.8,610.08,Single-ply,SBD,M
Boys,124.74,2,Ronaldo Ruiz,Hutto,120.93,240.4,142.88,213.19,596.47,Single-ply,SBD,M
Boys,124.74,3,Charles Owens,Bryan Rudder,121.47,247.21,127.01,195.04,569.26,Single-ply,SBD,M
Boys,124.74,4,James Hayes,College Station,118.21,226.8,129.27,206.38,562.45,Single-ply,SBD,M
Boys,124.74,5,Roberto Requena,Caldwell,113.31,213.19,131.54,215.46,560.19,Single-ply,SBD,M
Boys,124.74,6,Zachery Handrick,Giddings,112.49,192.78,133.81,201.85,528.44,Single-ply,SBD,M
Boys,124.74,7,Michael Chairez,Georgetown East View,116.12,185.97,156.49,176.9,519.36,Single-ply,SBD,M
Boys,124.74,8,Jakob Popple,Salado,116.85,192.78,106.59,183.7,483.08,Single-ply,SBD,M
Boys,124.74,9,Paul Crawford,Georgetown East View,112.49,204.12,129.27,142.88,476.27,Single-ply,SBD,M
Boys,124.74,10,Tyler Thompson,Rogers,117.21,181.44,117.93,158.76,458.13,Single-ply,SBD,M
Boys,124.74,11,Trent Watkins,Normangee,113.67,165.56,102.06,176.9,444.52,Single-ply,SBD,M
Boys,124.74,12,Byron King,Georgetown East View,112.58,163.29,97.52,170.1,430.91,Single-ply,SBD,M
Boys,124.74,13,Julian Namken,Giddings,120.47,154.22,120.2,154.22,428.64,Single-ply,SBD,M
Boys,124.74,14,Chris Head,Bryan,116.21,136.08,97.52,149.69,383.29,Single-ply,SBD,M
Boys,124.74,15,Juan Rameriz,Giddings,122.65,136.08,90.72,124.74,351.53,Single-ply,SBD,M
Boys,124.74,16,Brent Johnson,Hearne,118.93,108.86,65.77,124.74,299.37,Single-ply,SBD,M
Boys,124.74+,1,Grayson Eaton,Little River Academy,161.57,226.8,161.03,183.7,571.53,Single-ply,SBD,M
Boys,124.74+,2,Dominic Brown,Georgetown East View,126.28,219.99,133.81,183.7,537.51,Single-ply,SBD,M
Boys,124.74+,3,Jack Pirtle,Little River Academy,126.55,176.9,99.79,161.03,437.72,Single-ply,SBD,M
