Place,Name,Division,Equipment,Event,BirthDate,BirthYear,Age,Sex,BodyweightKg,WeightClassKg,Squat1Kg,Squat2Kg,Squat3Kg,Best3SquatKg,Bench1Kg,Bench2Kg,Bench3Kg,Best3BenchKg,Deadlift1Kg,Deadlift2Kg,Deadlift3Kg,Best3DeadliftKg,TotalKg
1,Corentin Kosiczewski,Sub-Juniors,Raw,B,,2001,17,M,65.9,66,,,,,80,82.5,-85,82.5,,,,,82.5
1,Axel Barbier,Seniors,Raw,B,,1988,30,M,80.3,83,,,,,147.5,-162.5,-162.5,147.5,,,,,147.5
1,Mohamed Ballaji,Masters 4,Raw,B,,1941,77,M,63,66,,,,,75,80,-82.5,80,,,,,80
1,Michel Marneur,Masters 2,Single-ply,B,,1968,50,M,92.9,93,,,,,230,240,-250,240,,,,,240
1,Charles Duval,Masters 1,Single-ply,B,,1972,46,M,120,120,,,,,250,-270,-270,250,,,,,250
