Division,WeightClassKg,Place,Name,Team,BodyweightKg,Best3SquatKg,Best3BenchKg,Best3DeadliftKg,TotalKg,Equipment,Event,Sex
Girls,44.23,1,Bret King #1,Hamshire-Fannett,44,86.18,43.09,104.33,233.6,Single-ply,SBD,F
Girls,47.85,1,Ceideah Walker,Orange Little Cypress-Mauriceville,47.17,52.16,29.48,65.77,147.42,Single-ply,SBD,F
Girls,51.94,1,Linh Tsan,Orangefield,51.71,97.52,31.75,95.25,224.53,Single-ply,SBD,F
Girls,51.94,2,Erica Phillips,Orangefield,48.99,74.84,34.02,90.72,199.58,Single-ply,SBD,F
Girls,51.94,DQ,Savannah Day,Hamshire-Fannett,51.71,129.27,74.84,,,Single-ply,SBD,F
Girls,56.02,1,Madison Taylor,Orangefield,55.79,136.08,68.04,136.08,340.19,Single-ply,SBD,F
Girls,60.1,1,Scout Bebee,Silsbee,58.97,97.52,43.09,97.52,238.14,Single-ply,SBD,F
Girls,60.1,2,Alexia Williams,Orange Little Cypress-Mauriceville,59.42,88.45,49.9,92.99,231.33,Single-ply,SBD,F
Girls,60.1,3,Alexis Trichell,Orange Little Cypress-Mauriceville,59.87,83.91,54.43,92.99,231.33,Single-ply,SBD,F
Girls,60.1,4,Samantha Pousson,Hamshire-Fannett,59.87,81.65,36.29,86.18,204.12,Single-ply,SBD,F
Girls,67.36,1,E'Laziah Nickerson,West Orange-Stark,65.77,124.74,56.7,115.67,297.1,Single-ply,SBD,F
Girls,67.36,2,Shelby Woods,Silsbee,66.22,86.18,45.36,97.52,229.06,Single-ply,SBD,F
Girls,67.36,3,Lennie Mangindin,Silsbee,63.5,95.25,45.36,83.91,224.53,Single-ply,SBD,F
Girls,75.07,1,Hallie Brown,Hamshire-Fannett,74.84,161.03,97.52,124.74,383.29,Single-ply,SBD,F
Girls,75.07,2,Julia Droll,Orangefield,68.95,117.93,56.7,124.74,299.37,Single-ply,SBD,F
Girls,75.07,3,Kennedy Queen,West Orange-Stark,71.67,115.67,56.7,127.01,299.37,Single-ply,SBD,F
Girls,75.07,4,Ja'chyria Locks,West Orange-Stark,72.57,104.33,54.43,136.08,294.84,Single-ply,SBD,F
Girls,75.07,5,Gisele Ramos,Orangefield,70.31,95.25,45.36,113.4,254.01,Single-ply,SBD,F
Girls,75.07,6,Madison Walles,Orangefield,74.39,77.11,38.56,113.4,229.06,Single-ply,SBD,F
Girls,75.07,7,Madison Brahan,Hamshire-Fannett,74.84,79.38,43.09,81.65,204.12,Single-ply,SBD,F
Girls,75.07,8,Anna Broussard,Orange Little Cypress-Mauriceville,73.48,65.77,34.02,74.84,174.63,Single-ply,SBD,F
Girls,82.33,1,Sophie Hurley,Hamshire-Fannett,82.1,131.54,61.23,124.74,317.51,Single-ply,SBD,F
Girls,82.33,2,Sarah Bates,Orange Little Cypress-Mauriceville,75.75,92.99,54.43,92.99,240.4,Single-ply,SBD,F
Girls,82.33,3,Mclain Down,Orangefield,78.02,65.77,40.82,99.79,206.38,Single-ply,SBD,F
Girls,82.33,4,Sydney McGraw,Orange Little Cypress-Mauriceville,78.93,54.43,31.75,72.57,158.76,Single-ply,SBD,F
Girls,90.04,1,Katelyn Comeaux,Silsbee,87.09,154.22,77.11,142.88,374.21,Single-ply,SBD,F
Girls,90.04,2,Alyssa Rogers,Silsbee,85.73,124.74,54.43,136.08,315.25,Single-ply,SBD,F
Girls,90.04,3,Autumn Davis,Hamshire-Fannett,89.81,104.33,49.9,90.72,244.94,Single-ply,SBD,F
Girls,90.04,4,Krystal Alicea,Orange Little Cypress-Mauriceville,83.01,86.18,45.36,99.79,231.33,Single-ply,SBD,F
Girls,90.04,5,Hannah Gilbert,Silsbee,87.54,65.77,36.29,83.91,185.97,Single-ply,SBD,F
Girls,100.02,1,Denisha Dodis,Silsbee,99.34,145.15,61.23,145.15,351.53,Single-ply,SBD,F
Girls,100.02,2,Paige Brinkman,Hamshire-Fannett,99.79,127.01,68.04,124.74,319.78,Single-ply,SBD,F
Girls,100.02,3,A'Tiere Aniey Simpson,Silsbee,97.52,120.2,68.04,124.74,312.98,Single-ply,SBD,F
Girls,117.71,1,Kelsey Dyson,Orange Little Cypress-Mauriceville,116.57,124.74,45.36,120.2,290.3,Single-ply,SBD,F
Girls,117.71,DQ,Grace Sullivan,Orangefield,100.7,,34.02,70.31,,Single-ply,SBD,F
Girls,117.71+,1,Breanna Dyson,Orange Little Cypress-Mauriceville,137.89,136.08,70.31,124.74,331.12,Single-ply,SBD,F
Girls,117.71+,2,Jayden Behling,Silsbee,126.55,74.84,49.9,124.74,249.48,Single-ply,SBD,F
