Sex,Name,BodyweightKg,Team,Deadlift1Kg,Deadlift2Kg,Deadlift3Kg,Best3DeadliftKg,Deadlift4Kg,TotalKg,WeightClassKg,Event,Equipment,Tested,Bench1Kg,Bench2Kg,Bench3Kg,Best3BenchKg,Bench4Kg,Squat1Kg,Squat2Kg,Squat3Kg,Best3SquatKg,Squat4Kg,Division,BirthDate,Age,Place
M,Malik Abdulayev,99.6,Lichno,215,230.5,,230.5,,230,100,D,Multi-ply,Yes,,,,,,,,,,,Amateur Masters 40-44,1977-09-29,42,1
M,Igor Umerenkov,109.8,Lichno,280,-303,,280,,280,110,D,Multi-ply,Yes,,,,,,,,,,,Amateur Open,1980-09-13,39,1
M,Arbi Israilov,108.1,Lichno,180,190,200,200,,200,110,D,Multi-ply,Yes,,,,,,,,,,,Amateur Masters 50-54,1968-07-19,51,1
M,Igor Gavrilyan,90,Lichno,240,265,-275,265,,265,90,D,Single-ply,Yes,,,,,,,,,,,Amateur Open,1979-08-23,40,1
M,Igor Gavrilyan,90,Lichno,240,265,-275,265,,265,90,D,Single-ply,Yes,,,,,,,,,,,Amateur Masters 40-44,1979-08-23,40,1
M,Maksim Yurash,93.9,Lichno,220,230,242.5,242.5,,242.5,100,D,Single-ply,Yes,,,,,,,,,,,Amateur Open,1991-02-12,28,1
F,Nadezhda Zaytseva,50.7,Lichno,-125,125,-132.5,125,,125,52,D,Raw,Yes,,,,,,,,,,,Amateur Open,1988-09-29,31,1
F,Svetlana Tolstova,52,Lichno,120,125,-132.5,125,,125,52,D,Raw,Yes,,,,,,,,,,,Amateur Open,1986-05-04,33,2
F,Oksana Aliluy,56,Lichno,115,120,125,125,,125,56,D,Raw,Yes,,,,,,,,,,,Amateur Open,1989-04-04,30,1
F,Lyudmila Pavlova,55,Faust,110,117.5,122.5,122.5,,122.5,56,D,Raw,Yes,,,,,,,,,,,Amateur Masters 40-44,1976-06-04,43,1
F,Natalya Lisova,59,Lichno,110,115,125,125,,125,60,D,Raw,Yes,,,,,,,,,,,Amateur Open,1980-03-17,39,1
F,Anna Mizina,58.9,Lichno,110,115,-125,115,,115,60,D,Raw,Yes,,,,,,,,,,,Amateur Open,1979-11-13,39,2
F,Yelizaveta Likhovod,59.3,Lichno,100,-105,105,105,,105,60,D,Raw,Yes,,,,,,,,,,,Amateur Open,1994-08-21,25,3
F,Svetlana Saburova,67.4,Lichno,-145,-145,-145,,,,67.5,D,Raw,Yes,,,,,,,,,,,Amateur Open,1972-02-20,47,DQ
F,Yelena Belko,74,Lichno,90,95,100,100,,100,75,D,Raw,Yes,,,,,,,,,,,Amateur Masters 50-54,1967-05-27,52,1
M,Igor Podzhidayev,57.5,Lichno,150,-160,-172.5,150,,150,60,D,Raw,Yes,,,,,,,,,,,Amateur Teen 16-17,2003-07-03,16,1
M,Grigoriy Gusev,74,Lichno,202.5,212.5,-220,212.5,,212.5,75,D,Raw,Yes,,,,,,,,,,,Amateur Open,1995-05-19,24,1
M,Baterdene Batkhuyag,72.7,Lichno,-160,-180,180,180,,180,75,D,Raw,Yes,,,,,,,,,,,Amateur Open,1993-06-23,26,2
M,Aleksandr Izgagin,73.8,Lichno,140,150,,150,,150,75,D,Raw,Yes,,,,,,,,,,,Amateur Masters 65-69,1953-06-21,66,1
M,Yegor Bulychev,78.9,Lichno,215,222.5,-230,222.5,,222.5,82.5,D,Raw,Yes,,,,,,,,,,,Amateur Juniors 20-23,1995-12-08,23,1
M,Yuriy Begunts,82,Lichno,235,-245,-245,235,,235,82.5,D,Raw,Yes,,,,,,,,,,,Amateur Open,1994-07-03,25,1
M,Eduard Dolgopolov,79.8,Lichno,220,225,-232.5,225,,225,82.5,D,Raw,Yes,,,,,,,,,,,Amateur Open,1977-04-22,42,2
M,Eduard Dolgopolov,79.8,Lichno,220,225,-232.5,225,,225,82.5,D,Raw,Yes,,,,,,,,,,,Amateur Masters 40-44,1977-04-22,42,1
M,Petr Shabaldin,80.5,Lichno,175,185,190,190,,190,82.5,D,Raw,Yes,,,,,,,,,,,Amateur Masters 65-69,1949-11-05,69,1
M,Shadig Abdullayev,85.6,Lichno,215,225,235,235,,235,90,D,Raw,Yes,,,,,,,,,,,Amateur Juniors 20-23,1996-05-29,23,1
M,Maksim Vedishchev,87.8,Lichno,-300,307.5,-320,307.5,,307.5,90,D,Raw,Yes,,,,,,,,,,,Amateur Open,1978-05-17,41,1
M,Maksim Vedishchev,87.8,Lichno,-300,307.5,-320,307.5,,307.5,90,D,Raw,Yes,,,,,,,,,,,Amateur Masters 40-44,1978-05-17,41,1
M,Altanbagana Sharavdarzh,97.3,Lichno,240,250,-270,250,,250,100,D,Raw,Yes,,,,,,,,,,,Amateur Open,1990-05-17,29,1
M,Sergey Chmil,98.2,Lichno,220,230,-240,230,,230,100,D,Raw,Yes,,,,,,,,,,,Amateur Open,1993-08-07,26,2
M,Battur Battsengel,106,Lichno,200,-210,-217.5,200,,200,110,D,Raw,Yes,,,,,,,,,,,Amateur Juniors 20-23,1998-01-01,21,1
M,Gleb Safronenko,100.7,Lichno,250,265,-280,265,,265,110,D,Raw,Yes,,,,,,,,,,,Amateur Open,1985-01-21,34,1
M,Denis Tretyakov,109.5,Lichno,210,-230,230,230,,230,110,D,Raw,Yes,,,,,,,,,,,Amateur Open,1986-12-18,32,2
M,Viktor Malyshkin,101.2,Lichno,160,165,170,170,,170,110,D,Raw,Yes,,,,,,,,,,,Amateur Masters 70-74,1947-09-11,72,1
M,Igor Yakovlev,143,Lichno,260,280,300,300,,300,140+,D,Raw,Yes,,,,,,,,,,,Amateur Open,1976-12-25,42,1
M,Igor Yakovlev,143,Lichno,260,280,300,300,,300,140+,D,Raw,Yes,,,,,,,,,,,Amateur Masters 40-44,1976-12-25,42,1
F,Kseniya Plakhuta,66.1,Lichno,175,-192.5,-192.5,175,,175,67.5,D,Single-ply,No,,,,,,,,,,,Pro Open,1987-11-11,31,1
M,Vladislav Ivashchenko,66.9,Lichno,180,200,-210,200,,200,67.5,D,Single-ply,No,,,,,,,,,,,Pro Open,1993-10-22,25,1
M,Oleg Solonenko,74,Lichno,200,210,220,220,,220,75,D,Single-ply,No,,,,,,,,,,,Pro Open,1970-09-26,49,1
M,Konstantin Semenov,73.4,Lichno,205,212.5,217.5,217.5,,217.5,75,D,Single-ply,No,,,,,,,,,,,Pro Open,1964-08-24,55,2
M,Oleg Solonenko,74,Lichno,200,210,220,220,,220,75,D,Single-ply,No,,,,,,,,,,,Pro Masters 45-49,1970-09-26,49,1
M,Konstantin Semenov,73.4,Lichno,205,212.5,217.5,217.5,,217.5,75,D,Single-ply,No,,,,,,,,,,,Pro Masters 55-59,1964-08-24,55,1
M,Aleksandr Mamedov,76.7,Lichno,200,-220,220,220,,220,82.5,D,Single-ply,No,,,,,,,,,,,Pro Open,1988-11-25,30,1
M,Viktor Igumnov,82.3,Lichno,-180,180,-190,180,,180,82.5,D,Single-ply,No,,,,,,,,,,,Pro Masters 70-74,1948-08-29,71,1
M,Yuriy Katanov,99.2,Lichno,280,300,315,315,,315,100,D,Single-ply,No,,,,,,,,,,,Pro Open,1980-01-14,39,1
M,Daniil Kamkin,97.3,Lichno,290,-300,300,300,,300,100,D,Single-ply,No,,,,,,,,,,,Pro Open,1991-08-19,28,2
M,Valentin Dedyulia,110.3,Lichno,290,305,310,310,,310,125,D,Single-ply,No,,,,,,,,,,,Pro Open,1977-07-27,42,1
M,Valentin Dedyulia,110.3,Lichno,290,305,310,310,,310,125,D,Single-ply,No,,,,,,,,,,,Pro Masters 40-44,1977-07-27,42,1
F,Valeriya Plotnikova,55.6,Lichno,120,-125,,120,,120,56,D,Raw,No,,,,,,,,,,,Pro Teen 16-17,2003-04-29,16,1
F,Ketevan Namoradze,58.7,Lichno,150,-172.5,-172.5,150,,150,60,D,Raw,No,,,,,,,,,,,Pro Masters 55-59,1961-07-17,58,1
F,Irina Zinovyeva,61.3,Lichno,130,140,145,145,,145,67.5,D,Raw,No,,,,,,,,,,,Pro Masters 50-54,1965-09-18,54,1
M,Roman Burdinskiy,39.7,Lichno,90,97.5,102.5,102.5,,102.5,52,D,Raw,No,,,,,,,,,,,Pro Youth,2007-06-12,12,1
M,Zakhar Korshunov,65.6,Lichno,195,205,-210,205,,205,67.5,D,Raw,No,,,,,,,,,,,Pro Teen 18-19,2000-07-28,19,1
M,Aleksandr Golovkov,73.9,Lichno,210,220,227.5,227.5,,227.5,75,D,Raw,No,,,,,,,,,,,Pro Open,1982-05-15,37,1
M,Maksim Son,81.6,Lichno,180,195,205,205,,205,82.5,D,Raw,No,,,,,,,,,,,Pro Open,1988-03-19,31,1
M,Vyacheslav Yudin,86.7,Lichno,205,-212.5,212.5,212.5,,212.5,90,D,Raw,No,,,,,,,,,,,Pro Teen 16-17,2002-09-12,17,1
M,Roman Nazimov,87,Lichno,250,267.5,-280,267.5,,267.5,90,D,Raw,No,,,,,,,,,,,Pro Open,1991-03-06,28,1
M,Aleksandr Ryabov,84,Lichno,120,125,130,130,,130,90,D,Raw,No,,,,,,,,,,,Pro Masters,1937-06-04,82,1
M,Yevgeniy Kozlov,100,Lichno,280,300,-317.5,300,,300,100,D,Raw,No,,,,,,,,,,,Pro Masters 40-44,1974-10-06,44,1
M,Yevgeniy Beletskiy,106.4,Lichno,240,260,,260,,260,110,D,Raw,No,,,,,,,,,,,Pro Open,1964-05-02,55,1
M,Yevgeniy Beletskiy,106.4,Lichno,240,260,,260,,260,110,D,Raw,No,,,,,,,,,,,Pro Masters 55-59,1964-05-02,55,1
M,Sergey Mazanov,120.2,Lichno,270,290,-300,290,,290,125,D,Raw,No,,,,,,,,,,,Pro Masters 40-44,1975-06-18,44,1
M,Yevgeniy Ivanov,141.5,Lichno,300,310,,310,,310,140+,D,Raw,No,,,,,,,,,,,Pro Open,1973-06-13,46,1
M,Yevgeniy Ivanov,141.2,Lichno,300,310,,310,,310,140+,D,Raw,No,,,,,,,,,,,Pro Masters 45-49,1973-06-13,46,1
M,Sergey Kravets,73.6,Lichno,,,,,,190,75,B,Multi-ply,Yes,190,-200,-200,190,,,,,,,Amateur Open,1994-09-06,25,1
M,Vladimir Khan,72.5,Lichno,,,,,,200,75,B,Multi-ply,Yes,200,-212.5,-212.5,200,,,,,,,Amateur Masters 55-59,1962-04-18,57,1
M,Kostas Telidis,80,Ellada,,,,,,272.5,82.5,B,Multi-ply,Yes,-260,272.5,,272.5,,,,,,,Amateur Open,1989-04-18,30,1
M,Andrey Kolyukhov,80.5,Lichno,,,,,,195,82.5,B,Multi-ply,Yes,195,-202.5,-210,195,,,,,,,Amateur Masters 40-44,1979-04-25,40,1
M,Aleksandr Tsmyg,82,Lichno,,,,,,185,82.5,B,Multi-ply,Yes,170,180,185,185,,,,,,,Amateur Masters 55-59,1963-10-20,55,1
M,Aleksey Zhukov,88,Lichno,,,,,,202.5,90,B,Multi-ply,Yes,190,202.5,-215,202.5,,,,,,,Amateur Masters 40-44,1975-11-01,43,1
M,Denis Posazhennikov,99.8,Lichno,,,,,,220,100,B,Multi-ply,Yes,210,215,220,220,,,,,,,Amateur Masters 40-44,1977-11-20,41,1
M,Leonid Tikhonov,91.8,Lichno,,,,,,240,100,B,Multi-ply,Yes,220,232.5,240,240,,,,,,,Amateur Masters 55-59,1963-03-25,56,1
M,Artem Safronov,109.9,Lichno,,,,,,195,110,B,Multi-ply,Yes,185,190,195,195,200,,,,,,Amateur Teen 16-17,2003-03-30,16,1
M,Denis Tretyakov,109.5,Lichno,,,,,,265,110,B,Multi-ply,Yes,250,-260,265,265,,,,,,,Amateur Open,1986-12-18,32,1
M,Aleksandr Khromov,105.5,Lichno,,,,,,260,110,B,Multi-ply,Yes,240,260,-282.5,260,,,,,,,Amateur Open,1982-04-13,37,2
M,Vladimir Stremuzhevskiy,109.3,Lichno,,,,,,252.5,110,B,Multi-ply,Yes,220,235,252.5,252.5,,,,,,,Amateur Masters 50-54,1969-08-02,50,1
M,Arbi Israilov,108.1,Lichno,,,,,,175,110,B,Multi-ply,Yes,160,175,-190,175,,,,,,,Amateur Masters 50-54,1968-07-19,51,2
M,Sergey Kravets,73.6,Lichno,,,,,,190,75,B,Single-ply,Yes,170,185,190,190,,,,,,,Amateur Open,1994-09-06,25,1
M,Kostas Telidis,80,Ellada,,,,,,250,82.5,B,Single-ply,Yes,-240,-250,250,250,,,,,,,Amateur Open,1989-04-18,30,1
M,Mikhail Modlin,99.1,Lichno,,,,,,205,100,B,Single-ply,Yes,-200,205,-215,205,,,,,,,Amateur Open,1982-02-21,37,1
F,Tatyana Voytikhovich,47.3,Faust,,,,,,62.5,48,B,Raw,Yes,57.5,60,62.5,62.5,,,,,,,Amateur Open,1988-05-25,31,1
F,Natalya Razloma,51.6,Lichno,,,,,,50,52,B,Raw,Yes,-47.5,50,-52.5,50,,,,,,,Amateur Open,1990-02-04,29,1
F,Mariya Strekolovskaya,54.8,Lichno,,,,,,67.5,56,B,Raw,Yes,60,65,67.5,67.5,,,,,,,Amateur Teen 16-17,2002-07-04,17,1
F,Darya Trautman,56,Lichno,,,,,,67.5,56,B,Raw,Yes,65,67.5,-70,67.5,,,,,,,Amateur Juniors 20-23,1999-01-27,20,1
F,Yelena Vorotnikova,55.4,Atlant,,,,,,57.5,56,B,Raw,Yes,-57.5,57.5,-62.5,57.5,,,,,,,Amateur Open,1982-09-21,37,1
F,Svetlana Rezayeva,53.8,Lichno,,,,,,72.5,56,B,Raw,Yes,-67.5,67.5,72.5,72.5,,,,,,,Amateur Masters 40-44,1976-12-02,42,1
F,Lyudmila Stepanova,58.9,Lichno,,,,,,60,60,B,Raw,Yes,57.5,60,-65,60,,,,,,,Amateur Open,1983-10-21,35,1
F,Yuliya Tyutereva,74.5,Flex,,,,,,105,75,B,Raw,Yes,100,105,-107.5,105,,,,,,,Amateur Open,1980-06-16,39,1
M,Aleksey Kolisnichenko,52.8,Lichno,,,,,,125,56,B,Raw,Yes,115,-120,125,125,,,,,,,Amateur Open,1994-07-14,25,1
M,Yuriy Murzin,63.6,Lichno,,,,,,125,67.5,B,Raw,Yes,120,125,,125,,,,,,,Amateur Teen 18-19,2000-06-15,19,1
M,Nikita Shalamov,63.8,Lichno,,,,,,137.5,67.5,B,Raw,Yes,130,135,137.5,137.5,,,,,,,Amateur Open,1994-01-13,25,1
M,Anton Kalashnitsyn,66.1,Lichno,,,,,,85,67.5,B,Raw,Yes,75,-80,85,85,,,,,,,Amateur Open,1980-09-13,39,2
M,Georgiy Ledida,72.5,Lichno,,,,,,95,75,B,Raw,Yes,-95,-95,95,95,,,,,,,Amateur Teen 16-17,2001-12-31,17,1
M,Dmitriy Yurin,72,Lichno,,,,,,137.5,75,B,Raw,Yes,127.5,135,137.5,137.5,,,,,,,Amateur Juniors 20-23,1996-10-17,22,1
M,Sergey Sosnin,74.8,Lichno,,,,,,135,75,B,Raw,Yes,125,130,135,135,,,,,,,Amateur Open,1982-10-16,36,1
M,Andrey Yelenskiy,75,Lichno,,,,,,117.5,75,B,Raw,Yes,110,-117.5,117.5,117.5,,,,,,,Amateur Masters 45-49,1972-10-29,46,1
M,Vladimir Khan,72.5,Lichno,,,,,,140,75,B,Raw,Yes,140,-145,-145,140,,,,,,,Amateur Masters 55-59,1962-04-18,57,1
M,Semen Ushnitskiy,69.1,Lichno,,,,,,100,75,B,Raw,Yes,100,-105,,100,,,,,,,Amateur Masters 55-59,1962-09-06,57,2
M,Vitaliy Skvortsov,82,Lichno,,,,,,170,82.5,B,Raw,Yes,162.5,167.5,170,170,,,,,,,Amateur Open,1967-03-07,52,1
M,Konstantin Simonov,80.8,Lichno,,,,,,145,82.5,B,Raw,Yes,135,145,-150,145,,,,,,,Amateur Open,1984-11-03,34,2
M,Dmitriy Anikin,82,Lichno,,,,,,142.5,82.5,B,Raw,Yes,135,142.5,-145,142.5,,,,,,,Amateur Open,1991-10-16,27,3
M,Sergey Babanin,79.9,Lichno,,,,,,122.5,82.5,B,Raw,Yes,115,122.5,-127.5,122.5,,,,,,,Amateur Open,1983-03-31,36,4
M,Artem Gritsayenko,80,Lichno,,,,,,112.5,82.5,B,Raw,Yes,100,107.5,112.5,112.5,,,,,,,Amateur Open,1986-08-13,33,5
M,Roman Pasko,81.3,Lichno,,,,,,150,82.5,B,Raw,Yes,140,150,-160,150,,,,,,,Amateur Masters 45-49,1972-07-24,47,1
M,Vitaliy Skvortsov,82,Lichno,,,,,,170,82.5,B,Raw,Yes,162.5,167.5,170,170,,,,,,,Amateur Masters 50-54,1967-03-07,52,1
M,Aleksandr Tsmyg,82,Lichno,,,,,,135,82.5,B,Raw,Yes,125,130,135,135,,,,,,,Amateur Masters 55-59,1963-10-20,55,1
M,Sergey Klatik,81.5,Lichno,,,,,,147.5,82.5,B,Raw,Yes,140,147.5,-150.5,147.5,,,,,,,Amateur Masters 60-64,1955-09-12,64,1
M,Yuriy Krikunov,79.5,Lichno,,,,,,90,82.5,B,Raw,Yes,80,90,-95,90,,,,,,,Amateur Masters 60-64,1957-05-25,62,2
M,Anatoliy Kabanchenko,79.6,Lichno,,,,,,120,82.5,B,Raw,Yes,115,120,-125,120,,,,,,,Amateur Masters 65-69,1953-11-10,65,1
M,Roman Grigoryants,87.7,Lichno,,,,,,165,90,B,Raw,Yes,155,162.5,165,165,,,,,,,Amateur Open,1983-05-17,36,1
M,Vitaliy Kravchenko,88.9,Lichno,,,,,,157.5,90,B,Raw,Yes,157.5,-162.5,-165,157.5,,,,,,,Amateur Open,1982-05-16,37,2
M,Sergey Malikov,89.4,Lichno,,,,,,155,90,B,Raw,Yes,145,152.5,155,155,,,,,,,Amateur Open,1982-11-05,36,3
M,Ivan Chanonsi,89.5,Lichno,,,,,,150,90,B,Raw,Yes,-145,150,-155,150,,,,,,,Amateur Open,1989-02-21,30,4
M,Dmitriy Korunov,89.3,Lichno,,,,,,140,90,B,Raw,Yes,140,-147.5,-152.5,140,,,,,,,Amateur Open,1991-02-28,28,5
M,Aleksey Zhukov,88,Lichno,,,,,,125,90,B,Raw,Yes,-120,120,125,125,,,,,,,Amateur Masters 40-44,1975-11-01,43,1
M,Aleksandr Medved,88.5,Lichno,,,,,,145,90,B,Raw,Yes,145,-150,-150,145,,,,,,,Amateur Masters 45-49,1972-10-27,46,1
M,Maksim Kondratyuk,99.2,Painkiller,,,,,,140,100,B,Raw,Yes,135,140,-145,140,,,,,,,Amateur Juniors 20-23,1999-03-08,20,1
M,Altanbagana Sharavdarzh,97.3,Lichno,,,,,,207.5,100,B,Raw,Yes,180,-202.5,207.5,207.5,,,,,,,Amateur Open,1990-05-17,29,1
M,Petr Babin,96.5,Lichno,,,,,,165,100,B,Raw,Yes,165,-170,-170,165,,,,,,,Amateur Open,1958-03-25,61,2
M,Gennadiy Chernobrovkin,97.4,Lichno,,,,,,165,100,B,Raw,Yes,155,165,-172.5,165,,,,,,,Amateur Open,1981-01-27,38,3
M,Sergey Krivolapov,97.9,Lichno,,,,,,165,100,B,Raw,Yes,-162.5,162.5,165,165,,,,,,,Amateur Open,1986-10-15,32,4
M,Bekkhan Vokhayev,98.8,Lichno,,,,,,150,100,B,Raw,Yes,140,150,-162.5,150,,,,,,,Amateur Open,1986-11-10,32,5
M,Malik Abdulayev,99.6,Lichno,,,,,,140,100,B,Raw,Yes,130,-140,140,140,,,,,,,Amateur Masters 40-44,1977-09-29,42,1
M,Vyacheslav Voyevodin,97.6,Lichno,,,,,,130,100,B,Raw,Yes,-130,-130,130,130,,,,,,,Amateur Masters 40-44,1977-07-23,42,2
M,Artem Safronov,109.9,Lichno,,,,,,150,110,B,Raw,Yes,145,150,-162.5,150,,,,,,,Amateur Teen 16-17,2003-03-30,16,1
M,Yerat Nurdykhan,104,Lichno,,,,,,195,110,B,Raw,Yes,185,195,-205,195,,,,,,,Amateur Open,1986-06-27,33,1
M,Aleksey Khlon,106.9,Lichno,,,,,,170,110,B,Raw,Yes,165,170,-175,170,,,,,,,Amateur Masters 40-44,1976-07-28,43,1
M,Vadim Gamzayev,108.2,Lichno,,,,,,175,110,B,Raw,Yes,165,172.5,175,175,,,,,,,Amateur Masters 45-49,1974-01-18,45,1
M,Andrey Samodelkin,108.8,Lichno,,,,,,175,110,B,Raw,Yes,165,172.5,175,175,,,,,,,Amateur Masters 45-49,1974-01-26,45,2
M,Konstantin Kolosov,108.8,Lichno,,,,,,160,110,B,Raw,Yes,150,160,-167.5,160,,,,,,,Amateur Masters 55-59,1960-08-30,59,1
M,Aleksey Bykov,109.9,Lichno,,,,,,137.5,110,B,Raw,Yes,130,137.5,-140,137.5,,,,,,,Amateur Masters 65-69,1952-09-11,67,1
M,Aleksandr Orlov,123.6,Lichno,,,,,,215,125,B,Raw,Yes,205,210,215,215,,,,,,,Amateur Open,1976-06-10,43,1
M,Andrey Rogozin,115,Steel Brother,,,,,,205,125,B,Raw,Yes,195,200,205,205,-213,,,,,,Amateur Open,1969-04-24,50,2
M,Vladimir Alferov,121.3,Lichno,,,,,,182.5,125,B,Raw,Yes,170,180,182.5,182.5,,,,,,,Amateur Open,1983-12-14,35,3
M,Yegor Frolov,139.3,Lichno,,,,,,182.5,140,B,Raw,Yes,177.5,182.5,-190,182.5,,,,,,,Amateur Open,1982-09-11,37,1
F,Lyubov Marochenko,59.9,Flex,152.5,160,-170,160,,400,60,SBD,Single-ply,Yes,-80,80,-85,80,,152.5,160,-165,160,,Amateur Open,1996-02-11,23,1
M,Kostas Telidis,80,Ellada,260,280.5,285,285,,860,82.5,SBD,Single-ply,Yes,245,255,260,260,,285,305,315,315,,Amateur Open,1989-04-18,30,1
M,Dmitriy Pecherevin,98.7,Lichno,250,275,-290,275,,725,100,SBD,Single-ply,Yes,160,-180,-180,160,,-290,290,-305,290,,Amateur Open,1997-12-02,21,1
M,Arbi Israilov,108.1,Lichno,190,200,,200,,520,110,SBD,Single-ply,Yes,100,110,120,120,,180,200,-220,200,,Amateur Masters 50-54,1968-07-19,51,1
F,Anastasiya Turpak,51.6,Lichno,105,115,-125,115,,262.5,52,SBD,Wraps,Yes,37.5,40,42.5,42.5,,105,-112.5,-112.5,105,,Amateur Open,1987-03-02,32,1
F,Lyubov An-Khichu,52,Faust,90,100,105,105,,232.5,52,SBD,Wraps,Yes,40,42.5,-45,42.5,,70,77.5,85,85,,Amateur Open,1987-07-25,32,2
F,Tatyana Kashtanova,56,Lichno,130,145,-160,145,,367.5,56,SBD,Wraps,Yes,65,70,-72.5,70,,140,147.5,152.5,152.5,,Amateur Open,1985-03-27,34,1
F,Svetlana Saburova,67.4,Lichno,145,-160,-160,145,,337.5,67.5,SBD,Wraps,Yes,57.5,62.5,-65,62.5,,115,125,130,130,,Amateur Open,1972-02-20,47,1
F,Svetlana Saburova,67.4,Lichno,145,-160,-160,145,,337.5,67.5,SBD,Wraps,Yes,57.5,62.5,-65,62.5,,115,125,130,130,,Amateur Masters 45-49,1972-02-20,47,1
F,Tatyana Sudakova,71,Lichno,-100,,,,,,75,SBD,Wraps,Yes,-45,-45,-45,,,75,-80,87.5,87.5,,Amateur Open,1985-05-19,34,DQ
F,Yelena Ageyenko,74.5,Faust,107.5,115,120,120,,260,75,SBD,Wraps,Yes,45,50,-52.5,50,,-80,85,90,90,,Amateur Masters 50-54,1969-02-17,50,1
F,Kseniya Suslova,103.9,Lichno,145,160,-170,160,,417.5,90+,SBD,Wraps,Yes,77.5,82.5,-85,82.5,,150,165,175,175,,Amateur Open,1993-06-08,26,1
M,Chakhar Tumurbator,75,Lichno,170,-200,-205,170,,530,75,SBD,Wraps,Yes,145,160,-167.5,160,,180,200,-215,200,,Amateur Open,1974-03-07,45,1
M,Chakhar Tumurbator,75,Lichno,170,-200,-205,170,,530,75,SBD,Wraps,Yes,145,160,-167.5,160,,180,200,-215,200,,Amateur Masters 45-49,1974-03-07,45,1
M,Yevgeniy Panchenko,88.9,Faust,190,200,210,210,,555,90,SBD,Wraps,Yes,127.5,132.5,135,135,,185,200,210,210,,Amateur Open,1982-11-13,36,1
M,Vladimir Nikeshin,85.8,Lichno,150,-160,,150,,425,90,SBD,Wraps,Yes,100,105,-110,105,,-150,-170,170,170,,Amateur Masters 60-64,1956-05-22,63,1
M,Oleg Lyannoy,97.8,Lichno,230,250,262.5,262.5,,650,100,SBD,Wraps,Yes,145,-155,-155,145,,220,235,242.5,242.5,,Amateur Open,1987-11-24,31,1
M,Ilya Kozak,99.5,Lichno,200,210,220,220,,547.5,100,SBD,Wraps,Yes,110,120,125,125,,-190,190,202.5,202.5,,Amateur Open,1991-06-08,28,2
M,Battur Battsengel,106,Lichno,175,200,,200,,490,110,SBD,Wraps,Yes,90,-100,-100,90,,180,190,200,200,,Amateur Juniors 20-23,1998-01-01,21,1
M,Amarzaya Tayvantumur,103.6,Lichno,250,265,-272.5,265,,785,110,SBD,Wraps,Yes,185,192.5,200,200,,280,305,320,320,,Amateur Open,1987-08-02,32,1
M,Viktor Malyshkin,101,Lichno,157.5,167.5,172.5,172.5,,442.5,110,SBD,Wraps,Yes,117.5,122.5,127.5,127.5,,130,137.5,142.5,142.5,,Amateur Masters 70-74,1947-09-11,72,1
M,Timur Lukyanets,68.1,Lichno,110,120,130,130,,315,75,SBD,Raw,Yes,65,70,-75,70,,100,110,115,115,,Amateur Teen 16-17,2003-04-16,16,1
M,Petr Ushakov,74.3,Lichno,240,260,-270,260,,650,75,SBD,Raw,Yes,150,165,-170,165,,200,225,,225,,Amateur Open,1992-11-17,26,1
M,Baterdene Batkhuyag,72.7,Lichno,160,180,,180,,430,75,SBD,Raw,Yes,90,-105,-105,90,,120,140,160,160,,Amateur Open,1993-06-23,26,2
M,Aleksandr Izgagin,73.8,Lichno,150,160,,160,,375,75,SBD,Raw,Yes,80,90,-95,90,,110,115,125,125,,Amateur Masters 65-69,1953-06-21,66,1
M,Sergey Khazimuratov,80.1,Lichno,170,180,195,195,,450,82.5,SBD,Raw,Yes,95,102.5,110,110,,130,140,145,145,,Amateur Open,1989-08-29,30,1
M,Petr Shabaldin,80.2,Lichno,175,185,,185,,440,82.5,SBD,Raw,Yes,75,80,,80,,170,175,,175,,Amateur Masters 65-69,1949-11-05,69,1
M,Roman Svinarchuk,98.7,Lichno,,,,,,240,100,B,Multi-ply,No,220,230,240,240,,,,,,,Pro Open,1982-08-03,37,1
M,Khurshed Khochiboyev,103.2,Lichno,,,,,,250,110,B,Multi-ply,No,-230,230,250,250,,,,,,,Pro Open,1983-09-13,36,1
M,Sergey Lir,117.5,Atlant,,,,,,410,125,B,Multi-ply,No,400,-410,410,410,,,,,,,Pro Open,1991-08-25,28,1
F,Valeriya Plotnikova,55.6,Lichno,,,,,,105,56,B,Multi-ply,No,-105,-105,105,105,,,,,,,Pro Teen 16-17,2003-04-29,16,1
F,Viktoriya Blotskaya,71,Faust,,,,,,152.5,75,B,Multi-ply,No,145,-150,152.5,152.5,,,,,,,Pro Open,1985-10-14,33,1
F,Yelena Safronova,74.5,Lichno,,,,,,115,75,B,Multi-ply,No,105,115,,115,,,,,,,Pro Masters 45-49,1973-06-02,46,1
M,Vladimir Bateyev,73.2,Lichno,,,,,,,75,B,Multi-ply,No,-187.5,-205,-205,,,,,,,,Pro Juniors 20-23,1998-12-18,20,DQ
M,Konstantin Semenov,73.3,Lichno,,,,,,167.5,75,B,Multi-ply,No,155,162.5,167.5,167.5,,,,,,,Pro Open,1964-08-24,55,1
M,Konstantin Semenov,73.3,Lichno,,,,,,167.5,75,B,Multi-ply,No,155,162.5,167.5,167.5,,,,,,,Pro Masters 55-59,1964-08-24,55,1
M,Elmin Mustafayev,81.2,Lichno,,,,,,180,82.5,B,Multi-ply,No,130,155,180,180,,,,,,,Pro Open,1992-09-01,27,1
M,Vyacheslav Yudin,86.7,Lichno,,,,,,,90,B,Multi-ply,No,-200,-200,-200,,,,,,,,Pro Teen 16-17,2002-09-12,17,DQ
M,Aleksey Tigay,89.7,Lichno,,,,,,220,90,B,Multi-ply,No,200,-220,220,220,,,,,,,Pro Juniors 20-23,1996-11-06,22,1
M,Valeriy Yakovenko,84.9,Lichno,,,,,,210,90,B,Multi-ply,No,-200,-210,210,210,,,,,,,Pro Juniors 20-23,1997-09-19,22,2
M,Ivan Troyanov,88.7,Bodi,,,,,,300,90,B,Multi-ply,No,285,300,-307.5,300,,,,,,,Pro Open,1987-01-14,32,1
M,Vasiliy Mertsalov,90,Lichno,,,,,,100,90,B,Multi-ply,No,100,,,100,,,,,,,Pro Masters 70-74,1946-10-27,72,1
M,Yelisey Belets,99.9,Lichno,,,,,,292.5,100,B,Multi-ply,No,292.5,-312.5,-312.5,292.5,,,,,,,Pro Open,1986-06-02,33,1
M,Roman Svinarchuk,98.7,Lichno,,,,,,250,100,B,Multi-ply,No,220,-250,250,250,,,,,,,Pro Open,1982-08-03,37,2
M,Ivan Klimenko,100,Lichno,,,,,,250,100,B,Multi-ply,No,-250,250,-272.5,250,,,,,,,Pro Open,1980-11-20,38,3
M,Denis Loyko,98.5,Lichno,,,,,,250,100,B,Multi-ply,No,230,250,-270,250,,,,,,,Pro Masters 40-44,1979-08-18,40,1
M,Andrey Mozharov,94.2,Lichno,,,,,,240,100,B,Multi-ply,No,240,-270,-270,240,,,,,,,Pro Masters 40-44,1979-01-23,40,2
M,Mikhail Shirokov,108.1,Lichno,,,,,,290,110,B,Multi-ply,No,280,290,,290,,,,,,,Pro Juniors 20-23,1999-06-06,20,1
M,Denis Murin,108.5,Lichno,,,,,,345,110,B,Multi-ply,No,335,-345,345,345,,,,,,,Pro Open,1979-09-17,40,1
M,Vyacheslav Kirgizov,109.5,Flex,,,,,,332.5,110,B,Multi-ply,No,310,-332.5,332.5,332.5,,,,,,,Pro Open,1989-05-14,30,2
M,Mikhail Shirokov,108.1,Lichno,,,,,,290,110,B,Multi-ply,No,280,290,,290,,,,,,,Pro Open,1999-06-06,20,3
M,Denis Murin,108.5,Lichno,,,,,,345,110,B,Multi-ply,No,335,-345,345,345,,,,,,,Pro Masters 40-44,1979-09-17,40,1
M,Sergey Kazakov,103.9,Lichno,,,,,,240,110,B,Multi-ply,No,240,-260,-260,240,,,,,,,Pro Masters 45-49,1973-10-12,45,1
M,Yaroslav Fedorchak,108.1,Lichno,,,,,,280,110,B,Multi-ply,No,270,280,-290,280,,,,,,,Pro Masters 50-54,1967-04-24,52,1
M,Timur Radzhabov,110.5,Lichno,,,,,,,125,B,Multi-ply,No,-230,-230,-230,,,,,,,,Pro Open,1981-04-11,38,DQ
M,Igor Shamro,91.8,Lichno,,,,,,170,100,B,Multi-ply,No,140,160,170,170,,,,,,,Pro Open,1984-12-04,34,1
M,Konstantin Zyukov,67.3,Lichno,,,,,,170,67.5,B,Single-ply,No,-170,170,-180,170,,,,,,,Pro Juniors 20-23,1997-09-04,22,1
M,Oleg Solonenko,74,Lichno,,,,,,140,75,B,Single-ply,No,130,140,,140,,,,,,,Pro Open,1970-09-26,49,1
M,Oleg Solonenko,74,Lichno,,,,,,140,75,B,Single-ply,No,130,140,,140,,,,,,,Pro Masters 45-49,1970-09-26,49,1
M,Vitaliy Dolgov,89.2,Lichno,,,,,,220,90,B,Single-ply,No,200,220,-235,220,,,,,,,Pro Open,1984-05-22,35,1
M,Dmitriy Kuznetsov,98.2,Lichno,,,,,,252.5,100,B,Single-ply,No,230,240,252.5,252.5,,,,,,,Pro Open,1993-03-04,26,1
F,Natalya Romanovich,59.9,Lichno,,,,,,100,60,B,Raw,No,95,97.5,100,100,102.5,,,,,,Pro Masters 50-54,1969-06-26,50,1
F,Irina Kuznetsova,66.7,Lichno,,,,,,75,67.5,B,Raw,No,70,75,-80,75,,,,,,,Pro Masters 40-44,1978-12-24,40,1
F,Irina Zinovyeva,61.3,Lichno,,,,,,90,67.5,B,Raw,No,80,90,-95,90,,,,,,,Pro Masters 50-54,1965-09-18,54,1
F,Yelena Safronova,74.5,Lichno,,,,,,85,75,B,Raw,No,80,85,,85,,,,,,,Pro Masters 45-49,1973-06-02,46,1
F,Natalya Statsenko,81.8,Lichno,,,,,,110,82.5,B,Raw,No,110,-112.5,-112.5,110,,,,,,,Pro Open,1985-09-25,34,1
M,Roman Burdinskiy,39.7,Lichno,,,,,,55,52,B,Raw,No,45,50,55,55,,,,,,,Pro Youth,2007-06-12,12,1
M,Roman Degtyarenko,63.6,Lichno,,,,,,137.5,67.5,B,Raw,No,137.5,-142.5,-142.5,137.5,,,,,,,Pro Open,1985-07-14,34,1
M,Ivan Konyakhin,74.8,Lichno,,,,,,145,75,B,Raw,No,135,145,-147.5,145,,,,,,,Pro Open,1974-04-13,45,1
M,Oleg Solonenko,74,Lichno,,,,,,100,75,B,Raw,No,100,-112.5,,100,,,,,,,Pro Open,1970-09-26,49,2
M,Ivan Konyakhin,74.8,Lichno,,,,,,145,75,B,Raw,No,135,145,-147.5,145,,,,,,,Pro Masters 45-49,1974-04-13,45,1
M,Oleg Solonenko,74,Lichno,,,,,,100,75,B,Raw,No,100,-112.5,,100,,,,,,,Pro Masters 45-49,1970-09-26,49,2
M,Nail Faizov,72.4,Lichno,,,,,,65,75,B,Raw,No,55,60,65,65,,,,,,,Pro Masters,1941-06-19,78,1
M,Igor Tropin,81,Lichno,,,,,,170,82.5,B,Raw,No,160,-170,170,170,,,,,,,Pro Open,1988-05-08,31,1
M,Leonid Novoselov,79.9,Lichno,,,,,,120,82.5,B,Raw,No,-115,120,-122.5,120,,,,,,,Pro Open,1979-12-13,39,2
M,Roman Sevashkin,76.5,Lichno,,,,,,115,82.5,B,Raw,No,110,-115,115,115,,,,,,,Pro Masters 45-49,1973-03-17,46,1
M,Sergey Vasilyev,87.9,Lichno,,,,,,170,90,B,Raw,No,170,-177.5,-177.5,170,,,,,,,Pro Juniors 20-23,1997-10-05,22,1
M,Viktor Andris,86.1,Lichno,,,,,,190,90,B,Raw,No,190,-200,-200,190,,,,,,,Pro Open,1974-11-26,44,1
M,Nikolay Gudkov,88.9,Lichno,,,,,,175,90,B,Raw,No,170,175,-180,175,,,,,,,Pro Open,1988-11-07,30,2
M,Nofar Dzhafarov,98.2,Lichno,,,,,,220,100,B,Raw,No,220,-225,-225,220,,,,,,,Pro Open,1989-06-23,30,1
M,Mikhail Zaychikov,96.8,Painkiller,,,,,,177.5,100,B,Raw,No,177.5,-190,-190,177.5,,,,,,,Pro Open,1985-12-13,33,2
M,Denis Loyko,98.5,Lichno,,,,,,160,100,B,Raw,No,160,-170,-170,160,,,,,,,Pro Masters 40-44,1979-08-18,40,1
M,Gennadiy Matsegora,96.4,Lichno,,,,,,170,100,B,Raw,No,155,165,170,170,,,,,,,Pro Masters 55-59,1963-07-16,56,1
M,Pavel Prikhodko,102,Lichno,,,,,,235,110,B,Raw,No,225,230,235,235,,,,,,,Pro Open,1980-05-23,39,1
M,Yevgeniy Beletskiy,106.4,Lichno,,,,,,230,110,B,Raw,No,210,222.5,230,230,,,,,,,Pro Open,1964-05-02,55,2
M,Vyacheslav Kirgizov,109.5,Flex,,,,,,215,110,B,Raw,No,205,215,-220,215,,,,,,,Pro Open,1989-05-14,30,3
M,Artem Shchukin,106.6,Atlant,,,,,,185,110,B,Raw,No,185,,,185,,,,,,,Pro Open,1982-08-25,37,4
M,Ivan Zabavin,106.8,Lichno,,,,,,,110,B,Raw,No,-210,-210,-210,,,,,,,,Pro Open,1988-11-09,30,DQ
M,German Veledeyev,106.5,Steel Brother,,,,,,200,110,B,Raw,No,200,-210,-210,200,,,,,,,Pro Masters 50-54,1969-04-27,50,1
M,Yevgeniy Beletskiy,106.4,Lichno,,,,,,230,110,B,Raw,No,210,222.5,230,230,,,,,,,Pro Masters 55-59,1964-05-02,55,1
M,Vladimir Rudi,117.8,Lichno,,,,,,235,125,B,Raw,No,205,230,235,235,,,,,,,Pro Open,1975-02-23,44,1
M,Andrey Yerukov,116,Lichno,,,,,,205,125,B,Raw,No,195,205,-215,205,,,,,,,Pro Open,1980-09-29,39,2
M,Vladimir Rudi,117.8,Lichno,,,,,,235,125,B,Raw,No,205,230,235,235,,,,,,,Pro Masters 40-44,1975-02-23,44,1
M,Vasiliy Ostanin,132.7,Steel Brother,,,,,,190,140,B,Raw,No,190,-200,,190,,,,,,,Pro Masters 45-49,1974-05-18,45,1
F,Violetta Kruk,56,Lichno,185,-200,200,200,,470,56,SBD,Single-ply,No,90,-100,-100,90,,180,-190,,180,,Pro Open,1989-07-26,30,1
M,Oleg Solonenko,74,Lichno,190,205,,205,,560,75,SBD,Single-ply,No,140,-150,-150,140,,190,205,215,215,,Pro Open,1970-09-26,49,1
M,Oleg Solonenko,74,Lichno,190,205,,205,,560,75,SBD,Single-ply,No,140,-150,-150,140,,190,205,215,215,,Pro Masters 45-49,1970-09-26,49,1
M,Maksim Tereshchenko,79,Lichno,200,-215,215,215,,610,82.5,SBD,Single-ply,No,135,145,155,155,,240,-250,-250,240,,Pro Open,1994-03-11,25,1
M,Aleksandr Mukhranov,87.3,Lichno,215,225,235,235,,680,90,SBD,Single-ply,No,-180,180,195,195,,-230,230,250,250,,Pro Open,1995-01-18,24,1
M,Daniil Kamkin,97.4,Lichno,-290,,,,,,100,SBD,Single-ply,No,-165,,,,,-350,-350,-350,,,Pro Open,1991-08-19,28,DQ
M,Dmitriy Kuznetsov,98.1,Lichno,-270,,,,,,100,SBD,Single-ply,No,-230,,,,,-290,-290,-290,,,Pro Open,1993-03-04,26,DQ
M,Mikhail Rostovtsev,91.9,Lichno,215,225,235,235,,630,100,SBD,Single-ply,No,135,145,-155,145,,225,235,250,250,,Pro Masters 60-64,1958-05-28,61,1
M,Mikhail Shirokov,108.1,Lichno,-340,,,,,,110,SBD,Single-ply,No,-265,-265,-265,,,365,-375,-375,365,,Pro Juniors 20-23,1999-06-06,20,DQ
M,Sergey Yepifantsev,106.8,Lichno,290,-305,-310,290,,840,110,SBD,Single-ply,No,-225,230,235,235,,-315,315,-325,315,,Pro Open,1986-12-15,32,1
F,Kseniya Burchenkova,55.5,Atlant,120,130,140,140,,337.5,56,SBD,Wraps,No,62.5,67.5,-72.5,67.5,,120,130,-140,130,,Pro Open,1992-03-01,27,1
F,Irina Shishkovskaya,60,Lichno,125,137.5,150,150,,350,60,SBD,Wraps,No,70,-75,-75,70,,-110,120,130,130,,Pro Masters 45-49,1973-05-12,46,1
F,Kseniya Plakhuta,66.1,Lichno,140,,,140,,355,67.5,SBD,Wraps,No,70,-75,75,75,,-140,140,-150,140,,Pro Open,1987-11-11,31,1
M,Aleksey Lalitin,81.2,Lichno,175,185,192.5,192.5,,522.5,82.5,SBD,Wraps,No,132.5,140,-145,140,,175,190,-200,190,,Pro Masters 45-49,1972-03-29,47,1
M,Ivan Popov,89.1,Lichno,200,210,-220,210,,565,90,SBD,Wraps,No,120,130,-140,130,,-210,210,225,225,,Pro Open,1991-01-21,28,1
M,Dmitriy Sizykh,98.4,Lichno,-250,260,285,285,,775,100,SBD,Wraps,No,165,180,185,185,,275,290,305,305,,Pro Open,1988-07-26,31,1
M,Aleksey Ivasenko,97,Lichno,220,240,250,250,,635,100,SBD,Wraps,No,120,-140,145,145,,220,240,-260,240,,Pro Open,1993-06-25,26,2
M,Sergey Gaynutdinov,99.2,Lichno,-250,-250,-250,,,,100,SBD,Wraps,No,165,170,-177.5,170,,240,250,-260,250,,Pro Open,1983-07-05,36,DQ
M,Egor Musienko,110,Lichno,-250,,,,,,110,SBD,Wraps,No,-220,-225,-225,,,400,-425.5,,400,,Pro Open,1993-06-15,26,DQ
M,Mikhail Vorontsov,106.6,Lichno,200,210,-220,210,,572.5,110,SBD,Wraps,No,130,-135,142.5,142.5,,210,220,-230,220,,Pro Masters 55-59,1964-02-12,55,1
F,Natalya Statsenko,81.8,Lichno,170,182.5,190,190,,465,82.5,SBD,Raw,No,105,107.5,110,110,,150,-160,165,165,,Pro Open,1985-09-25,34,1
M,Andrey Petukhov,65,Lichno,185,200,-207.5,200,,470,67.5,SBD,Raw,No,112.5,117.5,120,120,,132.5,142.5,150,150,,Pro Teen 18-19,2001-02-23,18,1
M,Aleksandr Golovkov,73.9,Lichno,200,220,-240,220,,577.5,75,SBD,Raw,No,125,132.5,140,140,,-210,210,217.5,217.5,,Pro Open,1982-05-15,37,1
M,Grigoriy Arbatov,82.4,Lichno,260,280,,280,,675,82.5,SBD,Raw,No,155,165,-170,165,,215,230,-242.5,230,,Pro Open,1987-02-12,32,1
M,Stas Stepanov,87.9,Lichno,240,260,-290,260,,625,90,SBD,Raw,No,140,147.5,155,155,,190,210,-225,210,,Pro Open,1985-04-19,34,1
M,Mikhail Vorontsov,106.6,Lichno,190,-210,-215,190,,525,110,SBD,Raw,No,130,135,-142.5,135,,170,190,200,200,,Pro Masters 55-59,1964-02-12,55,1
M,Fedor Ovchinnikov,118.8,Lichno,300,320,,320,,752.5,125,SBD,Raw,No,170,180,182.5,182.5,,230,240,250,250,,Pro Masters 45-49,1971-07-11,48,1
M,Yelisey Belets,99.9,Lichno,-240,,,,,,100,SBD,Multi-ply,No,-290,,,,,-320,-320,-320,,,Pro Open,1986-06-02,33,DQ
M,Aleksey Vanyashev,107.3,Faust,260,-280,-295,260,,845,110,SBD,Multi-ply,No,280,-300,-300,280,,290,-305,305,305,,Pro Open,1981-01-10,38,1
M,Igor Grachev,108.5,Lichno,230,-250,,230,,770,110,SBD,Multi-ply,No,-265,265,,265,,275,-290,-290,275,,Pro Open,1968-04-24,51,2
M,Igor Grachev,108.5,Lichno,230,-250,,230,,770,110,SBD,Multi-ply,No,-265,265,,265,,275,-290,-290,275,,Pro Masters 50-54,1968-04-24,51,1
