Division,WeightClassKg,Place,Name,Team,BodyweightKg,Best3SquatKg,Best3BenchKg,Best3DeadliftKg,TotalKg,Equipment,Event,Sex,BirthDate
Boys,51.71,1,Sean Hurd,Arlington Seguin,51.26,133.81,72.57,163.29,369.68,Single-ply,SBD,M,
Boys,51.71,2,Brayden Ragle,Weatherford,49.8,115.67,68.04,120.2,303.91,Single-ply,SBD,M,
Boys,51.71,3,Zachery Pearse,Burleson,49.08,106.59,61.23,115.67,283.5,Single-ply,SBD,M,
Boys,51.71,4,Isaac Rios,Alvarado,44.18,90.72,61.23,113.4,265.35,Single-ply,SBD,M,
Boys,51.71,DQ,Ty Culwell,Cleburne,44.72,83.91,,,,Single-ply,SBD,M,
Boys,55.79,1,Roberto Ortiz,Alvarado,52.8,145.15,83.91,145.15,374.21,Single-ply,SBD,M,
Boys,55.79,2,Trevon Atchison,Fort Worth Polytechnic,55.79,145.15,81.65,145.15,371.95,Single-ply,SBD,M,
Boys,55.79,3,Matthew Smith #25,Burleson,54.88,133.81,86.18,133.81,353.8,Single-ply,SBD,M,
Boys,55.79,4,Dakota Justus,Joshua,54.79,136.08,68.04,136.08,340.19,Single-ply,SBD,M,
Boys,55.79,5,Johnathan Graves,Godley,54.61,127.01,61.23,127.01,315.25,Single-ply,SBD,M,
Boys,55.79,6,Ethan Peace,Waxahachie,52.44,117.93,61.23,117.93,297.1,Single-ply,SBD,M,
Boys,55.79,7,Dylan Cortez,Castleberry,55.61,108.86,74.84,122.47,306.17,Single-ply,SBD,M,
Boys,55.79,8,Michael Harris,Waxahachie,55.16,113.4,58.97,113.4,285.76,Single-ply,SBD,M,
Boys,59.87,1,Tai Satchell,Mansfield Timberview,59.87,163.29,95.25,158.76,417.3,Single-ply,SBD,M,
Boys,59.87,2,Andrew Alcala,Mansfield Timberview,58.79,170.1,99.79,131.54,401.43,Single-ply,SBD,M,
Boys,59.87,3,Chase Swinney,Burleson Centennial,59.78,145.15,86.18,158.76,390.09,Single-ply,SBD,M,
Boys,59.87,4,Ben Frost,Cleburne,58.24,133.81,81.65,149.69,365.14,Single-ply,SBD,M,
Boys,59.87,5,Willie Tyler,Midlothian,57.06,129.27,74.84,140.61,344.73,Single-ply,SBD,M,
Boys,59.87,DQ,Tyler Case,Dawson,56.06,,,,,Single-ply,SBD,M,
Boys,59.87,DQ,Tyler Jessup,Alvarado,59.87,,,,,Single-ply,SBD,M,
Boys,67.13,1,Truitt Petty,Weatherford,66.22,190.51,104.33,181.44,476.27,Single-ply,SBD,M,
Boys,67.13,2,Michael Brown,Burleson Centennial,66.59,172.37,106.59,192.78,471.74,Single-ply,SBD,M,
Boys,67.13,3,Ryen Brake,Burleson Centennial,66.59,170.1,92.99,195.04,458.13,Single-ply,SBD,M,
Boys,67.13,4,Ricardo Martinez #2,Hillsboro,67.13,172.37,95.25,183.7,451.32,Single-ply,SBD,M,
Boys,67.13,5,Colton Sessums,Midlothian,66.32,163.29,92.99,176.9,433.18,Single-ply,SBD,M,
Boys,67.13,6,Alex Ansay,Alvarado,64.77,158.76,111.13,161.03,430.91,Single-ply,SBD,M,
Boys,67.13,7,Cameron Conklin,Joshua,66.77,163.29,99.79,167.83,430.91,Single-ply,SBD,M,
Boys,67.13,8,Chris Trout,Cleburne,66.86,163.29,79.38,163.29,405.97,Single-ply,SBD,M,
Boys,67.13,9,Matt Cavallero,Burleson Centennial,64.23,124.74,83.91,136.08,344.73,Single-ply,SBD,M,
Boys,67.13,10,Joshua Rucker,Sidney,64.77,117.93,77.11,142.88,337.93,Single-ply,SBD,M,
Boys,67.13,11,Jeremy Berstler,Burleson Centennial,65.14,127.01,68.04,142.88,337.93,Single-ply,SBD,M,
Boys,67.13,DQ,Trenton Jonson,Cleburne,64.86,195.04,104.33,,,Single-ply,SBD,M,
Boys,67.13,DQ,Ladavon Springs,Waco,65.59,170.1,,,,Single-ply,SBD,M,
Boys,74.84,1,Ethan Brown,Burleson,73.94,210.92,113.4,208.65,532.97,Single-ply,SBD,M,
Boys,74.84,2,Triston McDonald,Mansfield Timberview,72.94,204.12,108.86,208.65,521.63,Single-ply,SBD,M,
Boys,74.84,3,Brendene Ramos,Castleberry,73.48,188.24,140.61,188.24,517.1,Single-ply,SBD,M,
Boys,74.84,4,Brayson Fuller,Alvarado,72.21,217.72,120.2,163.29,501.22,Single-ply,SBD,M,
Boys,74.84,5,Jose Licerio,Castleberry,73.12,181.44,136.08,176.9,494.42,Single-ply,SBD,M,
Boys,74.84,6,Jordan Guerrero,Waxahachie,70.31,183.7,117.93,188.24,489.88,Single-ply,SBD,M,
Boys,74.84,7,Caden DeVries,Hillsboro,74.12,176.9,124.74,188.24,489.88,Single-ply,SBD,M,
Boys,74.84,8,Kolby Bartlett,Godley,73.21,199.58,102.06,179.17,480.81,Single-ply,SBD,M,
Boys,74.84,9,Ethan Hernandez,Burleson,73.39,176.9,106.59,190.51,474,Single-ply,SBD,M,
Boys,74.84,10,Conner Brackett,Burleson Centennial,70.49,181.44,129.27,161.03,471.74,Single-ply,SBD,M,
Boys,74.84,11,Cory Scantling,Sidney,71.21,172.37,106.59,176.9,455.86,Single-ply,SBD,M,
Boys,74.84,12,Ryan Walz,Burleson Centennial,74.57,154.22,108.86,190.51,453.59,Single-ply,SBD,M,
Boys,74.84,13,Adrien Moreno,Burleson,67.4,174.63,86.18,181.44,442.25,Single-ply,SBD,M,
Boys,74.84,14,Darren Greeson,Midlothian,71.4,172.37,99.79,163.29,435.45,Single-ply,SBD,M,
Boys,74.84,15,Josh Kinnard,Sidney,74.21,140.61,102.06,185.97,428.64,Single-ply,SBD,M,
Boys,74.84,16,Nathan Gottlich,Burleson Centennial,74.57,167.83,104.33,154.22,426.38,Single-ply,SBD,M,
Boys,74.84,17,Cayman Spence,Burleson Centennial,68.76,145.15,81.65,140.61,367.41,Single-ply,SBD,M,
Boys,74.84,18,Dylan Cox,Burleson Centennial,74.84,129.27,74.84,147.42,351.53,Single-ply,SBD,M,
Boys,74.84,DQ,Braylon Galbreath,Joshua,67.49,,,,,Single-ply,SBD,M,
Boys,82.1,1,Wesley Free,Cleburne,79.2,249.48,165.56,208.65,623.69,Single-ply,SBD,M,
Boys,82.1,2,Isaiah Claveran,Burleson,81.83,231.33,129.27,233.6,594.21,Single-ply,SBD,M,
Boys,82.1,3,Keith Guillory,Waco,79.38,210.92,142.88,226.8,580.6,Single-ply,SBD,M,
Boys,82.1,4,Ruben Reyes,Stephenville,79.2,213.19,131.54,226.8,571.53,Single-ply,SBD,M,
Boys,82.1,5,Laine Martin,Midlothian,80.74,208.65,113.4,208.65,530.7,Single-ply,SBD,M,
Boys,82.1,6,Burlen Johnson,Waxahachie,79.83,190.51,113.4,192.78,496.68,Single-ply,SBD,M,
Boys,82.1,7,Jackson Hunter,Burleson Centennial,78.47,142.88,92.99,156.49,392.36,Single-ply,SBD,M,
Boys,82.1,8,Judah Urrutia,Burleson Centennial,81.56,138.35,68.04,154.22,360.61,Single-ply,SBD,M,
Boys,82.1,DQ,Levi Elkins,Dawson,78.02,217.72,113.4,,,Single-ply,SBD,M,
Boys,89.81,1,Jonathen Guerrero,Waxahachie,87.18,224.53,136.08,226.8,587.4,Single-ply,SBD,M,
Boys,89.81,2,Christian Medina,Weatherford,89.27,208.65,154.22,219.99,582.87,Single-ply,SBD,M,
Boys,89.81,3,Trenton Blew,Burleson,88.72,210.92,122.47,201.85,535.24,Single-ply,SBD,M,
Boys,89.81,4,Adrian Padilla,Burleson,84.46,210.92,120.2,201.85,532.97,Single-ply,SBD,M,
Boys,89.81,5,Gabriel Serna,Burleson Centennial,88.9,172.37,136.08,181.44,489.88,Single-ply,SBD,M,
Boys,89.81,6,Christian Hudson,Burleson Centennial,85.91,195.04,117.93,170.1,483.08,Single-ply,SBD,M,
Boys,89.81,7,Jadarius Thursby,Duncanville,86,181.44,104.33,181.44,467.2,Single-ply,SBD,M,
Boys,89.81,8,Parker Hancock,Burleson Centennial,83.73,124.74,92.99,151.95,369.68,Single-ply,SBD,M,
Boys,89.81,DQ,Tomas Gutierez,Sidney,85.09,158.76,79.38,,,Single-ply,SBD,M,
Boys,89.81,DQ,Braxton Bailey,Cleburne,83.01,,,,,Single-ply,SBD,M,
Boys,99.79,1,Adam Woods,Fort Worth Polytechnic,99.7,260.82,145.15,260.82,666.78,Single-ply,SBD,M,
Boys,99.79,2,Will Asalele,Burleson,97.61,258.55,163.29,242.67,664.51,Single-ply,SBD,M,
Boys,99.79,3,Jt Cavender,Midlothian,97.52,226.8,156.49,238.14,621.42,Single-ply,SBD,M,
Boys,99.79,4,Genaro Vital,Cleburne,91.53,231.33,158.76,213.19,603.28,Single-ply,SBD,M,
Boys,99.79,5,Victor Davila,Weatherford,95.44,217.72,156.49,219.99,594.21,Single-ply,SBD,M,
Boys,99.79,6,Rodolfo Ramirez,Richardson Pearce,97.89,238.14,111.13,240.4,589.67,Single-ply,SBD,M,
Boys,99.79,7,Andrew Freese,Burleson,97.07,222.26,117.93,231.33,571.53,Single-ply,SBD,M,
Boys,99.79,8,Gabe Tatum,Burleson Centennial,97.43,199.58,115.67,206.38,521.63,Single-ply,SBD,M,
Boys,99.79,9,Cedric Moore,Waxahachie,91.72,183.7,106.59,204.12,494.42,Single-ply,SBD,M,
Boys,99.79,10,Cam'ron Spells,Sidney,96.34,183.7,104.33,185.97,474,Single-ply,SBD,M,
Boys,99.79,11,Jake Stacy,Burleson Centennial,98.79,190.51,129.27,154.22,474,Single-ply,SBD,M,
Boys,99.79,12,Jerry Scales,Duncanville,95.62,147.42,108.86,188.24,444.52,Single-ply,SBD,M,
Boys,99.79,13,Cody Medlock,Duncanville,92.44,145.15,102.06,142.88,390.09,Single-ply,SBD,M,
Boys,99.79,DQ,David Batten,Burleson Centennial,97.52,174.63,92.99,,,Single-ply,SBD,M,
Boys,99.79,DQ,Brad Gregory,Joshua,99.61,226.8,,,,Single-ply,SBD,M,
Boys,109.77,1,Caleb Banks,Burleson,102.51,278.96,145.15,240.4,664.51,Single-ply,SBD,M,
Boys,109.77,2,Cooper Zelazny,Joshua,108.59,244.94,136.08,210.92,591.94,Single-ply,SBD,M,
Boys,109.77,3,Jakari Buie,Arlington Seguin,107.14,231.33,131.54,215.46,578.33,Single-ply,SBD,M,
Boys,109.77,4,Justin Cuellar,Waxahachie,106.41,217.72,149.69,204.12,571.53,Single-ply,SBD,M,
Boys,109.77,5,Fabian Baltrip,Waxahachie,107.41,226.8,129.27,197.31,553.38,Single-ply,SBD,M,
Boys,109.77,6,Elijah Carlisle,Burleson Centennial,106.96,179.17,127.01,190.51,496.68,Single-ply,SBD,M,
Boys,109.77,7,Colton Caldwell,Waxahachie,104.42,197.31,122.47,170.1,489.88,Single-ply,SBD,M,
Boys,109.77,8,Loggan Birch,Burleson Centennial,105.23,176.9,120.2,183.7,480.81,Single-ply,SBD,M,
Boys,109.77,9,Luis Otero,Waxahachie,102.6,181.44,111.13,151.95,444.52,Single-ply,SBD,M,
Boys,109.77,10,Chase Campbell,Duncanville,108.5,167.83,108.86,165.56,442.25,Single-ply,SBD,M,
Boys,109.77,11,Marcus McCall,Duncanville,100.52,151.95,108.86,165.56,426.38,Single-ply,SBD,M,
Boys,109.77,12,Marcus Vinson,Duncanville,106.32,147.42,88.45,142.88,378.75,Single-ply,SBD,M,
Boys,109.77,DQ,Josh Rodriguez,Cleburne,108.59,,,,,Single-ply,SBD,M,
Boys,109.77,DQ,Jace Martin,Midlothian,104.69,240.4,122.47,,,Single-ply,SBD,M,
Boys,124.74,1,Jared Negrete,Burleson,120.93,290.3,154.22,249.48,694,Single-ply,SBD,M,
Boys,124.74,2,Marshall Hodges,Midlothian,121.93,272.16,163.29,256.28,691.73,Single-ply,SBD,M,
Boys,124.74,3,Armani Cathey,Mansfield Timberview,119.84,278.96,147.42,226.8,653.17,Single-ply,SBD,M,
Boys,124.74,4,Klaus Schoenborn,Burleson,118.3,265.35,145.15,226.8,637.3,Single-ply,SBD,M,
Boys,124.74,5,Chandler Poggensee,Burleson,117.48,235.87,147.42,219.99,603.28,Single-ply,SBD,M,
Boys,124.74,6,Tim Zamira,Godley,112.58,256.28,151.95,192.78,601.01,Single-ply,SBD,M,
Boys,124.74,7,Alex Delgado,Waxahachie,114.67,231.33,149.69,219.99,601.01,Single-ply,SBD,M,
Boys,124.74,8,Wesley Hillis,Cleburne,122.74,201.85,120.2,210.92,532.97,Single-ply,SBD,M,
Boys,124.74,9,Jaylen Early,Duncanville,123.01,124.74,113.4,192.78,430.91,Single-ply,SBD,M,
Boys,124.74,10,Kedrick Williams,Duncanville,118.84,156.49,102.06,165.56,424.11,Single-ply,SBD,M,
Boys,124.74,11,Kristian Whitfield,Duncanville,119.66,174.63,92.99,156.49,424.11,Single-ply,SBD,M,
Boys,124.74,12,Ja'breohn Peters,Duncanville,116.66,151.95,97.52,149.69,399.16,Single-ply,SBD,M,
Boys,124.74,DQ,Cesar Reyes,Alvarado,117.3,235.87,145.15,,,Single-ply,SBD,M,
Boys,124.74+,1,Josh Rangel,Cleburne,137.17,294.84,167.83,233.6,696.26,Single-ply,SBD,M,
Boys,124.74+,2,Brody Nors,Burleson Centennial,143.97,258.55,185.97,249.48,694,Single-ply,SBD,M,
Boys,124.74+,3,Hesjar Martinez,Midlothian,137.08,251.74,181.44,204.12,637.3,Single-ply,SBD,M,
Boys,124.74+,4,Trent Tidwell,Hillsboro,130.18,247.21,156.49,226.8,630.49,Single-ply,SBD,M,
Boys,124.74+,5,Collin Black,Godley,131.27,256.28,142.88,215.46,614.62,Single-ply,SBD,M,
Boys,124.74+,6,Blue Wilson,Burleson,141.52,238.14,142.88,226.8,607.81,Single-ply,SBD,M,
Boys,124.74+,7,Aaron Mercado,Burleson Centennial,157.4,235.87,149.69,208.65,594.21,Single-ply,SBD,M,
Boys,124.74+,8,Dustyn McLane,Burleson,155.04,226.8,136.08,195.04,557.92,Single-ply,SBD,M,
Boys,124.74+,9,Jayce Flemming,Burleson Centennial,132.09,188.24,149.69,215.46,553.38,Single-ply,SBD,M,
Boys,124.74+,10,Luis Gonzales,Duncanville,133.36,188.24,106.59,208.65,503.49,Single-ply,SBD,M,
Boys,124.74+,11,Alonzo Green,Duncanville,148.87,210.92,127.01,149.69,487.61,Single-ply,SBD,M,
Boys,124.74+,12,Joseph Allen,Duncanville,146.87,210.92,124.74,142.88,478.54,Single-ply,SBD,M,
Boys,124.74+,13,Kaden Saey,Duncanville,126.64,183.7,117.93,149.69,451.32,Single-ply,SBD,M,
Boys,124.74+,DQ,Brently Smith,Cleburne,135.62,,,,,Single-ply,SBD,M,
