Division,WeightClassKg,Place,Name,Team,BodyweightKg,Best3SquatKg,Best3BenchKg,Best3DeadliftKg,TotalKg,Equipment,Event,Sex
Boys,51.71,1,Cesar Casas,Hidalgo Early College,51.71,165.56,102.06,181.44,449.06,Single-ply,SBD,M
Boys,51.71,2,Pablo Gutierrez,Weslaco East,51.44,136.08,102.06,176.9,415.04,Single-ply,SBD,M
Boys,51.71,3,David Garcia,Pharr Valley View,49.44,120.2,68.04,149.69,337.93,Single-ply,SBD,M
Boys,51.71,DQ,Louis Vasquez,Los Fresnos,50.35,,,,,Single-ply,SBD,M
Boys,55.79,1,Rigo Pena,Pharr Valley View,55.11,192.78,120.2,188.24,501.22,Single-ply,SBD,M
Boys,55.79,2,Jesse Leyva,Raymondville,55.79,142.88,72.57,165.56,381.02,Single-ply,SBD,M
Boys,55.79,3,Carlos García,Weslaco East,54.25,95.25,61.23,136.08,292.57,Single-ply,SBD,M
Boys,55.79,4,Juan Ayala,Weslaco,54.43,111.13,54.43,127.01,292.57,Single-ply,SBD,M
Boys,55.79,5,Aaron Vasquez,Edcouch-Elsa,55.34,104.33,65.77,102.06,272.16,Single-ply,SBD,M
Boys,55.79,6,Billy Guerra,La Feria,53.98,113.4,49.9,99.79,263.08,Single-ply,SBD,M
Boys,59.87,1,Rey Fernandez,Donna,58.33,158.76,88.45,181.44,428.64,Single-ply,SBD,M
Boys,59.87,2,Jesus Garcia Huerta,Mission,58.42,161.03,92.99,167.83,421.84,Single-ply,SBD,M
Boys,59.87,3,Julio Rodriguez,Raymondville,59.87,127.01,86.18,188.24,401.43,Single-ply,SBD,M
Boys,59.87,4,Jordan Aguilar,Mercedes,59.42,140.61,90.72,142.88,374.21,Single-ply,SBD,M
Boys,67.13,5,Christian Gonzalez,Weslaco,60.06,142.88,83.91,142.88,369.68,Single-ply,SBD,M
Boys,59.87,6,Eduardo Jilpas,Weslaco,59.87,136.08,65.77,149.69,351.53,Single-ply,SBD,M
Boys,59.87,7,Jose Briones,Pharr Valley View,57.61,120.2,68.04,,188.24,Single-ply,SB,M
Boys,59.87,DQ,Robert Aranda,Mission Veterans Memorial,59.87,158.76,,,,Single-ply,SB,M
Boys,59.87,DQ,James Zaragoza,Raymondville,59.87,,,,,Single-ply,SB,M
Boys,67.13,1,Robert Cantu,Mission Sharyland,67.09,226.8,122.47,199.58,548.85,Single-ply,SBD,M
Boys,67.13,2,Jose Bazaldua,Mercedes,66.22,204.12,124.74,204.12,532.97,Single-ply,SBD,M
Boys,67.13,3,Joseph Zaragoza,Raymondville,63.05,210.92,136.08,183.7,530.7,Single-ply,SBD,M
Boys,67.13,4,Joe Torres,Los Fresnos,66.22,201.85,127.01,195.04,523.9,Single-ply,SBD,M
Boys,67.13,5,Brandon Ramon,La Feria,67.13,174.63,102.06,183.7,460.4,Single-ply,SBD,M
Boys,67.13,6,Hernan Guerrero,Rio Hondo,63.05,158.76,106.59,161.03,426.38,Single-ply,SBD,M
Boys,67.13,7,Saul Cuellar,Weslaco East,65.32,170.1,92.99,156.49,419.57,Single-ply,SBD,M
Boys,74.84,8,Ray Osorio,Mission,67.27,158.76,90.72,158.76,408.23,Single-ply,SBD,M
Boys,67.13,9,Juan Guerrero,Weslaco,61.69,97.52,68.04,127.01,292.57,Single-ply,SBD,M
Boys,67.13,DQ,Julian Morales,Weslaco,66.22,,,,,Single-ply,SBD,M
Boys,67.13,DQ,Victor Acosta,Pharr Valley View,61.69,136.08,,,,Single-ply,SBD,M
Boys,74.84,DQ,Erick Flores,Mission,67.27,,,,,Single-ply,SBD,M
Boys,67.13,DQ,Chris Morales,Edcouch-Elsa,62.6,115.67,,,,Single-ply,SBD,M
Boys,67.13,DQ,Joe Rocafuerte,Los Fresnos,65.77,,,,,Single-ply,SBD,M
Boys,74.84,1,Derek Andrade,Weslaco East,73.94,188.24,127.01,226.8,542.04,Single-ply,SBD,M
Boys,74.84,2,Edward Palomin,Weslaco,68.04,213.19,117.93,199.58,530.7,Single-ply,SBD,M
Boys,74.84,3,Marco Lopez,Donna,70.94,199.58,108.86,170.1,478.54,Single-ply,SBD,M
Boys,74.84,4,Richard Hernandez,Edcouch-Elsa,74.84,174.63,102.06,181.44,458.13,Single-ply,SBD,M
Boys,74.84,5,Adonis Juarez,Mission,68.22,170.1,108.86,170.1,449.06,Single-ply,SBD,M
Boys,74.84,6,Diego Garcia,Edcouch-Elsa,72.57,170.1,102.06,161.03,433.18,Single-ply,SBD,M
Boys,74.84,7,Jonathan Ruiz,Rio Hondo,73.94,165.56,97.52,154.22,417.3,Single-ply,SBD,M
Boys,74.84,8,Ricardo Vela,Hidalgo Early College,69.4,102.06,74.84,136.08,312.98,Single-ply,SBD,M
Boys,74.84,DQ,Brian Sanchez,Weslaco East,74.57,185.97,120.2,,,Single-ply,SBD,M
Boys,74.84,DQ,Lenny Villanueva,Mercedes,71.21,154.22,92.99,,,Single-ply,SBD,M
Boys,82.1,1,Luis Munoz #4,Hidalgo Early College,81.65,272.16,140.61,219.99,632.76,Single-ply,SBD,M
Boys,82.1,2,Chris Belmares,Weslaco East,81.47,233.6,133.81,235.87,603.28,Single-ply,SBD,M
Boys,82.1,3,Robert Trevino,Edcouch-Elsa,81.65,226.8,120.2,226.8,573.79,Single-ply,SBD,M
Boys,82.1,4,Max Castillo,Rio Hondo,81.65,226.8,133.81,204.12,564.72,Single-ply,SBD,M
Boys,89.81,5,Randy de la Garza,Mission,82.24,233.6,136.08,195.04,564.72,Single-ply,SBD,M
Boys,82.1,6,Marcos Villarreal,Mission Sharyland,80.29,197.31,140.61,199.58,537.51,Single-ply,SBD,M
Boys,82.1,7,Rick Garza,Mercedes,81.19,204.12,124.74,181.44,510.29,Single-ply,SBD,M
Boys,82.1,8,Ramon Sauceda,La Feria,77.56,201.85,111.13,188.24,501.22,Single-ply,SBD,M
Boys,89.81,9,Mike Cadena,Donna,82.33,185.97,99.79,190.51,476.27,Single-ply,SBD,M
Boys,82.1,10,Jesse Coronado,Weslaco,82.1,181.44,102.06,165.56,449.06,Single-ply,SBD,M
Boys,82.1,11,Armando Garza,La Feria,75.75,174.63,95.25,165.56,435.45,Single-ply,SBD,M
Boys,82.1,12,Edgar Fernandez,Mission Sharyland,81.65,158.76,106.59,170.1,435.45,Single-ply,SBD,M
Boys,82.1,13,Elias Sierra,Weslaco East,80.01,163.29,88.45,167.83,419.57,Single-ply,SBD,M
Boys,82.1,14,Baldemar Jimenez,San Benito,76.66,142.88,106.59,167.83,417.3,Single-ply,SBD,M
Boys,82.1,DQ,Jose Melendez,Pharr Valley View,80.74,161.03,,,,Single-ply,SBD,M
Boys,82.1,DQ,Michael Ruiz,Mercedes,82.1,129.27,,,,Single-ply,SBD,M
Boys,82.1,DQ,Jesse Vega,Mercedes,81.65,206.38,,,,Single-ply,SBD,M
Boys,82.1,DQ,Abel Rangel,La Feria,76.2,190.51,88.45,,,Single-ply,SBD,M
Boys,89.81,1,Danny Mora,Mission Sharyland,89.36,242.67,129.27,247.21,619.15,Single-ply,SBD,M
Boys,89.81,2,John Arevalo,Weslaco East,89.63,247.21,124.74,233.6,605.55,Single-ply,SBD,M
Boys,89.81,3,Arnulfo Marin,Pharr Valley View,89.36,244.94,124.74,217.72,587.4,Single-ply,SBD,M
Boys,89.81,4,Andrew Cura,Mission Sharyland,88,238.14,120.2,222.26,580.6,Single-ply,SBD,M
Boys,89.81,5,Juan Sanchez,Rio Hondo,89.81,235.87,124.74,204.12,564.72,Single-ply,SBD,M
Boys,89.81,6,Lee Gamez,Mercedes,89.81,213.19,127.01,195.04,535.24,Single-ply,SBD,M
Boys,89.81,7,AJ Alvarez,Donna,88.36,208.65,117.93,204.12,530.7,Single-ply,SBD,M
Boys,89.81,8,Alberto Roque,Mission,89.4,208.65,124.74,192.78,526.17,Single-ply,SBD,M
Boys,89.81,9,Rene Gutierrez,Pharr Valley View,89.36,183.7,99.79,161.03,444.52,Single-ply,SBD,M
Boys,89.81,10,Marco Gutierrez,La Feria,84.37,170.1,99.79,149.69,419.57,Single-ply,SBD,M
Boys,89.81,11,Benigno Medina,Mission Veterans Memorial,85.28,154.22,86.18,172.37,412.77,Single-ply,SBD,M
Boys,89.81,12,Jose Cardenas,Mission Veterans Memorial,84.37,163.29,92.99,149.69,405.97,Single-ply,SBD,M
Boys,89.81,13,Matthew Cortez,Mission Veterans Memorial,86.18,154.22,61.23,163.29,378.75,Single-ply,SBD,M
Boys,89.81,14,Richard Rodriguez,Mission Veterans Memorial,88.9,142.88,92.99,142.88,378.75,Single-ply,SBD,M
Boys,89.81,DQ,Juan Valera,Edcouch-Elsa,85.28,181.44,,,,Single-ply,SBD,M
Boys,89.81,DQ,Christian Brown,Pharr Valley View,82.55,167.83,106.59,,,Single-ply,SBD,M
Boys,99.79,1,Mark Cavazos,Raymondville,96.62,278.96,192.78,219.99,691.73,Single-ply,SBD,M
Boys,99.79,2,Ej Castaneda,Rio Hondo,92.53,249.48,183.7,217.72,650.91,Single-ply,SBD,M
Boys,99.79,3,Jose Pitones,Pharr Valley View,92.99,226.8,140.61,249.48,616.89,Single-ply,SBD,M
Boys,99.79,4,Victor Aguilar,Mercedes,90.72,226.8,136.08,208.65,571.53,Single-ply,SBD,M
Boys,99.79,5,Joe Perez,Los Fresnos,95.25,238.14,133.81,188.24,560.19,Single-ply,SBD,M
Boys,99.79,6,Javier Arriaga,Rio Hondo,96.16,192.78,142.88,217.72,553.38,Single-ply,SBD,M
Boys,99.79,7,Isaac Carrizales,La Feria,97.07,208.65,140.61,201.85,551.11,Single-ply,SBD,M
Boys,99.79,8,Jc Lopez,Donna,99.61,192.78,124.74,176.9,494.42,Single-ply,SBD,M
Boys,99.79,9,Alvaro Torres,Weslaco,92.99,181.44,106.59,174.63,462.66,Single-ply,SBD,M
Boys,99.79,10,Israel Torres,La Feria,91.63,129.27,77.11,170.1,376.48,Single-ply,SBD,M
Boys,99.79,DQ,Mario Vera,Edcouch-Elsa,97.98,,,,,Single-ply,SBD,M
Boys,99.79,DQ,Ruben Rubio,Mercedes,99.79,235.87,,,,Single-ply,SBD,M
Boys,99.79,DQ,Jose Aldana,Mission,92.4,,,,,Single-ply,SBD,M
Boys,109.77,1,Gregory Juarez,Raymondville,101.6,297.1,165.56,229.06,691.73,Single-ply,SBD,M
Boys,109.77,2,Christian Garcia,Weslaco East,103.87,258.55,156.49,244.94,659.98,Single-ply,SBD,M
Boys,109.77,3,Mike Garza,Edcouch-Elsa,105.23,219.99,129.27,204.12,553.38,Single-ply,SBD,M
Boys,109.77,4,Anthony Rodriguez,Edcouch-Elsa,108.41,201.85,142.88,183.7,528.44,Single-ply,SBD,M
Boys,109.77,5,Joe Cruz,Rio Hondo,106.14,192.78,136.08,192.78,521.63,Single-ply,SBD,M
Boys,109.77,6,Jose Juarez #5,Weslaco,100.24,206.38,104.33,204.12,514.83,Single-ply,SBD,M
Boys,109.77,7,Nick Lemos,Mission Sharyland,101.6,195.04,113.4,181.44,489.88,Single-ply,SBD,M
Boys,109.77,8,Jesus Anaya,Weslaco,101.6,190.51,95.25,174.63,460.4,Single-ply,SBD,M
Boys,109.77,9,Esteban Reyes,Weslaco,100.7,172.37,104.33,167.83,444.52,Single-ply,SBD,M
Boys,109.77,10,Jaime Moreno,Donna,107.05,176.9,99.79,142.88,419.57,Single-ply,SBD,M
Boys,109.77,11,Eulalio Buenrostro,San Benito,103.87,142.88,102.06,167.83,412.77,Single-ply,SBD,M
Boys,109.77,12,Miguel Garza,Mission Veterans Memorial,103.87,147.42,97.52,133.81,378.75,Single-ply,SBD,M
Boys,109.77,DQ,Eli Escanme,Mission Sharyland,102.51,192.78,,,,Single-ply,SBD,M
Boys,109.77,DQ,Jose Serrato,Mission,104.64,170.1,,,,Single-ply,SBD,M
Boys,124.74,DQ,Joseph Guerrero,Donna,109.91,,,,,Single-ply,SBD,M
Boys,109.77,DQ,Juan Garcia,Los Fresnos,108.86,235.87,,,,Single-ply,SBD,M
Boys,109.77,DQ,Jonathan Bolanos,Hidalgo Early College,108.86,154.22,,,,Single-ply,SBD,M
Boys,124.74,1,Carlos Cuellar,Weslaco East,119.29,326.59,197.31,263.08,786.98,Single-ply,SBD,M
Boys,124.74,2,Christian Guajardo,Pharr Valley View,123.83,254.01,181.44,244.94,680.39,Single-ply,SBD,M
Boys,124.74,3,Jorge Alvarez,Edcouch-Elsa,124.74,272.16,179.17,226.8,678.12,Single-ply,SBD,M
Boys,124.74,4,Jose Castaneda,Raymondville,122.02,265.35,142.88,233.6,641.83,Single-ply,SBD,M
Boys,124.74,5,Josh Cavazos,Mission Sharyland,115.67,224.53,136.08,249.48,610.08,Single-ply,SBD,M
Boys,124.74,6,Juan Gallegos,Rio Hondo,111.58,235.87,142.88,213.19,591.94,Single-ply,SBD,M
Boys,124.74,7,Apollo Romo,Mercedes,124.74,249.48,104.33,235.87,589.67,Single-ply,SBD,M
Boys,124.74,8,Keith Mora,Mission Sharyland,120.2,226.8,111.13,208.65,546.58,Single-ply,SBD,M
Boys,124.74,9,Raul de la Cruz,Mission,116.12,222.26,102.06,188.24,512.56,Single-ply,SBD,M
Boys,124.74,10,Richard Cervantes,Mission Sharyland,124.28,204.12,111.13,,315.25,Single-ply,SB,M
Boys,124.74,DQ,Robbie Garcia,Mercedes,112.49,215.46,138.35,,,Single-ply,SB,M
Boys,124.74+,1,Danny Young,Mercedes,139.71,249.48,131.54,229.06,610.08,Single-ply,SBD,M
Boys,124.74+,2,Juan Pena,Raymondville,129.27,265.35,133.81,206.38,605.55,Single-ply,SBD,M
Boys,124.74+,3,Alvin Lofton,Edcouch-Elsa,133.81,233.6,142.88,219.99,596.47,Single-ply,SBD,M
Boys,124.74+,4,Luis Hernandez,Mission Sharyland,131.09,242.67,124.74,208.65,576.06,Single-ply,SBD,M
Boys,124.74+,5,Jose Limon,Los Fresnos,138.8,213.19,92.99,204.12,510.29,Single-ply,SBD,M
Boys,124.74+,DQ,Cristian Castro,San Benito,136.98,,,,,Single-ply,SBD,M
Boys,124.74+,DQ,Joshua Lopez,Rio Hondo,127.01,176.9,124.74,,,Single-ply,SBD,M
Boys,124.74+,DQ,Domonic Tijerina,Raymondville,148.32,,,,,Single-ply,SBD,M
