Division,WeightClassKg,Place,Name,Team,BodyweightKg,Best3SquatKg,Best3BenchKg,Best3DeadliftKg,TotalKg,Equipment,Event,Sex
Boys,51.71,1,Santos Figueroa,Plainview,51.71,142.88,72.57,149.69,365.14,Single-ply,SBD,M
Boys,55.79,1,Avery Gallegos,Plainview,54.07,145.15,81.65,161.03,387.82,Single-ply,SBD,M
Boys,55.79,2,Brennan Riker,Post,55.43,158.76,90.72,138.35,387.82,Single-ply,SBD,M
Boys,55.79,3,Christian Rayos,Levelland,54.25,129.27,88.45,149.69,367.41,Single-ply,SBD,M
Boys,55.79,4,Jaylon Luna,Ropesville Ropes,54.61,120.2,68.04,115.67,303.91,Single-ply,SBD,M
Boys,55.79,5,Anthony Tran,Seminole,55.25,108.86,63.5,124.74,297.1,Single-ply,SBD,M
Boys,55.79,6,Dayton Deanola,New Home,55.79,86.18,49.9,120.2,256.28,Single-ply,SBD,M
Boys,55.79,7,Bryan Marquez,Andrews,55.52,83.91,43.09,92.99,219.99,Single-ply,SBD,M
Boys,55.79,8,Tyler Valdez,Levelland,55.43,49.9,52.16,92.99,195.04,Single-ply,SBD,M
Boys,59.87,1,Cysco Barrera,Plainview,59.87,163.29,86.18,188.24,437.72,Single-ply,SBD,M
Boys,59.87,2,Johnathan Vidal,Denver City,59.51,138.35,79.38,165.56,383.29,Single-ply,SBD,M
Boys,59.87,3,Skyler Steen,Plainview,58.79,147.42,70.31,158.76,376.48,Single-ply,SBD,M
Boys,59.87,4,Adrian Martinez #12,Odessa,58.24,133.81,74.84,136.08,344.73,Single-ply,SBD,M
Boys,59.87,5,Daniel Estrada,New Home,59.87,136.08,56.7,142.88,335.66,Single-ply,SBD,M
Boys,59.87,6,Adalberto Verdugo,Seminole,59.87,113.4,58.97,113.4,285.76,Single-ply,SBD,M
Boys,59.87,DQ,Kobi Sosa,Lubbock,56.25,102.06,,,,Single-ply,SBD,M
Boys,67.13,1,Brandon Sigala,Levelland,67.13,181.44,111.13,226.8,519.36,Single-ply,SBD,M
Boys,67.13,2,Benito Hernandez,Odessa,67.13,167.83,111.13,165.56,444.52,Single-ply,SBD,M
Boys,67.13,3,Oscar Ariza,Seminole,66.13,151.95,88.45,165.56,405.97,Single-ply,SBD,M
Boys,67.13,4,Luis Zubiate,Seminole,66.22,158.76,72.57,167.83,399.16,Single-ply,SBD,M
Boys,67.13,5,Case Dickey,Wolfforth Frenship,65.23,147.42,81.65,158.76,387.82,Single-ply,SBD,M
Boys,67.13,6,Eli Samarron,Whiteface,66.68,136.08,88.45,140.61,365.14,Single-ply,SBD,M
Boys,67.13,7,Colter Robertson,Seminole,67.04,145.15,72.57,136.08,353.8,Single-ply,SBD,M
Boys,67.13,8,Roberto Hurtado,Denver City,66.41,127.01,79.38,136.08,342.46,Single-ply,SBD,M
Boys,67.13,9,Drake Wyatt,Ropesville Ropes,64.68,117.93,68.04,145.15,331.12,Single-ply,SBD,M
Boys,67.13,10,Angel Camero,Levelland,65.95,106.59,72.57,145.15,324.32,Single-ply,SBD,M
Boys,67.13,11,Nicholas Martinez,Levelland,61.6,106.59,61.23,127.01,294.84,Single-ply,SBD,M
Boys,67.13,12,Landon Pevey,Post,67.04,104.33,74.84,108.86,288.03,Single-ply,SBD,M
Boys,67.13,13,Ubaldo Garcia,Lubbock,67.13,92.99,52.16,127.01,272.16,Single-ply,SBD,M
Boys,67.13,14,Mario Jasso,Plains,66.68,81.65,65.77,108.86,256.28,Single-ply,SBD,M
Boys,67.13,DQ,Adrian Castillo,Levelland,65.77,,,,,Single-ply,SBD,M
Boys,74.84,1,Dagan Barella,Plainview,72.85,213.19,129.27,210.92,553.38,Single-ply,SBD,M
Boys,74.84,2,Devin Doerksen,Seminole,72.21,188.24,104.33,199.58,492.15,Single-ply,SBD,M
Boys,74.84,3,John Chavez,Plainview,74.75,190.51,113.4,172.37,476.27,Single-ply,SBD,M
Boys,74.84,4,Izaih Landa,Post,74.12,174.63,106.59,172.37,453.59,Single-ply,SBD,M
Boys,74.84,5,Hayden Gray,Seminole,71.94,156.49,99.79,165.56,421.84,Single-ply,SBD,M
Boys,74.84,6,Michael Dean #4,Post,71.76,156.49,83.91,163.29,403.7,Single-ply,SBD,M
Boys,74.84,7,Eric Cuellar,Andrews,69.94,124.74,83.91,190.51,399.16,Single-ply,SBD,M
Boys,74.84,8,Aldo Mendoza,Post,69.76,142.88,83.91,140.61,367.41,Single-ply,SBD,M
Boys,74.84,9,Austin Keys,New Home,70.85,136.08,77.11,147.42,360.61,Single-ply,SBD,M
Boys,74.84,10,Brenn Edwards,Ropesville Ropes,73.75,131.54,63.5,163.29,358.34,Single-ply,SBD,M
Boys,74.84,11,Nick Quintana,Post,74.48,140.61,79.38,138.35,358.34,Single-ply,SBD,M
Boys,74.84,12,Ethan Fox,Post,73.3,138.35,74.84,133.81,347,Single-ply,SBD,M
Boys,74.84,13,Johnathon Schulte,Levelland,74.03,115.67,79.38,138.35,333.39,Single-ply,SBD,M
Boys,74.84,14,Pete Hernandez,Wolfforth Frenship,68.86,108.86,63.5,142.88,315.25,Single-ply,SBD,M
Boys,74.84,15,Jackson Rains,Plains,70.76,90.72,74.84,113.4,278.96,Single-ply,SBD,M
Boys,74.84,16,Ky Collins,Ropesville Ropes,69.58,102.06,52.16,111.13,265.35,Single-ply,SBD,M
Boys,74.84,17,Jacob Guy,Andrews,67.59,106.59,45.36,106.59,258.55,Single-ply,SBD,M
Boys,74.84,DQ,Ramiro Lopez,Andrews,69.4,129.27,83.91,,,Single-ply,SBD,M
Boys,74.84,DQ,Oscar Sanchez,Odessa,73.75,161.03,,,,Single-ply,SBD,M
Boys,82.1,1,Jezreel Sanchez-Juarez,Odessa,80.01,213.19,122.47,229.06,564.72,Single-ply,SBD,M
Boys,82.1,2,Isaac Garza,Levelland,80.92,188.24,127.01,213.19,528.44,Single-ply,SBD,M
Boys,82.1,3,Alan Rodriguez,Andrews,81.56,176.9,120.2,199.58,496.68,Single-ply,SBD,M
Boys,82.1,4,Carson Freimuth,Lubbock,81.83,170.1,102.06,201.85,474,Single-ply,SBD,M
Boys,82.1,5,Tyler Paris,Odessa,80.29,138.35,111.13,195.04,444.52,Single-ply,SBD,M
Boys,82.1,6,William Hewitt,Seminole,76.11,167.83,90.72,163.29,421.84,Single-ply,SBD,M
Boys,82.1,7,Justin Self,Post,77.29,136.08,92.99,179.17,408.23,Single-ply,SBD,M
Boys,82.1,8,Jonah Gonzales,Plains,79.92,138.35,81.65,149.69,369.68,Single-ply,SBD,M
Boys,82.1,9,Nathan Flora,Andrews,80.92,133.81,77.11,151.95,362.87,Single-ply,SBD,M
Boys,82.1,10,Asthton Hernandez,Andrews,76.11,131.54,86.18,136.08,353.8,Single-ply,SBD,M
Boys,82.1,11,Taden Tapaha,Denver City,80.01,129.27,83.91,131.54,344.73,Single-ply,SBD,M
Boys,82.1,12,Sergio Burgoin,Plains,79.92,104.33,74.84,136.08,315.25,Single-ply,SBD,M
Boys,82.1,13,Oscar Carnero,Andrews,77.93,108.86,61.23,136.08,306.17,Single-ply,SBD,M
Boys,82.1,14,Jahdiel Diaz,Denver City,79.83,88.45,54.43,90.72,233.6,Single-ply,SBD,M
Boys,89.81,1,Julian Rios,Wolfforth Frenship,82.55,235.87,120.2,215.46,571.53,Single-ply,SBD,M
Boys,89.81,2,Sergio Marquez,Plainview,88.36,219.99,124.74,217.72,562.45,Single-ply,SBD,M
Boys,89.81,3,Julian Flores,Wolfforth Frenship,86.73,183.7,131.54,190.51,505.76,Single-ply,SBD,M
Boys,89.81,4,Misael Castaneda,Whiteface,85.55,183.7,108.86,199.58,492.15,Single-ply,SBD,M
Boys,89.81,5,Cole Boren,Post,89.54,201.85,129.27,154.22,485.34,Single-ply,SBD,M
Boys,89.81,6,Nathan Mojica,New Home,87.54,163.29,86.18,172.37,421.84,Single-ply,SBD,M
Boys,89.81,7,Caden Merritt,Ropesville Ropes,88.09,131.54,83.91,142.88,358.34,Single-ply,SBD,M
Boys,89.81,DQ,Matthew Flores,Andrews,84.73,145.15,,,,Single-ply,SBD,M
Boys,99.79,1,Ian Alvidrez,Seminole,96.62,290.3,167.83,274.42,732.55,Single-ply,SBD,M
Boys,99.79,2,Sean Ramirez,Odessa Permian,99.79,278.96,183.7,238.14,700.8,Single-ply,SBD,M
Boys,99.79,3,D'Shae Casias,Plainview,98.34,256.28,138.35,226.8,621.42,Single-ply,SBD,M
Boys,99.79,4,Gary Brooks,Odessa,93.35,226.8,122.47,195.04,544.31,Single-ply,SBD,M
Boys,99.79,5,Damian Pena,Denver City,99.06,204.12,113.4,208.65,526.17,Single-ply,SBD,M
Boys,99.79,6,Jerimiah Vasquez,Lubbock,96.71,199.58,115.67,204.12,519.36,Single-ply,SBD,M
Boys,99.79,7,Irvin Delgado,Seminole,93.08,192.78,95.25,197.31,485.34,Single-ply,SBD,M
Boys,99.79,8,David Martinez #8,Odessa Permian,96.07,192.78,111.13,174.63,478.54,Single-ply,SBD,M
Boys,99.79,9,Colby Buckner,Andrews,99.7,204.12,106.59,151.95,462.66,Single-ply,SBD,M
Boys,99.79,10,Alex Castro,Denver City,94.98,158.76,90.72,181.44,430.91,Single-ply,SBD,M
Boys,99.79,11,Jose Jimenez,Andrews,92.08,142.88,90.72,183.7,417.3,Single-ply,SBD,M
Boys,109.77,1,Adrian Ramirez,Plainview,107.32,251.74,158.76,226.8,637.3,Single-ply,SBD,M
Boys,109.77,2,Francisco Nave,Odessa,101.24,226.8,147.42,195.04,569.26,Single-ply,SBD,M
Boys,109.77,3,Cody Barker,Wolfforth Frenship,108.23,213.19,113.4,233.6,560.19,Single-ply,SBD,M
Boys,109.77,4,Javier Cabello,Odessa,106.87,217.72,106.59,213.19,537.51,Single-ply,SBD,M
Boys,109.77,5,Isaiah Casias,Odessa Permian,109.04,197.31,142.88,192.78,532.97,Single-ply,SBD,M
Boys,109.77,6,Angel Rodríguez,Odessa,103.15,190.51,120.2,183.7,494.42,Single-ply,SBD,M
Boys,109.77,7,Caleb Alexander,Seminole,106.78,192.78,92.99,188.24,474,Single-ply,SBD,M
Boys,109.77,8,Tristen Williams,Odessa Permian,106.96,188.24,111.13,170.1,469.47,Single-ply,SBD,M
Boys,109.77,9,Cayman Smith,New Home,102.33,181.44,90.72,181.44,453.59,Single-ply,SBD,M
Boys,109.77,10,Jesus Trabado,Denver City,101.7,158.76,108.86,149.69,417.3,Single-ply,SBD,M
Boys,109.77,11,Drake Womack,Odessa Permian,106.96,158.76,104.33,147.42,410.5,Single-ply,SBD,M
Boys,109.77,12,Jayden Herenadez,Wolfforth Frenship,105.14,156.49,79.38,165.56,401.43,Single-ply,SBD,M
Boys,109.77,13,Justice Valdez,Plains,105.14,147.42,74.84,149.69,371.95,Single-ply,SBD,M
Boys,109.77,14,Korey Bass,Odessa Permian,108.23,136.08,90.72,136.08,362.87,Single-ply,SBD,M
Boys,124.74,1,Bryan Martinez,Plainview,112.94,272.16,165.56,226.8,664.51,Single-ply,SBD,M
Boys,124.74,2,Tim Dominguez,Plainview,110.22,231.33,140.61,219.99,591.94,Single-ply,SBD,M
Boys,124.74,3,Jaime Lopez,Wolfforth Frenship,120.2,183.7,129.27,204.12,517.1,Single-ply,SBD,M
Boys,124.74,4,Isaak Gamboa,Odessa Permian,118.39,188.24,113.4,181.44,483.08,Single-ply,SBD,M
Boys,124.74,5,Emilio Dominguez,Odessa,124.38,192.78,115.67,170.1,478.54,Single-ply,SBD,M
Boys,124.74,6,Joaguin Gonzales,Odessa Permian,113.49,188.24,99.79,170.1,458.13,Single-ply,SBD,M
Boys,124.74,7,John Rodriguez,Levelland,121.11,142.88,90.72,124.74,358.34,Single-ply,SBD,M
Boys,124.74+,1,Hunter Bolton,Ropesville Ropes,130.54,244.94,154.22,224.53,623.69,Single-ply,SBD,M
Boys,124.74+,2,Kwinton Jennings,Seminole,125.83,244.94,120.2,242.67,607.81,Single-ply,SBD,M
Boys,124.74+,3,Taye Perez,Post,131.81,233.6,133.81,222.26,589.67,Single-ply,SBD,M
Boys,124.74+,4,Kevin Sanders,Wolfforth Frenship,161.03,197.31,120.2,215.46,532.97,Single-ply,SBD,M
Boys,124.74+,5,Javen Diaz,Post,140.61,215.46,108.86,197.31,521.63,Single-ply,SBD,M
Boys,124.74+,6,Beau Zuniga,Levelland,135.08,190.51,108.86,217.72,517.1,Single-ply,SBD,M
Boys,124.74+,7,Chris Jackson #5,Post,125.24,190.51,124.74,188.24,503.49,Single-ply,SBD,M
Boys,124.74+,8,Chris Corralez,Odessa Permian,136.62,181.44,102.06,181.44,464.93,Single-ply,SBD,M
Boys,124.74+,9,Hagan Davilla,Odessa Permian,126.19,165.56,83.91,147.42,396.89,Single-ply,SBD,M
Boys,124.74+,10,Nick Herndon,Odessa Permian,130.91,149.69,90.72,142.88,383.29,Single-ply,SBD,M
Boys,,NS,Brynan Garland,Plains,,,,,,Single-ply,SBD,M
Boys,,NS,Alberto Morales,Plains,,,,,,Single-ply,SBD,M
Boys,,NS,Guillermo Loredo,Plains,,,,,,Single-ply,SBD,M
Boys,,NS,Gerardo Armendariz,Plains,,,,,,Single-ply,SBD,M
Boys,,NS,Juan Aguinaga,Plains,,,,,,Single-ply,SBD,M
Boys,,NS,Caleb Riojas,New Home,,,,,,Single-ply,SBD,M
Boys,,NS,Slade Lovelace,Plains,,,,,,Single-ply,SBD,M
Boys,,NS,Brett Gauger,New Home,,,,,,Single-ply,SBD,M
Boys,,NS,Jett Bullard,New Home,,,,,,Single-ply,SBD,M
Boys,,NS,Isaac Estrada,Odessa,,,,,,Single-ply,SBD,M
Boys,,NS,Cameron Diaz,Lubbock,,,,,,Single-ply,SBD,M
Boys,,NS,Saivion Cortez,Lubbock,,,,,,Single-ply,SBD,M
Boys,,NS,Rueben Lujan,Odessa Permian,,,,,,Single-ply,SBD,M
Boys,,NS,Marteis Rogers,Odessa Permian,,,,,,Single-ply,SBD,M
Boys,,NS,Jorge Pegueros,Odessa Permian,,,,,,Single-ply,SBD,M
Boys,,NS,Neftali Valdez,Post,,,,,,Single-ply,SBD,M
Boys,,NS,Alec Vasquez,Andrews,,,,,,Single-ply,SBD,M
Boys,,NS,Juan Hinojos,Andrews,,,,,,Single-ply,SBD,M
Boys,,NS,Tobi Banire,Wolfforth Frenship,,,,,,Single-ply,SBD,M
Boys,,NS,Tobi Bernal,Ropesville Ropes,,,,,,Single-ply,SBD,M
Boys,,NS,Ramon Zubiate,Denver City,,,,,,Single-ply,SBD,M
Boys,,NS,Adam Velasco,Denver City,,,,,,Single-ply,SBD,M
Boys,,NS,Abel Prieto,Denver City,,,,,,Single-ply,SBD,M
Boys,,NS,Ivan Esquivel,Denver City,,,,,,Single-ply,SBD,M
Boys,,NS,Elias Yanez,Denver City,,,,,,Single-ply,SBD,M
Boys,,NS,Jaden Lopez,Denver City,,,,,,Single-ply,SBD,M
Boys,,NS,Bobby Marez,Wolfforth Frenship,,,,,,Single-ply,SBD,M
Boys,,NS,Griffin Crume,Wolfforth Frenship,,,,,,Single-ply,SBD,M
